SYSTEM_CODE|BRAND_CODE|STORE_CODE|VIP_GRADE|VIP_DESCRIPTION|JOIN_YEAR|JOIN_WEEK|NEW_VIP_COUNT
HK|TBL|4202|GO|GOLD CARD|2014|8|20
HK|TBL|4202|GR|GREEN CARD|2014|8|56
HK|TBL|4202|FO|FRIENDS OF TIMBERLAND|2014|9|1
HK|TBL|4202|GO|GOLD CARD|2014|9|16
HK|TBL|4202|GR|GREEN CARD|2014|9|38
HK|TBL|4202|FO|FRIENDS OF TIMBERLAND|2014|10|11
HK|TBL|4202|GO|GOLD CARD|2014|10|8
HK|TBL|4202|GR|GREEN CARD|2014|10|23
HK|TBL|4202|FO|FRIENDS OF TIMBERLAND|2014|11|1
HK|TBL|4202|GO|GOLD CARD|2014|11|11
HK|TBL|4202|GR|GREEN CARD|2014|11|37
HK|TBL|4202|FO|FRIENDS OF TIMBERLAND|2014|12|7
HK|TBL|4202|GO|GOLD CARD|2014|12|2
HK|TBL|4202|GR|GREEN CARD|2014|12|23
HK|TBL|4202|YE|TEMP VIP|2014|12|13
HK|TBL|4202|FO|FRIENDS OF TIMBERLAND|2014|13|1
HK|TBL|4202|GO|GOLD CARD|2014|13|5
HK|TBL|4202|GR|GREEN CARD|2014|13|21
HK|TBL|4202|YE|TEMP VIP|2014|13|25
HK|TBL|4202|FO|FRIENDS OF TIMBERLAND|2014|14|3
HK|TBL|4202|GO|GOLD CARD|2014|14|10
HK|TBL|4202|GR|GREEN CARD|2014|14|44
HK|TBL|4202|YE|TEMP VIP|2014|14|54
HK|TBL|4202|FO|FRIENDS OF TIMBERLAND|2014|15|5
HK|TBL|4202|GO|GOLD CARD|2014|15|10
HK|TBL|4202|GR|GREEN CARD|2014|15|46
HK|TBL|4202|YE|TEMP VIP|2014|15|56
HK|TBL|4202|FO|FRIENDS OF TIMBERLAND|2014|16|2
HK|TBL|4202|GO|GOLD CARD|2014|16|12
HK|TBL|4202|GR|GREEN CARD|2014|16|34
HK|TBL|4202|YE|TEMP VIP|2014|16|46
HK|TBL|4202|FO|FRIENDS OF TIMBERLAND|2014|17|17
HK|TBL|4202|GO|GOLD CARD|2014|17|4
HK|TBL|4202|GR|GREEN CARD|2014|17|30
HK|TBL|4202|YE|TEMP VIP|2014|17|46
HK|TBL|4202|FO|FRIENDS OF TIMBERLAND|2014|18|15
HK|TBL|4202|GO|GOLD CARD|2014|18|6
HK|TBL|4202|GR|GREEN CARD|2014|18|32
HK|TBL|4202|YE|TEMP VIP|2014|18|46
HK|TBL|4202|FO|FRIENDS OF TIMBERLAND|2014|19|12
HK|TBL|4202|GO|GOLD CARD|2014|19|13
HK|TBL|4202|GR|GREEN CARD|2014|19|36
HK|TBL|4202|YE|TEMP VIP|2014|19|57
HK|TBL|4203|GO|GOLD CARD|2014|8|24
HK|TBL|4203|GR|GREEN CARD|2014|8|43
HK|TBL|4203|GO|GOLD CARD|2014|9|22
HK|TBL|4203|GR|GREEN CARD|2014|9|35
HK|TBL|4203|GO|GOLD CARD|2014|10|12
HK|TBL|4203|GR|GREEN CARD|2014|10|40
HK|TBL|4203|GO|GOLD CARD|2014|11|12
HK|TBL|4203|GR|GREEN CARD|2014|11|36
HK|TBL|4203|GO|GOLD CARD|2014|12|8
HK|TBL|4203|GR|GREEN CARD|2014|12|37
HK|TBL|4203|YE|TEMP VIP|2014|12|10
HK|TBL|4203|GO|GOLD CARD|2014|13|6
HK|TBL|4203|GR|GREEN CARD|2014|13|30
HK|TBL|4203|YE|TEMP VIP|2014|13|14
HK|TBL|4203|GO|GOLD CARD|2014|14|16
HK|TBL|4203|GR|GREEN CARD|2014|14|47
HK|TBL|4203|YE|TEMP VIP|2014|14|9
HK|TBL|4203|FO|FRIENDS OF TIMBERLAND|2014|15|2
HK|TBL|4203|GO|GOLD CARD|2014|15|15
HK|TBL|4203|GR|GREEN CARD|2014|15|45
HK|TBL|4203|YE|TEMP VIP|2014|15|4
HK|TBL|4203|GO|GOLD CARD|2014|16|20
HK|TBL|4203|GR|GREEN CARD|2014|16|40
HK|TBL|4203|YE|TEMP VIP|2014|16|3
HK|TBL|4203|FO|FRIENDS OF TIMBERLAND|2014|17|1
HK|TBL|4203|GO|GOLD CARD|2014|17|13
HK|TBL|4203|GR|GREEN CARD|2014|17|17
HK|TBL|4203|YE|TEMP VIP|2014|17|1
HK|TBL|4203|FO|FRIENDS OF TIMBERLAND|2014|18|1
HK|TBL|4203|GO|GOLD CARD|2014|18|20
HK|TBL|4203|GR|GREEN CARD|2014|18|35
HK|TBL|4203|YE|TEMP VIP|2014|18|3
HK|TBL|4203|GO|GOLD CARD|2014|19|13
HK|TBL|4203|GR|GREEN CARD|2014|19|31
HK|TBL|4203|YE|TEMP VIP|2014|19|7
HK|TBL|4204|GO|GOLD CARD|2014|8|50
HK|TBL|4204|GR|GREEN CARD|2014|8|78
HK|TBL|4204|GO|GOLD CARD|2014|9|34
HK|TBL|4204|GR|GREEN CARD|2014|9|48
HK|TBL|4204|GO|GOLD CARD|2014|10|17
HK|TBL|4204|GR|GREEN CARD|2014|10|35
HK|TBL|4204|GO|GOLD CARD|2014|11|13
HK|TBL|4204|GR|GREEN CARD|2014|11|27
HK|TBL|4204|T2|TBL EMP DISC 55% OFF|2014|11|1
HK|TBL|4204|FO|FRIENDS OF TIMBERLAND|2014|12|2
HK|TBL|4204|GO|GOLD CARD|2014|12|15
HK|TBL|4204|GR|GREEN CARD|2014|12|26
HK|TBL|4204|YE|TEMP VIP|2014|12|13
HK|TBL|4204|FO|FRIENDS OF TIMBERLAND|2014|13|4
HK|TBL|4204|GO|GOLD CARD|2014|13|16
HK|TBL|4204|GR|GREEN CARD|2014|13|35
HK|TBL|4204|YE|TEMP VIP|2014|13|44
HK|TBL|4204|FO|FRIENDS OF TIMBERLAND|2014|14|1
HK|TBL|4204|GO|GOLD CARD|2014|14|21
HK|TBL|4204|GR|GREEN CARD|2014|14|32
HK|TBL|4204|YE|TEMP VIP|2014|14|44
HK|TBL|4204|FO|FRIENDS OF TIMBERLAND|2014|15|2
HK|TBL|4204|GO|GOLD CARD|2014|15|22
HK|TBL|4204|GR|GREEN CARD|2014|15|42
HK|TBL|4204|YE|TEMP VIP|2014|15|55
HK|TBL|4204|FO|FRIENDS OF TIMBERLAND|2014|16|3
HK|TBL|4204|GO|GOLD CARD|2014|16|19
HK|TBL|4204|GR|GREEN CARD|2014|16|33
HK|TBL|4204|YE|TEMP VIP|2014|16|41
HK|TBL|4204|FO|FRIENDS OF TIMBERLAND|2014|17|3
HK|TBL|4204|GO|GOLD CARD|2014|17|12
HK|TBL|4204|GR|GREEN CARD|2014|17|28
HK|TBL|4204|YE|TEMP VIP|2014|17|35
HK|TBL|4204|FO|FRIENDS OF TIMBERLAND|2014|18|15
HK|TBL|4204|GO|GOLD CARD|2014|18|24
HK|TBL|4204|GR|GREEN CARD|2014|18|34
HK|TBL|4204|YE|TEMP VIP|2014|18|70
HK|TBL|4204|FO|FRIENDS OF TIMBERLAND|2014|19|39
HK|TBL|4204|GO|GOLD CARD|2014|19|11
HK|TBL|4204|GR|GREEN CARD|2014|19|23
HK|TBL|4204|YE|TEMP VIP|2014|19|69
HK|TBL|4205|GO|GOLD CARD|2014|8|16
HK|TBL|4205|GR|GREEN CARD|2014|8|44
HK|TBL|4205|FO|FRIENDS OF TIMBERLAND|2014|9|10
HK|TBL|4205|GO|GOLD CARD|2014|9|18
HK|TBL|4205|GR|GREEN CARD|2014|9|27
HK|TBL|4205|FO|FRIENDS OF TIMBERLAND|2014|10|19
HK|TBL|4205|GO|GOLD CARD|2014|10|10
HK|TBL|4205|GR|GREEN CARD|2014|10|33
HK|TBL|4205|FO|FRIENDS OF TIMBERLAND|2014|11|8
HK|TBL|4205|GO|GOLD CARD|2014|11|13
HK|TBL|4205|GR|GREEN CARD|2014|11|32
HK|TBL|4205|FO|FRIENDS OF TIMBERLAND|2014|12|12
HK|TBL|4205|GO|GOLD CARD|2014|12|12
HK|TBL|4205|GR|GREEN CARD|2014|12|32
HK|TBL|4205|YE|TEMP VIP|2014|12|18
HK|TBL|4205|FO|FRIENDS OF TIMBERLAND|2014|13|3
HK|TBL|4205|GO|GOLD CARD|2014|13|6
HK|TBL|4205|GR|GREEN CARD|2014|13|35
HK|TBL|4205|YE|TEMP VIP|2014|13|36
HK|TBL|4205|FO|FRIENDS OF TIMBERLAND|2014|14|19
HK|TBL|4205|GO|GOLD CARD|2014|14|23
HK|TBL|4205|GR|GREEN CARD|2014|14|37
HK|TBL|4205|YE|TEMP VIP|2014|14|66
HK|TBL|4205|FO|FRIENDS OF TIMBERLAND|2014|15|42
HK|TBL|4205|GO|GOLD CARD|2014|15|19
HK|TBL|4205|GR|GREEN CARD|2014|15|24
HK|TBL|4205|YE|TEMP VIP|2014|15|55
HK|TBL|4205|FO|FRIENDS OF TIMBERLAND|2014|16|37
HK|TBL|4205|GO|GOLD CARD|2014|16|10
HK|TBL|4205|GR|GREEN CARD|2014|16|35
HK|TBL|4205|YE|TEMP VIP|2014|16|69
HK|TBL|4205|FO|FRIENDS OF TIMBERLAND|2014|17|33
HK|TBL|4205|GO|GOLD CARD|2014|17|11
HK|TBL|4205|GR|GREEN CARD|2014|17|19
HK|TBL|4205|YE|TEMP VIP|2014|17|50
HK|TBL|4205|FO|FRIENDS OF TIMBERLAND|2014|18|17
HK|TBL|4205|GO|GOLD CARD|2014|18|14
HK|TBL|4205|GR|GREEN CARD|2014|18|24
HK|TBL|4205|YE|TEMP VIP|2014|18|43
HK|TBL|4205|FO|FRIENDS OF TIMBERLAND|2014|19|18
HK|TBL|4205|GO|GOLD CARD|2014|19|21
HK|TBL|4205|GR|GREEN CARD|2014|19|42
HK|TBL|4205|YE|TEMP VIP|2014|19|68
HK|TBL|4206|GO|GOLD CARD|2014|8|11
HK|TBL|4206|GR|GREEN CARD|2014|8|33
HK|TBL|4206|FO|FRIENDS OF TIMBERLAND|2014|9|1
HK|TBL|4206|GO|GOLD CARD|2014|9|6
HK|TBL|4206|GR|GREEN CARD|2014|9|29
HK|TBL|4206|GO|GOLD CARD|2014|10|10
HK|TBL|4206|GR|GREEN CARD|2014|10|21
HK|TBL|4206|GO|GOLD CARD|2014|11|8
HK|TBL|4206|GR|GREEN CARD|2014|11|26
HK|TBL|4206|GO|GOLD CARD|2014|12|5
HK|TBL|4206|GR|GREEN CARD|2014|12|26
HK|TBL|4206|YE|TEMP VIP|2014|12|1
HK|TBL|4206|GO|GOLD CARD|2014|13|6
HK|TBL|4206|GR|GREEN CARD|2014|13|26
HK|TBL|4206|GO|GOLD CARD|2014|14|11
HK|TBL|4206|GR|GREEN CARD|2014|14|30
HK|TBL|4206|YE|TEMP VIP|2014|14|1
HK|TBL|4206|FO|FRIENDS OF TIMBERLAND|2014|15|5
HK|TBL|4206|GO|GOLD CARD|2014|15|16
HK|TBL|4206|GR|GREEN CARD|2014|15|30
HK|TBL|4206|YE|TEMP VIP|2014|15|2
HK|TBL|4206|FO|FRIENDS OF TIMBERLAND|2014|16|5
HK|TBL|4206|GO|GOLD CARD|2014|16|15
HK|TBL|4206|GR|GREEN CARD|2014|16|23
HK|TBL|4206|YE|TEMP VIP|2014|16|1
HK|TBL|4206|FO|FRIENDS OF TIMBERLAND|2014|17|4
HK|TBL|4206|GO|GOLD CARD|2014|17|10
HK|TBL|4206|GR|GREEN CARD|2014|17|21
HK|TBL|4206|FO|FRIENDS OF TIMBERLAND|2014|18|3
HK|TBL|4206|GO|GOLD CARD|2014|18|10
HK|TBL|4206|GR|GREEN CARD|2014|18|24
HK|TBL|4206|FO|FRIENDS OF TIMBERLAND|2014|19|4
HK|TBL|4206|GO|GOLD CARD|2014|19|19
HK|TBL|4206|GR|GREEN CARD|2014|19|21
HK|TBL|4207|GO|GOLD CARD|2014|8|29
HK|TBL|4207|GR|GREEN CARD|2014|8|78
HK|TBL|4207|GO|GOLD CARD|2014|9|14
HK|TBL|4207|GR|GREEN CARD|2014|9|39
HK|TBL|4207|GO|GOLD CARD|2014|10|13
HK|TBL|4207|GR|GREEN CARD|2014|10|64
HK|TBL|4207|FO|FRIENDS OF TIMBERLAND|2014|11|9
HK|TBL|4207|GO|GOLD CARD|2014|11|10
HK|TBL|4207|GR|GREEN CARD|2014|11|36
HK|TBL|4207|FO|FRIENDS OF TIMBERLAND|2014|12|2
HK|TBL|4207|GO|GOLD CARD|2014|12|8
HK|TBL|4207|GR|GREEN CARD|2014|12|46
HK|TBL|4207|YE|TEMP VIP|2014|12|26
HK|TBL|4207|FO|FRIENDS OF TIMBERLAND|2014|13|1
HK|TBL|4207|GO|GOLD CARD|2014|13|11
HK|TBL|4207|GR|GREEN CARD|2014|13|40
HK|TBL|4207|YE|TEMP VIP|2014|13|49
HK|TBL|4207|FO|FRIENDS OF TIMBERLAND|2014|14|11
HK|TBL|4207|GO|GOLD CARD|2014|14|12
HK|TBL|4207|GR|GREEN CARD|2014|14|45
HK|TBL|4207|YE|TEMP VIP|2014|14|64
HK|TBL|4207|FO|FRIENDS OF TIMBERLAND|2014|15|19
HK|TBL|4207|GO|GOLD CARD|2014|15|16
HK|TBL|4207|GR|GREEN CARD|2014|15|43
HK|TBL|4207|YE|TEMP VIP|2014|15|69
HK|TBL|4207|FO|FRIENDS OF TIMBERLAND|2014|16|7
HK|TBL|4207|GO|GOLD CARD|2014|16|15
HK|TBL|4207|GR|GREEN CARD|2014|16|43
HK|TBL|4207|YE|TEMP VIP|2014|16|63
HK|TBL|4207|FO|FRIENDS OF TIMBERLAND|2014|17|1
HK|TBL|4207|GO|GOLD CARD|2014|17|10
HK|TBL|4207|GR|GREEN CARD|2014|17|35
HK|TBL|4207|YE|TEMP VIP|2014|17|42
HK|TBL|4207|GO|GOLD CARD|2014|18|4
HK|TBL|4207|GR|GREEN CARD|2014|18|46
HK|TBL|4207|YE|TEMP VIP|2014|18|47
HK|TBL|4207|FO|FRIENDS OF TIMBERLAND|2014|19|2
HK|TBL|4207|GO|GOLD CARD|2014|19|9
HK|TBL|4207|GR|GREEN CARD|2014|19|40
HK|TBL|4207|YE|TEMP VIP|2014|19|48
HK|TBL|4208|GO|GOLD CARD|2014|8|21
HK|TBL|4208|GR|GREEN CARD|2014|8|33
HK|TBL|4208|GO|GOLD CARD|2014|9|10
HK|TBL|4208|GR|GREEN CARD|2014|9|23
HK|TBL|4208|FO|FRIENDS OF TIMBERLAND|2014|10|1
HK|TBL|4208|GO|GOLD CARD|2014|10|14
HK|TBL|4208|GR|GREEN CARD|2014|10|31
HK|TBL|4208|FO|FRIENDS OF TIMBERLAND|2014|11|2
HK|TBL|4208|GO|GOLD CARD|2014|11|7
HK|TBL|4208|GR|GREEN CARD|2014|11|14
HK|TBL|4208|GO|GOLD CARD|2014|12|4
HK|TBL|4208|GR|GREEN CARD|2014|12|25
HK|TBL|4208|YE|TEMP VIP|2014|12|9
HK|TBL|4208|FO|FRIENDS OF TIMBERLAND|2014|13|1
HK|TBL|4208|GO|GOLD CARD|2014|13|6
HK|TBL|4208|GR|GREEN CARD|2014|13|11
HK|TBL|4208|YE|TEMP VIP|2014|13|15
HK|TBL|4208|FO|FRIENDS OF TIMBERLAND|2014|14|15
HK|TBL|4208|GO|GOLD CARD|2014|14|16
HK|TBL|4208|GR|GREEN CARD|2014|14|22
HK|TBL|4208|YE|TEMP VIP|2014|14|44
HK|TBL|4208|FO|FRIENDS OF TIMBERLAND|2014|15|21
HK|TBL|4208|GO|GOLD CARD|2014|15|8
HK|TBL|4208|GR|GREEN CARD|2014|15|22
HK|TBL|4208|YE|TEMP VIP|2014|15|39
HK|TBL|4208|FO|FRIENDS OF TIMBERLAND|2014|16|15
HK|TBL|4208|GO|GOLD CARD|2014|16|9
HK|TBL|4208|GR|GREEN CARD|2014|16|15
HK|TBL|4208|YE|TEMP VIP|2014|16|34
HK|TBL|4208|FO|FRIENDS OF TIMBERLAND|2014|17|10
HK|TBL|4208|GO|GOLD CARD|2014|17|5
HK|TBL|4208|GR|GREEN CARD|2014|17|14
HK|TBL|4208|YE|TEMP VIP|2014|17|21
HK|TBL|4208|FO|FRIENDS OF TIMBERLAND|2014|18|9
HK|TBL|4208|GO|GOLD CARD|2014|18|15
HK|TBL|4208|GR|GREEN CARD|2014|18|15
HK|TBL|4208|YE|TEMP VIP|2014|18|32
HK|TBL|4208|FO|FRIENDS OF TIMBERLAND|2014|19|2
HK|TBL|4208|GO|GOLD CARD|2014|19|5
HK|TBL|4208|GR|GREEN CARD|2014|19|17
HK|TBL|4208|YE|TEMP VIP|2014|19|22
HK|TBL|4209|GO|GOLD CARD|2014|8|10
HK|TBL|4209|GR|GREEN CARD|2014|8|42
HK|TBL|4209|FO|FRIENDS OF TIMBERLAND|2014|9|2
HK|TBL|4209|GO|GOLD CARD|2014|9|11
HK|TBL|4209|GR|GREEN CARD|2014|9|31
HK|TBL|4209|FO|FRIENDS OF TIMBERLAND|2014|10|2
HK|TBL|4209|GR|GREEN CARD|2014|10|4
HK|TBL|4209|FO|FRIENDS OF TIMBERLAND|2014|11|9
HK|TBL|4209|GO|GOLD CARD|2014|11|6
HK|TBL|4209|GR|GREEN CARD|2014|11|12
HK|TBL|4209|FO|FRIENDS OF TIMBERLAND|2014|12|20
HK|TBL|4209|GO|GOLD CARD|2014|12|4
HK|TBL|4209|GR|GREEN CARD|2014|12|21
HK|TBL|4209|YE|TEMP VIP|2014|12|13
HK|TBL|4209|FO|FRIENDS OF TIMBERLAND|2014|13|19
HK|TBL|4209|GO|GOLD CARD|2014|13|4
HK|TBL|4209|GR|GREEN CARD|2014|13|17
HK|TBL|4209|YE|TEMP VIP|2014|13|27
HK|TBL|4209|FO|FRIENDS OF TIMBERLAND|2014|14|43
HK|TBL|4209|GO|GOLD CARD|2014|14|11
HK|TBL|4209|GR|GREEN CARD|2014|14|26
HK|TBL|4209|YE|TEMP VIP|2014|14|46
HK|TBL|4209|FO|FRIENDS OF TIMBERLAND|2014|15|63
HK|TBL|4209|GO|GOLD CARD|2014|15|10
HK|TBL|4209|GR|GREEN CARD|2014|15|26
HK|TBL|4209|YE|TEMP VIP|2014|15|64
HK|TBL|4209|FO|FRIENDS OF TIMBERLAND|2014|16|76
HK|TBL|4209|GO|GOLD CARD|2014|16|8
HK|TBL|4209|GR|GREEN CARD|2014|16|29
HK|TBL|4209|YE|TEMP VIP|2014|16|65
HK|TBL|4209|FO|FRIENDS OF TIMBERLAND|2014|17|69
HK|TBL|4209|GO|GOLD CARD|2014|17|6
HK|TBL|4209|GR|GREEN CARD|2014|17|16
HK|TBL|4209|YE|TEMP VIP|2014|17|54
HK|TBL|4209|FO|FRIENDS OF TIMBERLAND|2014|18|60
HK|TBL|4209|GO|GOLD CARD|2014|18|10
HK|TBL|4209|GR|GREEN CARD|2014|18|24
HK|TBL|4209|YE|TEMP VIP|2014|18|53
HK|TBL|4209|FO|FRIENDS OF TIMBERLAND|2014|19|74
HK|TBL|4209|GO|GOLD CARD|2014|19|10
HK|TBL|4209|GR|GREEN CARD|2014|19|23
HK|TBL|4209|YE|TEMP VIP|2014|19|66
HK|TBL|4210|GO|GOLD CARD|2014|8|4
HK|TBL|4210|GR|GREEN CARD|2014|8|14
HK|TBL|4210|GO|GOLD CARD|2014|9|2
HK|TBL|4210|GR|GREEN CARD|2014|9|16
HK|TBL|4210|FO|FRIENDS OF TIMBERLAND|2014|10|2
HK|TBL|4210|GO|GOLD CARD|2014|10|3
HK|TBL|4210|GR|GREEN CARD|2014|10|11
HK|TBL|4210|FO|FRIENDS OF TIMBERLAND|2014|11|8
HK|TBL|4210|GO|GOLD CARD|2014|11|5
HK|TBL|4210|GR|GREEN CARD|2014|11|10
HK|TBL|4210|FO|FRIENDS OF TIMBERLAND|2014|12|3
HK|TBL|4210|GO|GOLD CARD|2014|12|3
HK|TBL|4210|GR|GREEN CARD|2014|12|11
HK|TBL|4210|YE|TEMP VIP|2014|12|7
HK|TBL|4210|FO|FRIENDS OF TIMBERLAND|2014|13|1
HK|TBL|4210|GO|GOLD CARD|2014|13|7
HK|TBL|4210|GR|GREEN CARD|2014|13|17
HK|TBL|4210|YE|TEMP VIP|2014|13|20
HK|TBL|4210|GO|GOLD CARD|2014|14|6
HK|TBL|4210|GR|GREEN CARD|2014|14|7
HK|TBL|4210|YE|TEMP VIP|2014|14|14
HK|TBL|4210|FO|FRIENDS OF TIMBERLAND|2014|15|1
HK|TBL|4210|GO|GOLD CARD|2014|15|2
HK|TBL|4210|GR|GREEN CARD|2014|15|3
HK|TBL|4210|YE|TEMP VIP|2014|15|4
HK|TBL|4210|FO|FRIENDS OF TIMBERLAND|2014|16|14
HK|TBL|4210|GO|GOLD CARD|2014|16|5
HK|TBL|4210|GR|GREEN CARD|2014|16|11
HK|TBL|4210|YE|TEMP VIP|2014|16|14
HK|TBL|4210|FO|FRIENDS OF TIMBERLAND|2014|17|17
HK|TBL|4210|GO|GOLD CARD|2014|17|5
HK|TBL|4210|GR|GREEN CARD|2014|17|12
HK|TBL|4210|YE|TEMP VIP|2014|17|16
HK|TBL|4210|FO|FRIENDS OF TIMBERLAND|2014|18|15
HK|TBL|4210|GO|GOLD CARD|2014|18|7
HK|TBL|4210|GR|GREEN CARD|2014|18|10
HK|TBL|4210|YE|TEMP VIP|2014|18|16
HK|TBL|4210|FO|FRIENDS OF TIMBERLAND|2014|19|19
HK|TBL|4210|GO|GOLD CARD|2014|19|4
HK|TBL|4210|GR|GREEN CARD|2014|19|15
HK|TBL|4210|YE|TEMP VIP|2014|19|18
HK|TBL|4211|GO|GOLD CARD|2014|8|2
HK|TBL|4211|GR|GREEN CARD|2014|8|9
HK|TBL|4211|GO|GOLD CARD|2014|9|5
HK|TBL|4211|GR|GREEN CARD|2014|9|11
HK|TBL|4211|FO|FRIENDS OF TIMBERLAND|2014|10|2
HK|TBL|4211|GO|GOLD CARD|2014|10|2
HK|TBL|4211|GR|GREEN CARD|2014|10|10
HK|TBL|4211|FO|FRIENDS OF TIMBERLAND|2014|11|5
HK|TBL|4211|GO|GOLD CARD|2014|11|4
HK|TBL|4211|GR|GREEN CARD|2014|11|8
HK|TBL|4211|FO|FRIENDS OF TIMBERLAND|2014|12|2
HK|TBL|4211|GR|GREEN CARD|2014|12|8
HK|TBL|4211|YE|TEMP VIP|2014|12|3
HK|TBL|4211|FO|FRIENDS OF TIMBERLAND|2014|13|3
HK|TBL|4211|GO|GOLD CARD|2014|13|3
HK|TBL|4211|GR|GREEN CARD|2014|13|12
HK|TBL|4211|YE|TEMP VIP|2014|13|7
HK|TBL|4211|FO|FRIENDS OF TIMBERLAND|2014|14|2
HK|TBL|4211|GO|GOLD CARD|2014|14|4
HK|TBL|4211|GR|GREEN CARD|2014|14|7
HK|TBL|4211|YE|TEMP VIP|2014|14|10
HK|TBL|4211|FO|FRIENDS OF TIMBERLAND|2014|15|4
HK|TBL|4211|GO|GOLD CARD|2014|15|2
HK|TBL|4211|GR|GREEN CARD|2014|15|6
HK|TBL|4211|YE|TEMP VIP|2014|15|9
HK|TBL|4211|FO|FRIENDS OF TIMBERLAND|2014|16|6
HK|TBL|4211|GO|GOLD CARD|2014|16|1
HK|TBL|4211|GR|GREEN CARD|2014|16|6
HK|TBL|4211|YE|TEMP VIP|2014|16|12
HK|TBL|4211|FO|FRIENDS OF TIMBERLAND|2014|17|3
HK|TBL|4211|GO|GOLD CARD|2014|17|1
HK|TBL|4211|GR|GREEN CARD|2014|17|5
HK|TBL|4211|YE|TEMP VIP|2014|17|8
HK|TBL|4211|FO|FRIENDS OF TIMBERLAND|2014|18|1
HK|TBL|4211|GO|GOLD CARD|2014|18|4
HK|TBL|4211|GR|GREEN CARD|2014|18|4
HK|TBL|4211|YE|TEMP VIP|2014|18|8
HK|TBL|4211|FO|FRIENDS OF TIMBERLAND|2014|19|10
HK|TBL|4211|GO|GOLD CARD|2014|19|3
HK|TBL|4211|GR|GREEN CARD|2014|19|10
HK|TBL|4211|YE|TEMP VIP|2014|19|23
HK|TBL|4212|GO|GOLD CARD|2014|8|4
HK|TBL|4212|GR|GREEN CARD|2014|8|14
HK|TBL|4212|GO|GOLD CARD|2014|9|2
HK|TBL|4212|GR|GREEN CARD|2014|9|11
HK|TBL|4212|FO|FRIENDS OF TIMBERLAND|2014|10|3
HK|TBL|4212|GO|GOLD CARD|2014|10|1
HK|TBL|4212|GR|GREEN CARD|2014|10|10
HK|TBL|4212|FO|FRIENDS OF TIMBERLAND|2014|11|6
HK|TBL|4212|GO|GOLD CARD|2014|11|5
HK|TBL|4212|GR|GREEN CARD|2014|11|14
HK|TBL|4212|FO|FRIENDS OF TIMBERLAND|2014|12|7
HK|TBL|4212|GO|GOLD CARD|2014|12|1
HK|TBL|4212|GR|GREEN CARD|2014|12|9
HK|TBL|4212|YE|TEMP VIP|2014|12|5
HK|TBL|4212|FO|FRIENDS OF TIMBERLAND|2014|13|2
HK|TBL|4212|GO|GOLD CARD|2014|13|6
HK|TBL|4212|GR|GREEN CARD|2014|13|10
HK|TBL|4212|YE|TEMP VIP|2014|13|11
HK|TBL|4212|FO|FRIENDS OF TIMBERLAND|2014|14|2
HK|TBL|4212|GO|GOLD CARD|2014|14|6
HK|TBL|4212|GR|GREEN CARD|2014|14|7
HK|TBL|4212|YE|TEMP VIP|2014|14|9
HK|TBL|4212|FO|FRIENDS OF TIMBERLAND|2014|15|8
HK|TBL|4212|GO|GOLD CARD|2014|15|2
HK|TBL|4212|GR|GREEN CARD|2014|15|8
HK|TBL|4212|YE|TEMP VIP|2014|15|17
HK|TBL|4212|FO|FRIENDS OF TIMBERLAND|2014|16|5
HK|TBL|4212|GO|GOLD CARD|2014|16|8
HK|TBL|4212|GR|GREEN CARD|2014|16|13
HK|TBL|4212|YE|TEMP VIP|2014|16|22
HK|TBL|4212|FO|FRIENDS OF TIMBERLAND|2014|17|2
HK|TBL|4212|GO|GOLD CARD|2014|17|3
HK|TBL|4212|GR|GREEN CARD|2014|17|3
HK|TBL|4212|YE|TEMP VIP|2014|17|6
HK|TBL|4212|FO|FRIENDS OF TIMBERLAND|2014|18|3
HK|TBL|4212|GO|GOLD CARD|2014|18|4
HK|TBL|4212|GR|GREEN CARD|2014|18|10
HK|TBL|4212|YE|TEMP VIP|2014|18|14
HK|TBL|4212|FO|FRIENDS OF TIMBERLAND|2014|19|4
HK|TBL|4212|GO|GOLD CARD|2014|19|4
HK|TBL|4212|GR|GREEN CARD|2014|19|11
HK|TBL|4212|YE|TEMP VIP|2014|19|16
HK|TBL|4213|GO|GOLD CARD|2014|8|33
HK|TBL|4213|GR|GREEN CARD|2014|8|53
HK|TBL|4213|GO|GOLD CARD|2014|9|22
HK|TBL|4213|GR|GREEN CARD|2014|9|28
HK|TBL|4213|GO|GOLD CARD|2014|10|11
HK|TBL|4213|GR|GREEN CARD|2014|10|25
HK|TBL|4213|GO|GOLD CARD|2014|11|17
HK|TBL|4213|GR|GREEN CARD|2014|11|28
HK|TBL|4213|T2|TBL EMP DISC 55% OFF|2014|11|1
HK|TBL|4213|FO|FRIENDS OF TIMBERLAND|2014|12|2
HK|TBL|4213|GO|GOLD CARD|2014|12|7
HK|TBL|4213|GR|GREEN CARD|2014|12|16
HK|TBL|4213|YE|TEMP VIP|2014|12|12
HK|TBL|4213|GO|GOLD CARD|2014|13|5
HK|TBL|4213|GR|GREEN CARD|2014|13|14
HK|TBL|4213|YE|TEMP VIP|2014|13|16
HK|TBL|4213|GO|GOLD CARD|2014|14|20
HK|TBL|4213|GR|GREEN CARD|2014|14|16
HK|TBL|4213|YE|TEMP VIP|2014|14|37
HK|TBL|4213|FO|FRIENDS OF TIMBERLAND|2014|15|1
HK|TBL|4213|GO|GOLD CARD|2014|15|14
HK|TBL|4213|GR|GREEN CARD|2014|15|22
HK|TBL|4213|YE|TEMP VIP|2014|15|34
HK|TBL|4213|FO|FRIENDS OF TIMBERLAND|2014|16|3
HK|TBL|4213|GO|GOLD CARD|2014|16|14
HK|TBL|4213|GR|GREEN CARD|2014|16|21
HK|TBL|4213|YE|TEMP VIP|2014|16|39
HK|TBL|4213|FO|FRIENDS OF TIMBERLAND|2014|17|2
HK|TBL|4213|GO|GOLD CARD|2014|17|2
HK|TBL|4213|GR|GREEN CARD|2014|17|14
HK|TBL|4213|YE|TEMP VIP|2014|17|18
HK|TBL|4213|GO|GOLD CARD|2014|18|9
HK|TBL|4213|GR|GREEN CARD|2014|18|18
HK|TBL|4213|YE|TEMP VIP|2014|18|27
HK|TBL|4213|FO|FRIENDS OF TIMBERLAND|2014|19|26
HK|TBL|4213|GO|GOLD CARD|2014|19|5
HK|TBL|4213|GR|GREEN CARD|2014|19|28
HK|TBL|4213|YE|TEMP VIP|2014|19|30
HK|TBL|4214|GO|GOLD CARD|2014|8|37
HK|TBL|4214|GR|GREEN CARD|2014|8|46
HK|TBL|4214|FO|FRIENDS OF TIMBERLAND|2014|9|1
HK|TBL|4214|GO|GOLD CARD|2014|9|5
HK|TBL|4214|GR|GREEN CARD|2014|9|19
HK|TBL|4214|FO|FRIENDS OF TIMBERLAND|2014|10|2
HK|TBL|4214|GO|GOLD CARD|2014|10|7
HK|TBL|4214|GR|GREEN CARD|2014|10|23
HK|TBL|4214|FO|FRIENDS OF TIMBERLAND|2014|11|2
HK|TBL|4214|GO|GOLD CARD|2014|11|10
HK|TBL|4214|GR|GREEN CARD|2014|11|18
HK|TBL|4214|FO|FRIENDS OF TIMBERLAND|2014|12|2
HK|TBL|4214|GO|GOLD CARD|2014|12|3
HK|TBL|4214|GR|GREEN CARD|2014|12|10
HK|TBL|4214|YE|TEMP VIP|2014|12|1
HK|TBL|4214|FO|FRIENDS OF TIMBERLAND|2014|13|12
HK|TBL|4214|GO|GOLD CARD|2014|13|4
HK|TBL|4214|GR|GREEN CARD|2014|13|7
HK|TBL|4214|YE|TEMP VIP|2014|13|16
HK|TBL|4214|FO|FRIENDS OF TIMBERLAND|2014|14|7
HK|TBL|4214|GO|GOLD CARD|2014|14|6
HK|TBL|4214|GR|GREEN CARD|2014|14|15
HK|TBL|4214|YE|TEMP VIP|2014|14|15
HK|TBL|4214|FO|FRIENDS OF TIMBERLAND|2014|15|7
HK|TBL|4214|GO|GOLD CARD|2014|15|17
HK|TBL|4214|GR|GREEN CARD|2014|15|14
HK|TBL|4214|YE|TEMP VIP|2014|15|28
HK|TBL|4214|FO|FRIENDS OF TIMBERLAND|2014|16|7
HK|TBL|4214|GO|GOLD CARD|2014|16|8
HK|TBL|4214|GR|GREEN CARD|2014|16|23
HK|TBL|4214|YE|TEMP VIP|2014|16|26
HK|TBL|4214|FO|FRIENDS OF TIMBERLAND|2014|17|6
HK|TBL|4214|GO|GOLD CARD|2014|17|3
HK|TBL|4214|GR|GREEN CARD|2014|17|23
HK|TBL|4214|YE|TEMP VIP|2014|17|26
HK|TBL|4214|FO|FRIENDS OF TIMBERLAND|2014|18|14
HK|TBL|4214|GO|GOLD CARD|2014|18|10
HK|TBL|4214|GR|GREEN CARD|2014|18|15
HK|TBL|4214|YE|TEMP VIP|2014|18|33
HK|TBL|4214|FO|FRIENDS OF TIMBERLAND|2014|19|2
HK|TBL|4214|GO|GOLD CARD|2014|19|8
HK|TBL|4214|GR|GREEN CARD|2014|19|11
HK|TBL|4214|YE|TEMP VIP|2014|19|13
HK|TBL|4215|GO|GOLD CARD|2014|8|14
HK|TBL|4215|GR|GREEN CARD|2014|8|38
HK|TBL|4215|FO|FRIENDS OF TIMBERLAND|2014|9|3
HK|TBL|4215|GO|GOLD CARD|2014|9|6
HK|TBL|4215|GR|GREEN CARD|2014|9|29
HK|TBL|4215|FO|FRIENDS OF TIMBERLAND|2014|10|16
HK|TBL|4215|GO|GOLD CARD|2014|10|9
HK|TBL|4215|GR|GREEN CARD|2014|10|39
HK|TBL|4215|FO|FRIENDS OF TIMBERLAND|2014|11|10
HK|TBL|4215|GO|GOLD CARD|2014|11|6
HK|TBL|4215|GR|GREEN CARD|2014|11|39
HK|TBL|4215|GO|GOLD CARD|2014|12|7
HK|TBL|4215|GR|GREEN CARD|2014|12|28
HK|TBL|4215|GO|GOLD CARD|2014|13|6
HK|TBL|4215|GR|GREEN CARD|2014|13|19
HK|TBL|4215|FO|FRIENDS OF TIMBERLAND|2014|14|8
HK|TBL|4215|GO|GOLD CARD|2014|14|10
HK|TBL|4215|GR|GREEN CARD|2014|14|27
HK|TBL|4215|YE|TEMP VIP|2014|14|7
HK|TBL|4215|FO|FRIENDS OF TIMBERLAND|2014|15|10
HK|TBL|4215|GO|GOLD CARD|2014|15|7
HK|TBL|4215|GR|GREEN CARD|2014|15|33
HK|TBL|4215|YE|TEMP VIP|2014|15|14
HK|TBL|4215|FO|FRIENDS OF TIMBERLAND|2014|16|3
HK|TBL|4215|GO|GOLD CARD|2014|16|7
HK|TBL|4215|GR|GREEN CARD|2014|16|31
HK|TBL|4215|YE|TEMP VIP|2014|16|7
HK|TBL|4215|FO|FRIENDS OF TIMBERLAND|2014|17|3
HK|TBL|4215|GO|GOLD CARD|2014|17|7
HK|TBL|4215|GR|GREEN CARD|2014|17|17
HK|TBL|4215|YE|TEMP VIP|2014|17|10
HK|TBL|4215|FO|FRIENDS OF TIMBERLAND|2014|18|4
HK|TBL|4215|GO|GOLD CARD|2014|18|9
HK|TBL|4215|GR|GREEN CARD|2014|18|18
HK|TBL|4215|YE|TEMP VIP|2014|18|13
HK|TBL|4215|FO|FRIENDS OF TIMBERLAND|2014|19|2
HK|TBL|4215|GO|GOLD CARD|2014|19|5
HK|TBL|4215|GR|GREEN CARD|2014|19|30
HK|TBL|4215|YE|TEMP VIP|2014|19|24
HK|TBL|4216|GO|GOLD CARD|2014|8|3
HK|TBL|4216|GR|GREEN CARD|2014|8|19
HK|TBL|4216|GO|GOLD CARD|2014|9|4
HK|TBL|4216|GR|GREEN CARD|2014|9|14
HK|TBL|4216|GO|GOLD CARD|2014|10|3
HK|TBL|4216|GR|GREEN CARD|2014|10|15
HK|TBL|4216|FO|FRIENDS OF TIMBERLAND|2014|11|3
HK|TBL|4216|GO|GOLD CARD|2014|11|3
HK|TBL|4216|GR|GREEN CARD|2014|11|12
HK|TBL|4216|FO|FRIENDS OF TIMBERLAND|2014|12|2
HK|TBL|4216|GO|GOLD CARD|2014|12|1
HK|TBL|4216|GR|GREEN CARD|2014|12|14
HK|TBL|4216|YE|TEMP VIP|2014|12|3
HK|TBL|4216|FO|FRIENDS OF TIMBERLAND|2014|13|1
HK|TBL|4216|GO|GOLD CARD|2014|13|6
HK|TBL|4216|GR|GREEN CARD|2014|13|17
HK|TBL|4216|YE|TEMP VIP|2014|13|20
HK|TBL|4216|FO|FRIENDS OF TIMBERLAND|2014|14|5
HK|TBL|4216|GO|GOLD CARD|2014|14|4
HK|TBL|4216|GR|GREEN CARD|2014|14|18
HK|TBL|4216|YE|TEMP VIP|2014|14|19
HK|TBL|4216|FO|FRIENDS OF TIMBERLAND|2014|15|5
HK|TBL|4216|GO|GOLD CARD|2014|15|1
HK|TBL|4216|GR|GREEN CARD|2014|15|21
HK|TBL|4216|YE|TEMP VIP|2014|15|22
HK|TBL|4216|FO|FRIENDS OF TIMBERLAND|2014|16|1
HK|TBL|4216|GO|GOLD CARD|2014|16|7
HK|TBL|4216|GR|GREEN CARD|2014|16|11
HK|TBL|4216|YE|TEMP VIP|2014|16|20
HK|TBL|4216|GR|GREEN CARD|2014|17|11
HK|TBL|4216|YE|TEMP VIP|2014|17|9
HK|TBL|4216|FO|FRIENDS OF TIMBERLAND|2014|18|2
HK|TBL|4216|GO|GOLD CARD|2014|18|2
HK|TBL|4216|GR|GREEN CARD|2014|18|16
HK|TBL|4216|YE|TEMP VIP|2014|18|17
HK|TBL|4216|FO|FRIENDS OF TIMBERLAND|2014|19|4
HK|TBL|4216|GO|GOLD CARD|2014|19|4
HK|TBL|4216|GR|GREEN CARD|2014|19|14
HK|TBL|4216|YE|TEMP VIP|2014|19|22
HK|TBL|4217|GO|GOLD CARD|2014|8|14
HK|TBL|4217|GR|GREEN CARD|2014|8|27
HK|TBL|4217|GO|GOLD CARD|2014|9|13
HK|TBL|4217|GR|GREEN CARD|2014|9|16
HK|TBL|4217|FO|FRIENDS OF TIMBERLAND|2014|10|1
HK|TBL|4217|GO|GOLD CARD|2014|10|12
HK|TBL|4217|GR|GREEN CARD|2014|10|22
HK|TBL|4217|FO|FRIENDS OF TIMBERLAND|2014|11|1
HK|TBL|4217|GO|GOLD CARD|2014|11|7
HK|TBL|4217|GR|GREEN CARD|2014|11|24
HK|TBL|4217|FO|FRIENDS OF TIMBERLAND|2014|12|5
HK|TBL|4217|GO|GOLD CARD|2014|12|4
HK|TBL|4217|GR|GREEN CARD|2014|12|16
HK|TBL|4217|YE|TEMP VIP|2014|12|7
HK|TBL|4217|FO|FRIENDS OF TIMBERLAND|2014|13|4
HK|TBL|4217|GO|GOLD CARD|2014|13|2
HK|TBL|4217|GR|GREEN CARD|2014|13|26
HK|TBL|4217|YE|TEMP VIP|2014|13|31
HK|TBL|4217|FO|FRIENDS OF TIMBERLAND|2014|14|7
HK|TBL|4217|GO|GOLD CARD|2014|14|10
HK|TBL|4217|GR|GREEN CARD|2014|14|21
HK|TBL|4217|YE|TEMP VIP|2014|14|33
HK|TBL|4217|FO|FRIENDS OF TIMBERLAND|2014|15|5
HK|TBL|4217|GO|GOLD CARD|2014|15|8
HK|TBL|4217|GR|GREEN CARD|2014|15|22
HK|TBL|4217|YE|TEMP VIP|2014|15|34
HK|TBL|4217|FO|FRIENDS OF TIMBERLAND|2014|16|7
HK|TBL|4217|GO|GOLD CARD|2014|16|9
HK|TBL|4217|GR|GREEN CARD|2014|16|17
HK|TBL|4217|YE|TEMP VIP|2014|16|26
HK|TBL|4217|FO|FRIENDS OF TIMBERLAND|2014|17|2
HK|TBL|4217|GO|GOLD CARD|2014|17|5
HK|TBL|4217|GR|GREEN CARD|2014|17|12
HK|TBL|4217|YE|TEMP VIP|2014|17|20
HK|TBL|4217|FO|FRIENDS OF TIMBERLAND|2014|18|4
HK|TBL|4217|GO|GOLD CARD|2014|18|6
HK|TBL|4217|GR|GREEN CARD|2014|18|20
HK|TBL|4217|YE|TEMP VIP|2014|18|21
HK|TBL|4217|FO|FRIENDS OF TIMBERLAND|2014|19|7
HK|TBL|4217|GO|GOLD CARD|2014|19|4
HK|TBL|4217|GR|GREEN CARD|2014|19|15
HK|TBL|4217|YE|TEMP VIP|2014|19|20
HK|TBL|4218|GO|GOLD CARD|2014|8|35
HK|TBL|4218|GR|GREEN CARD|2014|8|32
HK|TBL|4218|GO|GOLD CARD|2014|9|26
HK|TBL|4218|GR|GREEN CARD|2014|9|27
HK|TBL|4218|GO|GOLD CARD|2014|10|19
HK|TBL|4218|GR|GREEN CARD|2014|10|31
HK|TBL|4218|GO|GOLD CARD|2014|11|14
HK|TBL|4218|GR|GREEN CARD|2014|11|30
HK|TBL|4218|FO|FRIENDS OF TIMBERLAND|2014|12|2
HK|TBL|4218|GO|GOLD CARD|2014|12|13
HK|TBL|4218|GR|GREEN CARD|2014|12|38
HK|TBL|4218|YE|TEMP VIP|2014|12|10
HK|TBL|4218|GO|GOLD CARD|2014|13|12
HK|TBL|4218|GR|GREEN CARD|2014|13|33
HK|TBL|4218|YE|TEMP VIP|2014|13|40
HK|TBL|4218|GO|GOLD CARD|2014|14|16
HK|TBL|4218|GR|GREEN CARD|2014|14|39
HK|TBL|4218|YE|TEMP VIP|2014|14|54
HK|TBL|4218|FO|FRIENDS OF TIMBERLAND|2014|15|8
HK|TBL|4218|GO|GOLD CARD|2014|15|22
HK|TBL|4218|GR|GREEN CARD|2014|15|27
HK|TBL|4218|YE|TEMP VIP|2014|15|54
HK|TBL|4218|FO|FRIENDS OF TIMBERLAND|2014|16|23
HK|TBL|4218|GO|GOLD CARD|2014|16|10
HK|TBL|4218|GR|GREEN CARD|2014|16|23
HK|TBL|4218|YE|TEMP VIP|2014|16|49
HK|TBL|4218|FO|FRIENDS OF TIMBERLAND|2014|17|22
HK|TBL|4218|GO|GOLD CARD|2014|17|15
HK|TBL|4218|GR|GREEN CARD|2014|17|28
HK|TBL|4218|YE|TEMP VIP|2014|17|56
HK|TBL|4218|FO|FRIENDS OF TIMBERLAND|2014|18|17
HK|TBL|4218|GO|GOLD CARD|2014|18|18
HK|TBL|4218|GR|GREEN CARD|2014|18|27
HK|TBL|4218|YE|TEMP VIP|2014|18|54
HK|TBL|4218|FO|FRIENDS OF TIMBERLAND|2014|19|18
HK|TBL|4218|GO|GOLD CARD|2014|19|6
HK|TBL|4218|GR|GREEN CARD|2014|19|20
HK|TBL|4218|YE|TEMP VIP|2014|19|41
