SYSTEM_CODE|BRAND_CODE|STORE_CODE|VISIT_YEAR|VISIT_MONTH|VISITOR_COUNT|OUTSIDE_TRAFFIC_COUNT|SALES_QTY|CROSS_SALES_AMOUNT|OPS_SALES_AMOUNT|TAX_AMOUNT|NUMBER_OF_SALES_TRANSACTIONS|CURRENCY
CN|VAN|7927|2013|12|9576|31385|314|185480|137480|0|231|RMB
CN|VAN|7929|2014|1|0|0|338|173050|157523.1|0|196|RMB
CN|VAN|7929|2014|2|0|0|380|169275|151940.9|0|213|RMB
CN|VAN|7929|2014|3|0|0|772|272630|249145.5|0|433|RMB
CN|VAN|7929|2014|4|0|0|722|234055|215311.5|0|420|RMB
CN|VAN|7929|2013|5|0|0|616|199575|182379|0|409|RMB
CN|VAN|7929|2013|6|0|0|555|207395|198719.5|0|491|RMB
CN|VAN|7929|2013|7|0|0|418|147190|144409|0|338|RMB
CN|VAN|7929|2013|8|0|0|292|121665|119517.5|0|238|RMB
CN|VAN|7929|2013|9|0|0|423|196025|175396|0|268|RMB
CN|VAN|7929|2013|10|0|0|377|184380|162344|0|242|RMB
CN|VAN|7929|2013|11|0|0|260|159215|143729.5|0|200|RMB
CN|VAN|7929|2013|12|0|0|366|252910|228719.5|0|255|RMB
CN|VAN|7931|2013|5|0|0|4277|3087778|112085|0|2|RMB
CN|VAN|7931|2013|6|0|0|10539|6188119|275760|0|9|RMB
CN|VAN|7931|2013|8|0|0|3366|2145280|289720|0|2|RMB
CN|VAN|7931|2013|9|0|0|793|528055|65470|0|4|RMB
CN|VAN|7932|2014|1|0|0|810|452580|263801|0|381|RMB
CN|VAN|7932|2014|2|0|0|290|127140|119667|0|226|RMB
CN|VAN|7932|2014|3|0|0|410|175035|169000|0|365|RMB
CN|VAN|7932|2014|4|0|0|476|175015|163714|0|363|RMB
CN|VAN|7932|2013|5|0|0|451|157155|151565|0|356|RMB
CN|VAN|7932|2013|6|0|0|350|138545|135631|0|303|RMB
CN|VAN|7932|2013|7|0|0|257|98540|96046|0|235|RMB
CN|VAN|7932|2013|8|0|0|231|100420|99341|0|216|RMB
CN|VAN|7932|2013|9|0|0|329|167970|165610|0|316|RMB
CN|VAN|7932|2013|10|0|0|206|113645|111474|0|201|RMB
CN|VAN|7932|2013|11|0|0|240|161270|149337|0|227|RMB
CN|VAN|7932|2013|12|0|0|205|146915|138756|0|202|RMB
CN|VAN|7933|2014|1|0|0|585|307200|302826|0|338|RMB
CN|VAN|7933|2014|2|0|0|412|193475|167098|0|255|RMB
CN|VAN|7933|2014|3|0|0|276|119440|118269|0|144|RMB
CN|VAN|7933|2014|4|0|0|296|117865|116271|0|148|RMB
CN|VAN|7933|2013|5|0|0|636|241090|236148|0|467|RMB
CN|VAN|7933|2013|6|0|0|577|223430|216566|0|468|RMB
CN|VAN|7933|2013|7|0|0|371|152020|141115|0|305|RMB
CN|VAN|7933|2013|8|0|0|340|149705|144712|0|302|RMB
CN|VAN|7933|2013|9|0|0|347|169710|166806|0|320|RMB
CN|VAN|7933|2013|10|0|0|482|247310|246557|0|420|RMB
CN|VAN|7933|2013|11|0|0|182|100285|90843|0|143|RMB
CN|VAN|7933|2013|12|0|0|258|172260|161442|0|169|RMB
CN|VAN|7934|2014|1|0|0|320|196730|163900|0|251|RMB
CN|VAN|7934|2014|2|0|0|305|135445|124871|0|230|RMB
CN|VAN|7934|2014|3|0|0|389|159295|159295|0|290|RMB
CN|VAN|7934|2014|4|0|0|292|108045|108045|0|193|RMB
CN|VAN|7934|2013|5|0|0|474|174760|153643|0|393|RMB
CN|VAN|7934|2013|6|0|0|325|118820|115084|0|274|RMB
CN|VAN|7934|2013|7|0|0|270|96195|90985|0|212|RMB
CN|VAN|7934|2013|8|0|0|287|102865|95165|0|229|RMB
CN|VAN|7934|2013|9|0|0|367|161405|141198|0|319|RMB
CN|VAN|7934|2013|10|0|0|311|161540|134034|0|258|RMB
CN|VAN|7934|2013|11|0|0|195|113690|112250|0|136|RMB
CN|VAN|7934|2013|12|0|0|186|128930|124910|0|148|RMB
CN|VAN|7935|2014|1|0|0|308|191335|121406|0|245|RMB
CN|VAN|7935|2014|2|0|0|165|85345|66814|0|150|RMB
CN|VAN|7935|2014|3|0|0|246|116920|93284|0|194|RMB
CN|VAN|7935|2014|4|0|0|267|110205|88168|0|201|RMB
CN|VAN|7935|2013|5|0|0|431|164463|130251|0|339|RMB
CN|VAN|7935|2013|6|0|0|294|113570|97862|0|263|RMB
CN|VAN|7935|2013|7|0|0|265|104240|87184|0|235|RMB
CN|VAN|7935|2013|8|0|0|200|78135|71381|0|182|RMB
CN|VAN|7935|2013|9|0|0|363|157780|124914|0|319|RMB
CN|VAN|7935|2013|10|0|0|150|71380|65342|0|116|RMB
CN|VAN|7935|2013|11|0|0|118|68495|59549|0|108|RMB
CN|VAN|7935|2013|12|0|0|118|77290|61928|0|92|RMB
CN|VAN|7937|2014|1|0|0|925|647765|639571|0|146|RMB
CN|VAN|7937|2014|2|0|0|354|160010|150225|0|173|RMB
CN|VAN|7937|2014|3|0|0|336|151800|151800|0|182|RMB
CN|VAN|7937|2014|4|0|0|1305|544875|326500|0|623|RMB
CN|VAN|7937|2013|5|0|0|843|290040|284448|0|249|RMB
CN|VAN|7937|2013|6|0|0|529|221610|195726|0|427|RMB
CN|VAN|7937|2013|7|0|0|423|169730|147247|0|353|RMB
CN|VAN|7937|2013|8|0|0|612|237335|224614|0|337|RMB
CN|VAN|7937|2013|9|0|0|593|281525|273894|0|331|RMB
CN|VAN|7937|2013|10|0|0|505|242560|188761|0|326|RMB
CN|VAN|7937|2013|11|0|0|153|100640|90096|0|82|RMB
CN|VAN|7937|2013|12|0|0|125|86025|86025|0|72|RMB
CN|VAN|7938|2014|1|0|0|168|126535|111726|0|109|RMB
CN|VAN|7938|2014|2|0|0|183|88750|75545|0|104|RMB
CN|VAN|7938|2014|3|0|0|406|150285|145996|0|264|RMB
CN|VAN|7938|2014|4|0|0|450|159095|154555|0|307|RMB
CN|VAN|7938|2013|5|0|0|334|104410|100202|0|244|RMB
CN|VAN|7938|2013|6|0|0|256|91440|86229|0|210|RMB
CN|VAN|7938|2013|7|0|0|179|67145|64544|0|149|RMB
CN|VAN|7938|2013|8|0|0|168|64385|63499|0|150|RMB
CN|VAN|7938|2013|9|0|0|212|95870|93410|0|194|RMB
CN|VAN|7938|2013|10|0|0|110|46350|39741|0|72|RMB
CN|VAN|7938|2013|11|0|0|302|175025|104597|0|282|RMB
CN|VAN|7938|2013|12|0|0|233|171775|157909|0|124|RMB
CN|VAN|7939|2014|1|0|0|397|224145|201312|0|285|RMB
CN|VAN|7939|2014|2|0|0|444|222560|190470|0|319|RMB
CN|VAN|7939|2014|3|0|0|457|182435|178595|0|349|RMB
CN|VAN|7939|2014|4|0|0|405|164850|164850|0|335|RMB
CN|VAN|7939|2013|5|0|0|716|266675|232835|0|531|RMB
CN|VAN|7939|2013|6|0|0|541|199890|186930|0|425|RMB
CN|VAN|7939|2013|7|0|0|412|155570|154210|0|341|RMB
CN|VAN|7939|2013|8|0|0|433|159425|146155|0|310|RMB
CN|VAN|7939|2013|9|0|0|512|229725|223294|0|412|RMB
CN|VAN|7939|2013|10|0|0|434|214995|196954|0|330|RMB
CN|VAN|7939|2013|11|0|0|195|112985|112985|0|181|RMB
CN|VAN|7939|2013|12|0|0|250|168725|152256|0|215|RMB
CN|VAN|7940|2014|1|0|0|17942|9840950|8360721.43|0|31095|RMB
CN|VAN|7940|2014|2|0|0|7836|3621505|3386540.36|0|10141|RMB
CN|VAN|7940|2014|3|0|0|20523|9353230|7909009.03|0|23468|RMB
CN|VAN|7940|2014|4|0|0|12514|5547230|4849704.54|0|16317|RMB
CN|VAN|7940|2013|5|0|0|7457|3205670|2463211|0|9064|RMB
CN|VAN|7940|2013|6|0|0|5977|2600025|2097900|0|7228|RMB
CN|VAN|7940|2013|7|0|0|10117|4544090|3031249.09|0|12126|RMB
CN|VAN|7940|2013|8|0|0|5083|2315620|1932978.5|0|6093|RMB
CN|VAN|7940|2013|9|0|0|9868|4863655|3993120.5|0|11623|RMB
CN|VAN|7801|2014|1|0|0|314|186480|178300|0|251|RMB
CN|VAN|7801|2014|2|0|0|578|261505|251077|0|425|RMB
CN|VAN|7801|2014|3|0|0|817|352665|352368|0|551|RMB
CN|VAN|7801|2014|4|0|0|892|345720|345720|0|537|RMB
CN|VAN|7801|2013|12|0|0|57|36455|35678|0|46|RMB
CN|VAN|7802|2014|2|0|0|138|35390|33202|0|194|RMB
CN|VAN|7802|2014|3|0|0|387|93715|88201.75|0|663|RMB
CN|VAN|7802|2014|4|0|0|642|139680|134556.49|0|1132|RMB
CN|VAN|7903|2014|1|0|0|191|120235|106883|0|156|RMB
CN|VAN|7903|2014|2|0|0|203|112710|100776|0|174|RMB
CN|VAN|7903|2014|3|0|0|250|114990|111574|0|207|RMB
CN|VAN|7903|2014|4|0|0|296|121010|118922|0|194|RMB
CN|VAN|7903|2013|5|0|0|378|136675|121237|0|300|RMB
CN|VAN|7903|2013|6|0|0|334|123275|115851|0|259|RMB
CN|VAN|7903|2013|7|0|0|308|124890|122255|0|265|RMB
CN|VAN|7903|2013|8|0|0|230|97375|95122|0|216|RMB
CN|VAN|7903|2013|9|0|0|248|117600|111035|0|235|RMB
CN|VAN|7903|2013|10|0|0|283|147705|138094|0|216|RMB
CN|VAN|7903|2013|11|0|0|132|74320|69613|0|93|RMB
CN|VAN|7903|2013|12|0|0|140|101625|97927|0|127|RMB
CN|VAN|7906|2014|1|0|0|1170|685565|407722|0|639|RMB
CN|VAN|7906|2014|2|0|0|815|470630|249705|0|414|RMB
CN|VAN|7906|2014|3|0|0|2|1130|1130|0|1|RMB
CN|VAN|7906|2013|5|0|0|2159|750400|693339.6|0|1280|RMB
CN|VAN|7906|2013|6|0|0|2062|797610|767072.1|0|1364|RMB
CN|VAN|7906|2013|7|0|0|1864|693285|661173|0|1225|RMB
CN|VAN|7906|2013|8|0|0|1383|535230|533455.7|0|1003|RMB
CN|VAN|7906|2013|9|0|0|1532|688720|686439.6|0|1052|RMB
CN|VAN|7906|2013|10|0|0|1446|687140|683583.5|0|850|RMB
CN|VAN|7906|2013|11|0|0|889|448625|446082.9|0|570|RMB
CN|VAN|7906|2013|12|0|0|977|606070|599700.5|0|631|RMB
CN|VAN|7908|2014|1|0|0|1487|807375|542058|0|783|RMB
CN|VAN|7908|2014|2|0|0|829|367915|331771|0|516|RMB
CN|VAN|7908|2014|3|0|0|1057|428005|415480|0|806|RMB
CN|VAN|7908|2014|4|0|0|1141|414020|412096|0|830|RMB
CN|VAN|7908|2013|5|0|0|1542|518320|446602|0|944|RMB
CN|VAN|7908|2013|6|0|0|1607|585590|494009|0|1090|RMB
CN|VAN|7908|2013|7|0|0|1113|400065|350513|0|841|RMB
CN|VAN|7908|2013|8|0|0|1134|446530|418923|0|870|RMB
CN|VAN|7908|2013|9|0|0|1258|583050|529900|0|945|RMB
CN|VAN|7908|2013|10|0|0|990|469045|407057|0|669|RMB
CN|VAN|7908|2013|11|0|0|524|292715|264357|0|385|RMB
CN|VAN|7908|2013|12|0|0|600|394120|374038|0|465|RMB
CN|VAN|7911|2014|1|0|0|368|204660|190689.25|0|256|RMB
CN|VAN|7911|2014|2|0|0|637|258420|225856.25|0|384|RMB
CN|VAN|7911|2014|3|0|0|796|294195|267581.5|0|492|RMB
CN|VAN|7911|2014|4|0|0|1148|339415|306876|0|635|RMB
CN|VAN|7911|2013|5|0|0|1220|475148|342925.8|0|911|RMB
CN|VAN|7911|2013|6|0|0|815|288480|281530|0|570|RMB
CN|VAN|7911|2013|7|0|0|1511|579770|404772.5|0|718|RMB
CN|VAN|7911|2013|8|0|0|992|406020|331144.5|0|616|RMB
CN|VAN|7911|2013|9|0|0|690|297875|277808|0|466|RMB
CN|VAN|7911|2013|10|0|0|410|216950|203459|0|298|RMB
CN|VAN|7911|2013|11|0|0|676|376615|279638|0|531|RMB
CN|VAN|7911|2013|12|0|0|403|285650|276074|0|284|RMB
CN|VAN|7914|2014|1|0|0|157|98230|82688|0|126|RMB
CN|VAN|7914|2014|2|0|0|200|98430|85522|0|128|RMB
CN|VAN|7914|2014|3|0|0|263|109865|102216|0|211|RMB
CN|VAN|7914|2014|4|0|0|323|130365|122475|0|221|RMB
CN|VAN|7914|2013|5|0|0|354|128125|120327|0|267|RMB
CN|VAN|7914|2013|6|0|0|363|136765|133129|0|303|RMB
CN|VAN|7914|2013|7|0|0|282|108770|97718|0|235|RMB
CN|VAN|7914|2013|8|0|0|202|83570|80473|0|173|RMB
CN|VAN|7914|2013|9|0|0|252|113600|107501|0|219|RMB
CN|VAN|7914|2013|10|0|0|195|99615|93156|0|162|RMB
CN|VAN|7914|2013|11|0|0|183|105075|95365|0|168|RMB
CN|VAN|7914|2013|12|0|0|185|117015|104858|0|153|RMB
CN|VAN|7915|2014|1|0|0|184|119875|63894.5|0|94|RMB
CN|VAN|7915|2014|2|0|0|193|116325|67288.5|0|117|RMB
CN|VAN|7915|2014|3|0|0|286|154070|90502|0|172|RMB
CN|VAN|7915|2014|4|0|0|356|185060|104808|0|135|RMB
CN|VAN|7915|2013|5|0|0|440|192230|102550|0|257|RMB
CN|VAN|7915|2013|6|0|0|557|248505|139648.5|0|341|RMB
CN|VAN|7915|2013|7|0|0|344|153305|96259.5|0|224|RMB
CN|VAN|7915|2013|8|0|0|322|140940|87306|0|201|RMB
CN|VAN|7915|2013|9|0|0|245|120585|72465.5|0|156|RMB
CN|VAN|7915|2013|10|0|0|231|117235|76902.5|0|161|RMB
CN|VAN|7915|2013|11|0|0|246|133075|82227.5|0|149|RMB
CN|VAN|7915|2013|12|0|0|223|134130|77556|0|115|RMB
CN|VAN|7921|2013|6|0|0|2816|1228830|490922.5|0|2|RMB
CN|VAN|7922|2014|1|0|0|293|154070|144030|0|200|RMB
CN|VAN|7922|2014|2|0|0|454|193295|177172|0|287|RMB
CN|VAN|7922|2014|3|0|0|433|183860|183860|0|292|RMB
CN|VAN|7922|2014|4|0|0|418|163340|163340|0|260|RMB
CN|VAN|7922|2013|5|0|0|468|158090|154160|0|345|RMB
CN|VAN|7922|2013|6|0|0|524|188805|184555|0|432|RMB
CN|VAN|7922|2013|7|0|0|401|148075|148075|0|350|RMB
CN|VAN|7922|2013|8|0|0|307|116075|116075|0|267|RMB
CN|VAN|7922|2013|9|0|0|353|155645|152895|0|269|RMB
CN|VAN|7922|2013|10|0|0|282|141340|140240|0|217|RMB
CN|VAN|7922|2013|11|0|0|173|98170|98170|0|156|RMB
CN|VAN|7922|2013|12|0|0|168|110720|109020|0|139|RMB
CN|VAN|7923|2014|1|0|0|422|235895|139050|0|225|RMB
CN|VAN|7923|2014|2|0|0|609|293835|174734|0|326|RMB
CN|VAN|7923|2014|3|0|0|942|378200|229243|0|461|RMB
CN|VAN|7923|2014|4|0|0|958|347100|219943|0|439|RMB
CN|VAN|7923|2013|5|0|0|794|271955|174628|0|357|RMB
CN|VAN|7923|2013|6|0|0|653|225915|154167|0|340|RMB
CN|VAN|7923|2013|7|0|0|484|171330|119479|0|259|RMB
CN|VAN|7923|2013|8|0|0|423|171490|122809|0|262|RMB
CN|VAN|7923|2013|9|0|0|612|288080|187656|0|353|RMB
CN|VAN|7923|2013|10|0|0|389|199340|129268|0|231|RMB
CN|VAN|7923|2013|11|0|0|424|271710|161981|0|221|RMB
CN|VAN|7923|2013|12|0|0|357|241335|144816|0|221|RMB
CN|VAN|7924|2014|1|0|0|175|111010|43959|0|124|RMB
CN|VAN|7924|2014|2|0|0|152|93820|45852|0|98|RMB
CN|VAN|7924|2014|3|0|0|328|167390|67559|0|202|RMB
CN|VAN|7924|2014|4|0|0|460|226635|81007|0|233|RMB
CN|VAN|7924|2013|5|0|0|277|124425|75888|0|244|RMB
CN|VAN|7924|2013|6|0|0|242|111385|67482|0|222|RMB
CN|VAN|7924|2013|7|0|0|132|58890|35975|0|130|RMB
CN|VAN|7924|2013|8|0|0|130|59375|37488|0|116|RMB
CN|VAN|7924|2013|9|0|0|157|75460|43222|0|143|RMB
CN|VAN|7924|2013|10|0|0|194|104735|58279|0|145|RMB
CN|VAN|7924|2013|11|0|0|148|82350|42142|0|134|RMB
CN|VAN|7924|2013|12|0|0|179|111125|46043|0|155|RMB
CN|VAN|7925|2013|5|0|0|242|98775|71982|0|213|RMB
CN|VAN|7925|2013|6|0|0|282|119415|79863|0|214|RMB
CN|VAN|7925|2013|7|0|0|169|71585|52771|0|155|RMB
CN|VAN|7925|2013|8|0|0|150|70370|50211|0|125|RMB
CN|VAN|7925|2013|9|0|0|164|75960|54036|0|143|RMB
CN|VAN|7925|2013|10|0|0|126|61790|43767|0|104|RMB
CN|VAN|7925|2013|11|0|0|91|48290|37420|0|105|RMB
CN|VAN|7925|2013|12|0|0|14|8145|5807|0|19|RMB
CN|VAN|7927|2014|1|6702|22518|268|153500|112045|0|205|RMB
CN|VAN|7927|2014|2|6063|25248|305|147675|110735|0|226|RMB
CN|VAN|7927|2014|3|7251|31289|509|207190|145703|0|297|RMB
CN|VAN|7927|2014|4|5693|23680|566|212235|142487|0|274|RMB
CN|VAN|7927|2013|5|8184|8442|746|269680|190747|0|403|RMB
CN|VAN|7927|2013|6|9322|25227|717|277120|189910|0|430|RMB
CN|VAN|7927|2013|7|10235|25795|564|214165|154078|0|402|RMB
CN|VAN|7927|2013|8|7891|25848|478|192255|138040|0|301|RMB
CN|VAN|7927|2013|9|8830|29152|414|199525|152802|0|292|RMB
CN|VAN|7927|2013|10|7472|24925|349|180090|128268|0|237|RMB
CN|VAN|7927|2013|11|6399|23309|207|122245|93969|0|155|RMB
CN|VAN|7965|2014|4|0|0|435|193985|130922|0|260|RMB
CN|VAN|7965|2013|5|0|0|382|168205|127143|0|354|RMB
CN|VAN|7965|2013|6|0|0|518|220025|158573|0|431|RMB
CN|VAN|7965|2013|7|0|0|398|171380|122551|0|258|RMB
CN|VAN|7965|2013|8|0|0|331|147265|110123|0|188|RMB
CN|VAN|7965|2013|9|0|0|361|174185|131569|0|200|RMB
CN|VAN|7965|2013|10|0|0|262|131285|96099|0|154|RMB
CN|VAN|7965|2013|11|0|0|235|140775|96722|0|153|RMB
CN|VAN|7965|2013|12|0|0|184|123240|90084|0|115|RMB
CN|VAN|7966|2014|1|0|0|77|47050|39957|0|77|RMB
CN|VAN|7966|2014|2|0|0|80|41700|35923|0|73|RMB
CN|VAN|7966|2014|3|0|0|175|83335|63973|0|143|RMB
CN|VAN|7966|2014|4|0|0|214|93735|66503|0|181|RMB
CN|VAN|7966|2013|5|0|0|309|117485|97288|0|239|RMB
CN|VAN|7966|2013|6|0|0|256|101335|91126|0|226|RMB
CN|VAN|7966|2013|7|0|0|215|85045|74088|0|190|RMB
CN|VAN|7966|2013|8|0|0|181|75125|65372|0|152|RMB
CN|VAN|7966|2013|9|0|0|151|66525|59184|0|122|RMB
CN|VAN|7966|2013|10|0|0|116|61460|53465|0|104|RMB
CN|VAN|7966|2013|11|0|0|84|47065|39895|0|78|RMB
CN|VAN|7966|2013|12|0|0|71|50010|42948|0|66|RMB
CN|VAN|7967|2014|1|0|0|397|246930|127158|0|316|RMB
CN|VAN|7967|2014|2|0|0|391|225230|112655|0|294|RMB
CN|VAN|7967|2014|3|0|0|663|343770|176008|0|543|RMB
CN|VAN|7967|2014|4|0|0|768|391000|190329|0|586|RMB
CN|VAN|7967|2013|5|0|0|1069|513720|267172|0|934|RMB
CN|VAN|7967|2013|6|0|0|1083|534935|261716|0|924|RMB
CN|VAN|7967|2013|7|0|0|785|394780|193749|0|624|RMB
CN|VAN|7967|2013|8|0|0|706|356170|168189|0|534|RMB
CN|VAN|7967|2013|9|0|0|1083|554185|273624|0|812|RMB
CN|VAN|7967|2013|10|0|0|607|319980|185913|0|561|RMB
CN|VAN|7967|2013|11|0|0|334|189780|118238|0|305|RMB
CN|VAN|7940|2013|10|0|0|8459|4418115|3452547.07|0|10588|RMB
CN|VAN|7940|2013|11|0|0|4063|2138205|1824002|0|5234|RMB
CN|VAN|7940|2013|12|0|0|20934|11792760|5800350.5|0|35285|RMB
CN|VAN|7941|2014|1|0|0|291|174910|144081|0|239|RMB
CN|VAN|7941|2014|2|0|0|404|200730|166242|0|306|RMB
CN|VAN|7941|2014|3|0|0|416|170785|166265|0|336|RMB
CN|VAN|7941|2014|4|0|0|391|151780|151780|0|307|RMB
CN|VAN|7941|2013|5|0|0|693|252245|201085|0|546|RMB
CN|VAN|7941|2013|6|0|0|897|316880|245400|0|701|RMB
CN|VAN|7941|2013|7|0|0|303|116020|105289|0|268|RMB
CN|VAN|7941|2013|8|0|0|301|111145|103808|0|227|RMB
CN|VAN|7941|2013|9|0|0|420|183920|178952|0|352|RMB
CN|VAN|7941|2013|10|0|0|383|172550|160222|0|270|RMB
CN|VAN|7941|2013|11|0|0|143|83510|83510|0|128|RMB
CN|VAN|7941|2013|12|0|0|566|389625|273808|0|505|RMB
CN|VAN|7942|2014|1|0|0|177|87030|83828|0|113|RMB
CN|VAN|7942|2014|2|0|0|292|129940|124033|0|174|RMB
CN|VAN|7942|2014|3|0|0|607|252740|249637|0|338|RMB
CN|VAN|7942|2014|4|0|0|561|207035|204250|0|269|RMB
CN|VAN|7942|2013|5|0|0|576|174540|169198|0|328|RMB
CN|VAN|7942|2013|6|0|0|432|171620|168739|0|356|RMB
CN|VAN|7942|2013|7|0|0|268|106465|105529|0|242|RMB
CN|VAN|7942|2013|8|0|0|287|120595|120595|0|232|RMB
CN|VAN|7942|2013|9|0|0|390|186535|186175|0|300|RMB
CN|VAN|7942|2013|10|0|0|283|133265|127237|0|216|RMB
CN|VAN|7942|2013|11|0|0|188|121555|121555|0|134|RMB
CN|VAN|7942|2013|12|0|0|218|144540|143950|0|163|RMB
CN|VAN|7944|2013|5|0|0|533|179570|176240|0|397|RMB
CN|VAN|7944|2013|6|0|0|582|208240|205210|0|461|RMB
CN|VAN|7944|2013|7|0|0|403|142635|142635|0|331|RMB
CN|VAN|7944|2013|8|0|0|352|139620|139620|0|294|RMB
CN|VAN|7944|2013|9|0|0|589|267365|254915|0|447|RMB
CN|VAN|7944|2013|10|0|0|452|200990|181440|0|304|RMB
CN|VAN|7944|2013|11|0|0|38|19600|19600|0|51|RMB
CN|VAN|7945|2014|1|0|0|234|111135|95728.1|0|168|RMB
CN|VAN|7945|2014|2|0|0|178|91780|82603.3|0|157|RMB
CN|VAN|7945|2014|3|0|0|176|76405|72555.1|0|166|RMB
CN|VAN|7945|2014|4|0|0|393|198215|108238.6|0|188|RMB
CN|VAN|7945|2013|5|0|0|383|131840|117186.2|0|290|RMB
CN|VAN|7945|2013|6|0|0|400|135150|125598.5|0|302|RMB
CN|VAN|7945|2013|7|0|0|244|84280|80816.5|0|202|RMB
CN|VAN|7945|2013|8|0|0|246|87045|85230.9|0|209|RMB
CN|VAN|7945|2013|9|0|0|268|123065|116407.4|0|262|RMB
CN|VAN|7945|2013|10|0|0|194|88245|80439.1|0|147|RMB
CN|VAN|7945|2013|11|0|0|148|81955|79022.2|0|152|RMB
CN|VAN|7945|2013|12|0|0|145|88235|81396.7|0|127|RMB
CN|VAN|7946|2014|1|0|0|277|158760|128850|0|212|RMB
CN|VAN|7946|2014|2|0|0|272|117990|105958|0|183|RMB
CN|VAN|7946|2014|3|0|0|277|115205|111651|0|190|RMB
CN|VAN|7946|2014|4|0|0|216|78875|76026|0|137|RMB
CN|VAN|7946|2013|5|0|0|380|138385|116705|0|285|RMB
CN|VAN|7946|2013|6|0|0|293|106750|102589|0|215|RMB
CN|VAN|7946|2013|7|0|0|250|86180|78730|0|174|RMB
CN|VAN|7946|2013|8|0|0|236|90340|84040|0|172|RMB
CN|VAN|7946|2013|9|0|0|318|142910|126315|0|255|RMB
CN|VAN|7946|2013|10|0|0|258|123850|102401|0|234|RMB
CN|VAN|7946|2013|11|0|0|186|104390|103810|0|124|RMB
CN|VAN|7946|2013|12|0|0|130|86695|84895|0|110|RMB
CN|VAN|7947|2014|1|10890|79648|806|397670|386481|0|485|RMB
CN|VAN|7947|2014|2|13692|87718|1174|486470|463436|0|733|RMB
CN|VAN|7947|2014|3|15167|86822|1426|543695|541795|0|880|RMB
CN|VAN|7947|2014|4|14572|74141|1695|618225|618053|0|1084|RMB
CN|VAN|7947|2013|5|15659|79419|1502|523545|504625|0|928|RMB
CN|VAN|7947|2013|6|16202|90410|1391|502705|494825|0|990|RMB
CN|VAN|7947|2013|7|13747|84119|1100|393245|393245|0|846|RMB
CN|VAN|7947|2013|8|13450|90799|968|391750|391750|0|792|RMB
CN|VAN|7947|2013|9|15023|84417|886|439395|434873|0|720|RMB
CN|VAN|7947|2013|10|12834|68839|821|444385|421205|0|676|RMB
CN|VAN|7947|2013|11|10410|66906|576|371925|367936|0|464|RMB
CN|VAN|7947|2013|12|13396|102486|684|469280|459474|0|493|RMB
CN|VAN|7948|2014|1|0|0|288|162765|90276|0|166|RMB
CN|VAN|7948|2014|2|0|0|379|210930|100681|0|206|RMB
CN|VAN|7948|2014|3|0|0|734|345875|176244|0|464|RMB
CN|VAN|7948|2014|4|0|0|1244|574010|262514|0|676|RMB
CN|VAN|7948|2013|5|0|0|555|229810|120560|0|364|RMB
CN|VAN|7948|2013|6|0|0|521|220255|118013|0|413|RMB
CN|VAN|7948|2013|7|0|0|457|194210|91567|0|306|RMB
CN|VAN|7948|2013|8|0|0|507|236060|98029|0|342|RMB
CN|VAN|7948|2013|9|0|0|1215|628990|238058|0|817|RMB
CN|VAN|7948|2013|10|0|0|523|294870|136486|0|394|RMB
CN|VAN|7948|2013|11|0|0|234|123510|65059|0|169|RMB
CN|VAN|7948|2013|12|0|0|279|168860|91111|0|170|RMB
CN|VAN|7949|2014|1|0|0|161|85970|77227|0|123|RMB
CN|VAN|7949|2014|2|0|0|233|105710|98131|0|186|RMB
CN|VAN|7949|2014|3|0|0|286|120570|119727|0|241|RMB
CN|VAN|7949|2014|4|0|0|5|1800|1800|0|4|RMB
CN|VAN|7949|2013|5|0|0|382|120225|109225|0|281|RMB
CN|VAN|7949|2013|6|0|0|341|123945|113135|0|274|RMB
CN|VAN|7949|2013|7|0|0|263|96245|89675|0|217|RMB
CN|VAN|7949|2013|8|0|0|254|96315|90408|0|204|RMB
CN|VAN|7949|2013|9|0|0|311|127800|120576|0|256|RMB
CN|VAN|7949|2013|10|0|0|264|125480|113432|0|188|RMB
CN|VAN|7949|2013|11|0|0|161|95940|89556|0|161|RMB
CN|VAN|7949|2013|12|0|0|175|104535|96911|0|159|RMB
CN|VAN|7950|2014|1|7267|66992|265|134075|112428|0|163|RMB
CN|VAN|7950|2014|2|7684|68640|335|168080|141227|0|212|RMB
CN|VAN|7950|2014|3|7526|63184|353|152725|143236|0|239|RMB
CN|VAN|7950|2014|4|6602|47590|387|158400|154275|0|278|RMB
CN|VAN|7950|2013|5|0|0|597|225700|193509|0|492|RMB
CN|VAN|7950|2013|6|0|0|622|240115|203259|0|513|RMB
CN|VAN|7950|2013|7|0|0|472|185725|154766|0|287|RMB
CN|VAN|7950|2013|8|0|0|391|160505|138945|0|276|RMB
CN|VAN|7950|2013|9|0|0|408|182815|166229|0|277|RMB
CN|VAN|7950|2013|10|3469|11041|266|135415|121082|0|202|RMB
CN|VAN|7950|2013|11|6007|47554|174|94515|90023|0|139|RMB
CN|VAN|7950|2013|12|6838|64220|203|131795|122571|0|157|RMB
CN|VAN|7954|2014|1|0|0|343|211635|128057|0|295|RMB
CN|VAN|7954|2014|2|0|0|380|220345|132593|0|326|RMB
CN|VAN|7954|2014|3|0|0|650|328635|179336|0|547|RMB
CN|VAN|7954|2014|4|0|0|740|362700|191919|0|605|RMB
CN|VAN|7954|2013|5|0|0|1135|523360|263179|0|979|RMB
CN|VAN|7954|2013|6|0|0|1081|495450|239583|0|936|RMB
CN|VAN|7954|2013|7|0|0|1290|685765|257102|0|612|RMB
CN|VAN|7954|2013|8|0|0|903|469445|189502|0|770|RMB
CN|VAN|7954|2013|9|0|0|1014|515975|245589|0|885|RMB
CN|VAN|7954|2013|10|0|0|630|327660|188899|0|590|RMB
CN|VAN|7954|2013|11|0|0|347|204130|126588|0|329|RMB
CN|VAN|7954|2013|12|0|0|293|178860|110078|0|273|RMB
CN|VAN|7955|2014|1|0|0|209|106455|89768|0|171|RMB
CN|VAN|7955|2014|2|0|0|279|127420|107440|0|203|RMB
CN|VAN|7955|2014|3|0|0|256|110715|94873|0|211|RMB
CN|VAN|7955|2014|4|0|0|284|110135|95816|0|220|RMB
CN|VAN|7955|2013|5|0|0|401|126035|114871|0|241|RMB
CN|VAN|7955|2013|6|0|0|360|132015|128826|0|277|RMB
CN|VAN|7955|2013|7|0|0|283|107925|105670|0|200|RMB
CN|VAN|7955|2013|8|0|0|232|87575|86156|0|150|RMB
CN|VAN|7955|2013|9|0|0|266|119265|116375|0|194|RMB
CN|VAN|7955|2013|10|0|0|224|105280|97028|0|153|RMB
CN|VAN|7955|2013|11|0|0|113|61745|61745|0|104|RMB
CN|VAN|7955|2013|12|0|0|126|80085|77933|0|120|RMB
CN|VAN|7958|2014|1|0|0|66|34730|26686|0|56|RMB
CN|VAN|7958|2014|2|0|0|113|62730|40400|0|99|RMB
CN|VAN|7958|2014|3|0|0|226|111780|62160|0|170|RMB
CN|VAN|7958|2014|4|0|0|225|103400|59403|0|166|RMB
CN|VAN|7958|2013|5|0|0|221|76700|62515|0|179|RMB
CN|VAN|7958|2013|6|0|0|210|73540|65043|0|191|RMB
CN|VAN|7958|2013|7|0|0|169|61345|54020|0|181|RMB
CN|VAN|7958|2013|8|0|0|118|39960|36702|0|101|RMB
CN|VAN|7958|2013|9|0|0|167|76990|59736|0|139|RMB
CN|VAN|7958|2013|10|0|0|122|64015|49274|0|113|RMB
CN|VAN|7958|2013|11|0|0|187|97590|58760|0|130|RMB
CN|VAN|7958|2013|12|0|0|120|67990|48678|0|97|RMB
CN|VAN|7961|2014|1|0|0|279|161575|151166|0|170|RMB
CN|VAN|7961|2014|2|0|0|360|168215|160259|0|202|RMB
CN|VAN|7961|2014|3|0|0|549|230070|220833|0|300|RMB
CN|VAN|7961|2014|4|0|0|639|230545|217298|0|366|RMB
CN|VAN|7961|2013|5|0|0|400|140170|136672|0|338|RMB
CN|VAN|7961|2013|6|0|0|355|128685|128685|0|330|RMB
CN|VAN|7961|2013|7|0|0|275|104195|104195|0|273|RMB
CN|VAN|7961|2013|8|0|0|266|112715|112715|0|223|RMB
CN|VAN|7961|2013|9|0|0|325|161075|160555|0|297|RMB
CN|VAN|7961|2013|10|0|0|241|125535|118649|0|212|RMB
CN|VAN|7961|2013|11|0|0|196|131455|129996|0|234|RMB
CN|VAN|7961|2013|12|0|0|213|128185|125514|0|176|RMB
CN|VAN|7963|2014|1|0|0|149|78290|73194|0|103|RMB
CN|VAN|7963|2014|2|0|0|287|128640|119805|0|158|RMB
CN|VAN|7963|2014|3|0|0|374|155905|148649|0|222|RMB
CN|VAN|7963|2014|4|0|0|596|201250|192235|0|301|RMB
CN|VAN|7963|2013|5|0|0|334|111045|108919|0|288|RMB
CN|VAN|7963|2013|6|0|0|344|117740|115563|0|286|RMB
CN|VAN|7963|2013|7|0|0|296|112495|109611|0|202|RMB
CN|VAN|7963|2013|8|0|0|277|117290|112965|0|239|RMB
CN|VAN|7963|2013|9|0|0|312|149055|145320|0|262|RMB
CN|VAN|7963|2013|10|0|0|213|102140|97337|0|172|RMB
CN|VAN|7963|2013|11|0|0|107|69730|68116|0|95|RMB
CN|VAN|7963|2013|12|0|0|189|110390|105845|0|144|RMB
CN|VAN|7964|2013|5|0|0|332|109565|105291|0|240|RMB
CN|VAN|7964|2013|6|0|0|464|160825|155102|0|319|RMB
CN|VAN|7964|2013|7|0|0|377|134715|133428|0|225|RMB
CN|VAN|7964|2013|8|0|0|283|109970|109059|0|184|RMB
CN|VAN|7964|2013|9|0|0|35|12540|12359|0|26|RMB
CN|VAN|7965|2014|1|0|0|183|110250|81881|0|115|RMB
CN|VAN|7965|2014|2|0|0|233|129205|86555|0|141|RMB
CN|VAN|7965|2014|3|0|0|397|186430|129127|0|240|RMB
CN|VAN|7995|2013|10|0|0|303|143965|132755|0|206|RMB
CN|VAN|7995|2013|11|0|0|150|86575|86575|0|141|RMB
CN|VAN|7995|2013|12|0|0|215|151075|145114|0|185|RMB
CN|VAN|7996|2013|11|0|0|295|182853|43200|0|1|RMB
CN|VAN|7996|2013|12|0|0|10323|5262996|275150|0|10|RMB
CN|VAN|7997|2014|1|0|0|314|153475|142721|0|208|RMB
CN|VAN|7997|2014|2|0|0|406|196175|187671|0|325|RMB
CN|VAN|7997|2014|3|0|0|621|254630|254630|0|493|RMB
CN|VAN|7997|2014|4|0|0|821|235535|235535|0|403|RMB
CN|VAN|7997|2013|11|0|0|213|120550|120550|0|195|RMB
CN|VAN|7997|2013|12|0|0|326|202350|202192|0|272|RMB
CN|VAN|7998|2014|1|0|0|1099|644535|351587|0|701|RMB
CN|VAN|7967|2013|12|0|0|296|178445|111281|0|269|RMB
CN|VAN|7968|2014|1|10060|31542|555|336865|304746|0|358|RMB
CN|VAN|7968|2014|2|9767|27007|686|320840|286429|0|338|RMB
CN|VAN|7968|2014|3|12456|6638|702|300460|299259|0|433|RMB
CN|VAN|7968|2014|4|11215|2|743|277375|277375|0|449|RMB
CN|VAN|7968|2013|5|13513|39727|803|301560|289130|0|560|RMB
CN|VAN|7968|2013|6|14644|50696|807|303060|295760|0|624|RMB
CN|VAN|7968|2013|7|11936|43434|587|234370|234370|0|506|RMB
CN|VAN|7968|2013|8|10087|44708|427|187835|187835|0|366|RMB
CN|VAN|7968|2013|9|13349|46181|543|270240|270140|0|358|RMB
CN|VAN|7968|2013|10|10687|35335|388|206895|204495|0|293|RMB
CN|VAN|7968|2013|11|8711|35154|285|162330|162330|0|208|RMB
CN|VAN|7968|2013|12|10404|34817|281|193975|192784|0|207|RMB
CN|VAN|7969|2014|1|0|0|169|92370|78148|0|141|RMB
CN|VAN|7969|2014|2|0|0|210|99755|87607|0|169|RMB
CN|VAN|7969|2014|3|0|0|246|101905|94090|0|193|RMB
CN|VAN|7969|2014|4|0|0|319|132350|121647|0|252|RMB
CN|VAN|7969|2013|5|0|0|444|162805|139769|0|339|RMB
CN|VAN|7969|2013|6|0|0|368|131070|120976|0|291|RMB
CN|VAN|7969|2013|7|0|0|249|91905|86721|0|213|RMB
CN|VAN|7969|2013|8|0|0|209|83715|81598|0|178|RMB
CN|VAN|7969|2013|9|0|0|293|134960|123634|0|241|RMB
CN|VAN|7969|2013|10|0|0|235|124045|106353|0|179|RMB
CN|VAN|7969|2013|11|0|0|130|72870|64576|0|123|RMB
CN|VAN|7969|2013|12|0|0|143|83045|76207|0|140|RMB
CN|VAN|7970|2014|1|0|0|153|84080|67810|0|127|RMB
CN|VAN|7970|2014|2|0|0|205|97650|81975|0|154|RMB
CN|VAN|7970|2014|3|0|0|256|105660|85576|0|213|RMB
CN|VAN|7970|2014|4|0|0|250|109135|90386|0|221|RMB
CN|VAN|7970|2013|5|0|0|439|169690|145109|0|367|RMB
CN|VAN|7970|2013|6|0|0|359|134940|116773|0|342|RMB
CN|VAN|7970|2013|7|0|0|290|107045|96135|0|232|RMB
CN|VAN|7970|2013|8|0|0|231|91705|84814|0|223|RMB
CN|VAN|7970|2013|9|0|0|301|146775|110921|0|265|RMB
CN|VAN|7970|2013|10|0|0|305|157280|116470|0|269|RMB
CN|VAN|7970|2013|11|0|0|121|69360|59417|0|132|RMB
CN|VAN|7970|2013|12|0|0|113|72495|64266|0|107|RMB
CN|VAN|7971|2014|1|7947|80138|363|222770|203418|0|233|RMB
CN|VAN|7971|2014|2|7504|73511|461|228885|207893|0|278|RMB
CN|VAN|7971|2014|3|9336|88047|520|229625|229625|0|300|RMB
CN|VAN|7971|2014|4|8454|67395|668|245680|245680|0|417|RMB
CN|VAN|7971|2013|5|0|0|526|191630|180570|0|378|RMB
CN|VAN|7971|2013|6|0|0|458|164970|164970|0|383|RMB
CN|VAN|7971|2013|7|0|0|441|156930|156930|0|377|RMB
CN|VAN|7971|2013|8|0|0|405|155790|155790|0|348|RMB
CN|VAN|7971|2013|9|7837|65799|448|202955|199155|0|368|RMB
CN|VAN|7971|2013|10|6780|58640|295|154085|152785|0|255|RMB
CN|VAN|7971|2013|11|5273|63679|182|111670|111670|0|157|RMB
CN|VAN|7971|2013|12|7778|108871|253|170515|169550|0|201|RMB
CN|VAN|7972|2014|1|0|0|94|39915|36619|0|56|RMB
CN|VAN|7972|2014|2|0|0|96|45520|40202|0|55|RMB
CN|VAN|7972|2014|3|0|0|137|53940|51725|0|95|RMB
CN|VAN|7972|2014|4|0|0|156|52080|51431|0|105|RMB
CN|VAN|7972|2013|5|0|0|295|120225|60039|0|259|RMB
CN|VAN|7972|2013|6|0|0|375|156545|75001|0|344|RMB
CN|VAN|7972|2013|7|0|0|105|43310|19973|0|125|RMB
CN|VAN|7972|2013|11|0|0|108|48860|46420|0|50|RMB
CN|VAN|7972|2013|12|0|0|98|56070|50598|0|68|RMB
CN|VAN|7973|2014|1|0|0|314|197150|90964|0|173|RMB
CN|VAN|7973|2014|2|0|0|296|167225|82026|0|164|RMB
CN|VAN|7973|2014|3|0|0|524|280500|135991|0|271|RMB
CN|VAN|7973|2014|4|0|0|485|237430|112232|0|244|RMB
CN|VAN|7973|2013|5|0|0|514|223700|119455|0|281|RMB
CN|VAN|7973|2013|6|0|0|568|248175|121697|0|299|RMB
CN|VAN|7973|2013|7|0|0|417|189455|93930|0|277|RMB
CN|VAN|7973|2013|8|0|0|529|252405|110454|0|354|RMB
CN|VAN|7973|2013|9|0|0|609|302800|134028|0|359|RMB
CN|VAN|7973|2013|10|0|0|373|194700|97598|0|224|RMB
CN|VAN|7973|2013|11|0|0|303|173255|92749|0|168|RMB
CN|VAN|7973|2013|12|0|0|262|163895|84686|0|162|RMB
CN|VAN|7974|2014|1|23887|70506|952|488375|470273|0|634|RMB
CN|VAN|7974|2014|2|28791|72991|1421|599895|553899|0|930|RMB
CN|VAN|7974|2014|3|33991|86686|1747|721080|709273|0|1273|RMB
CN|VAN|7974|2014|4|37821|86006|2120|783075|767894|0|1540|RMB
CN|VAN|7974|2013|5|26025|63220|1476|504525|490555|0|1063|RMB
CN|VAN|7974|2013|6|27600|72900|1451|561980|561980|0|1224|RMB
CN|VAN|7974|2013|7|24740|64521|1262|491785|491785|0|1050|RMB
CN|VAN|7974|2013|8|25380|68212|1180|503625|503625|0|940|RMB
CN|VAN|7974|2013|9|33079|82770|1134|579300|579115|0|921|RMB
CN|VAN|7974|2013|10|26011|62769|898|535160|535160|0|749|RMB
CN|VAN|7974|2013|11|22360|65023|650|438475|435145|0|535|RMB
CN|VAN|7974|2013|12|28931|83109|839|568965|567058|0|648|RMB
CN|VAN|7975|2014|1|0|0|130|77285|47437|0|98|RMB
CN|VAN|7975|2014|2|0|0|214|99985|60710|0|121|RMB
CN|VAN|7975|2014|3|0|0|265|136305|81339|0|184|RMB
CN|VAN|7975|2014|4|0|0|209|101795|66269|0|135|RMB
CN|VAN|7975|2013|5|0|0|315|151835|80015|0|274|RMB
CN|VAN|7975|2013|6|0|0|351|158855|87249|0|293|RMB
CN|VAN|7975|2013|7|0|0|282|131855|72904|0|235|RMB
CN|VAN|7975|2013|8|0|0|274|119330|64865|0|193|RMB
CN|VAN|7975|2013|9|0|0|430|207390|110193|0|304|RMB
CN|VAN|7975|2013|10|0|0|231|113120|64915|0|173|RMB
CN|VAN|7975|2013|11|0|0|144|76285|49589|0|113|RMB
CN|VAN|7975|2013|12|0|0|121|70615|43968|0|100|RMB
CN|VAN|7977|2014|1|0|0|461|258535|107025|0|264|RMB
CN|VAN|7977|2014|2|0|0|417|234225|104935|0|240|RMB
CN|VAN|7977|2014|3|0|0|939|465495|229937|0|593|RMB
CN|VAN|7977|2014|4|0|0|1009|470735|239199|0|682|RMB
CN|VAN|7977|2013|5|0|0|883|397318|178416|0|900|RMB
CN|VAN|7977|2013|6|0|0|696|316245|137172|0|630|RMB
CN|VAN|7977|2013|7|0|0|577|245440|116622|0|500|RMB
CN|VAN|7977|2013|8|0|0|591|261600|116227|0|500|RMB
CN|VAN|7977|2013|9|0|0|806|405605|189875|0|647|RMB
CN|VAN|7977|2013|10|0|0|604|328365|153642|0|504|RMB
CN|VAN|7977|2013|11|0|0|325|178405|88578|0|313|RMB
CN|VAN|7977|2013|12|0|0|372|213200|110112|0|308|RMB
CN|VAN|7978|2014|1|0|0|204|120545|112959|0|164|RMB
CN|VAN|7978|2014|2|0|0|240|116910|107387|0|163|RMB
CN|VAN|7978|2014|3|0|0|264|113480|107468|0|140|RMB
CN|VAN|7978|2014|4|0|0|267|111270|105497|0|141|RMB
CN|VAN|7978|2013|5|0|0|351|113230|109227|0|197|RMB
CN|VAN|7978|2013|6|0|0|294|113855|110209|0|215|RMB
CN|VAN|7978|2013|7|0|0|276|111545|109827|0|226|RMB
CN|VAN|7978|2013|8|0|0|269|108480|107986|0|213|RMB
CN|VAN|7978|2013|9|0|0|283|139615|135173|0|244|RMB
CN|VAN|7978|2013|10|0|0|255|129335|121573|0|183|RMB
CN|VAN|7978|2013|11|0|0|112|57965|55033|0|87|RMB
CN|VAN|7978|2013|12|0|0|123|77180|74941|0|101|RMB
CN|VAN|7979|2014|1|16836|62506|493|278030|257633|0|407|RMB
CN|VAN|7979|2014|2|19104|64107|834|388910|364567|0|626|RMB
CN|VAN|7979|2014|3|16867|59258|1079|455775|441876|0|775|RMB
CN|VAN|7979|2014|4|17612|51741|1298|437155|437155|0|811|RMB
CN|VAN|7979|2013|5|0|0|1102|434315|434315|0|816|RMB
CN|VAN|7979|2013|6|0|0|1094|432175|432175|0|876|RMB
CN|VAN|7979|2013|7|0|0|924|354400|354400|0|753|RMB
CN|VAN|7979|2013|8|0|0|995|396340|396340|0|795|RMB
CN|VAN|7979|2013|9|22747|63359|841|400750|400750|0|747|RMB
CN|VAN|7979|2013|10|20422|75949|772|402305|402305|0|678|RMB
CN|VAN|7979|2013|11|15220|55006|440|242785|242785|0|384|RMB
CN|VAN|7979|2013|12|19090|68814|495|303865|299755|0|423|RMB
CN|VAN|7980|2014|1|0|0|392|233030|193952|0|242|RMB
CN|VAN|7980|2014|2|0|0|480|259785|202598|0|235|RMB
CN|VAN|7980|2014|3|0|0|539|256940|214097|0|369|RMB
CN|VAN|7980|2014|4|0|0|593|253310|215086|0|311|RMB
CN|VAN|7980|2013|5|0|0|394|165495|143774|0|359|RMB
CN|VAN|7980|2013|6|0|0|407|176770|145689|0|380|RMB
CN|VAN|7980|2013|7|0|0|495|213915|170908|0|464|RMB
CN|VAN|7980|2013|8|0|0|461|199735|166663|0|393|RMB
CN|VAN|7980|2013|9|0|0|504|257440|219228|0|417|RMB
CN|VAN|7980|2013|10|0|0|468|258265|218258|0|430|RMB
CN|VAN|7980|2013|11|0|0|255|146855|121497|0|231|RMB
CN|VAN|7980|2013|12|0|0|327|207085|169732|0|237|RMB
CN|VAN|7981|2014|1|0|0|185|105615|101470|0|114|RMB
CN|VAN|7981|2014|2|0|0|265|115050|111587|0|157|RMB
CN|VAN|7981|2014|3|0|0|569|210850|200113|0|373|RMB
CN|VAN|7981|2014|4|0|0|522|177510|171552|0|349|RMB
CN|VAN|7981|2013|8|0|0|228|92010|78223|0|131|RMB
CN|VAN|7981|2013|9|0|0|322|146430|146430|0|261|RMB
CN|VAN|7981|2013|10|0|0|220|112960|109010|0|187|RMB
CN|VAN|7981|2013|11|0|0|111|75070|75070|0|131|RMB
CN|VAN|7981|2013|12|0|0|184|137500|134225|0|159|RMB
CN|VAN|7982|2014|1|0|0|363|212980|110412|0|232|RMB
CN|VAN|7982|2014|2|0|0|421|223520|116513|0|268|RMB
CN|VAN|7982|2014|3|0|0|614|333630|178269|0|410|RMB
CN|VAN|7982|2014|4|0|0|700|346020|183652|0|413|RMB
CN|VAN|7982|2013|5|0|0|407|205885|79622|0|323|RMB
CN|VAN|7982|2013|6|0|0|874|427410|194751|0|744|RMB
CN|VAN|7982|2013|7|0|0|602|288670|142515|0|491|RMB
CN|VAN|7982|2013|8|0|0|672|331125|145113|0|530|RMB
CN|VAN|7982|2013|9|0|0|656|335590|164697|0|532|RMB
CN|VAN|7982|2013|10|0|0|510|259925|142203|0|414|RMB
CN|VAN|7982|2013|11|0|0|239|133120|77583|0|168|RMB
CN|VAN|7982|2013|12|0|0|427|262395|140270|0|291|RMB
CN|VAN|7983|2014|1|0|0|181|107040|101306|0|138|RMB
CN|VAN|7983|2014|2|0|0|238|116660|114926|0|185|RMB
CN|VAN|7983|2014|3|0|0|270|117375|112647|0|187|RMB
CN|VAN|7983|2014|4|0|0|338|123110|118366|0|190|RMB
CN|VAN|7983|2013|7|0|0|6|2260|2260|0|4|RMB
CN|VAN|7983|2013|8|0|0|276|103065|101945|0|164|RMB
CN|VAN|7983|2013|9|0|0|258|123285|123265|0|199|RMB
CN|VAN|7983|2013|10|0|0|259|109165|108744|0|163|RMB
CN|VAN|7983|2013|11|0|0|119|65500|65192|0|98|RMB
CN|VAN|7983|2013|12|0|0|179|120440|119064|0|135|RMB
CN|VAN|7985|2014|1|0|0|327|181435|156273|0|414|RMB
CN|VAN|7985|2014|2|0|0|656|308375|264367|0|785|RMB
CN|VAN|7985|2014|3|0|0|1358|604675|485340.84|0|1579|RMB
CN|VAN|7985|2014|4|0|0|3118|1399625|1015929.16|0|4026|RMB
CN|VAN|7985|2013|8|0|0|107|49615|38935|0|123|RMB
CN|VAN|7985|2013|9|0|0|346|170250|137919|0|422|RMB
CN|VAN|7985|2013|10|0|0|318|173640|133476|0|408|RMB
CN|VAN|7985|2013|11|0|0|154|85595|75183|0|196|RMB
CN|VAN|7985|2013|12|0|0|766|446880|309211.5|0|1434|RMB
CN|VAN|7986|2014|1|0|0|385|182535|172248|0|304|RMB
CN|VAN|7986|2014|2|0|0|435|185175|176255|0|325|RMB
CN|VAN|7986|2014|3|0|0|449|161020|152550|0|303|RMB
CN|VAN|7986|2014|4|0|0|565|206745|194217|0|399|RMB
CN|VAN|7986|2013|7|0|0|206|88830|86921|0|182|RMB
CN|VAN|7986|2013|8|0|0|272|121800|118992|0|251|RMB
CN|VAN|7986|2013|9|0|0|333|151465|148209|0|303|RMB
CN|VAN|7986|2013|10|0|0|274|129525|116491|0|232|RMB
CN|VAN|7986|2013|11|0|0|213|109335|106068|0|188|RMB
CN|VAN|7986|2013|12|0|0|337|167120|158640|0|289|RMB
CN|VAN|7987|2014|1|2483|5911|297|126785|119948|0|184|RMB
CN|VAN|7987|2014|2|7222|15104|331|129940|119147|0|190|RMB
CN|VAN|7987|2014|3|8393|17576|429|163330|161826|0|311|RMB
CN|VAN|7987|2014|4|8127|13458|570|182985|178712|0|358|RMB
CN|VAN|7987|2013|8|0|0|389|147720|147720|0|282|RMB
CN|VAN|7987|2013|9|0|0|441|183475|172995|0|295|RMB
CN|VAN|7987|2013|10|0|0|306|148780|136460|0|192|RMB
CN|VAN|7987|2013|11|0|0|168|101990|96060|0|129|RMB
CN|VAN|7987|2013|12|0|0|311|182650|171494|0|195|RMB
CN|VAN|7988|2014|1|4848|65336|341|172660|142299|0|165|RMB
CN|VAN|7988|2014|2|5530|76203|469|203915|167996|0|228|RMB
CN|VAN|7988|2014|3|6497|88419|615|267295|226693|0|285|RMB
CN|VAN|7988|2014|4|6698|78350|600|228045|196611|0|289|RMB
CN|VAN|7988|2013|9|0|0|18|9010|9010|0|16|RMB
CN|VAN|7988|2013|10|4921|50654|211|107885|100761|0|155|RMB
CN|VAN|7988|2013|11|4836|57409|232|129310|108507|0|152|RMB
CN|VAN|7988|2013|12|5494|76034|274|170585|145920|0|159|RMB
CN|VAN|7989|2014|1|7731|42038|208|96860|88855|0|164|RMB
CN|VAN|7989|2014|2|7628|31100|276|125565|118713|0|219|RMB
CN|VAN|7989|2014|3|5367|35173|296|115485|115485|0|237|RMB
CN|VAN|7989|2014|4|4781|35892|330|117690|117690|0|230|RMB
CN|VAN|7989|2013|9|0|0|88|42170|41220|0|70|RMB
CN|VAN|7989|2013|10|0|0|319|157255|150548|0|265|RMB
CN|VAN|7989|2013|11|4263|23504|132|72545|72545|0|110|RMB
CN|VAN|7989|2013|12|6594|41470|145|81600|80270|0|114|RMB
CN|VAN|7990|2014|1|6403|67751|232|115710|106008|0|148|RMB
CN|VAN|7990|2014|2|5812|64896|388|155375|145246|0|237|RMB
CN|VAN|7990|2014|3|6609|63329|371|149800|149800|0|271|RMB
CN|VAN|7990|2014|4|6048|47558|374|137820|137820|0|235|RMB
CN|VAN|7990|2013|9|0|0|279|124760|123840|0|221|RMB
CN|VAN|7990|2013|10|0|0|308|134750|123010|0|171|RMB
CN|VAN|7990|2013|11|925|0|169|102505|102505|0|155|RMB
CN|VAN|7990|2013|12|7342|50056|182|129340|129020|0|169|RMB
CN|VAN|7991|2014|1|0|0|223|144125|113022|0|177|RMB
CN|VAN|7991|2014|2|0|0|160|81405|72611|0|126|RMB
CN|VAN|7991|2014|3|0|0|255|101715|100538|0|180|RMB
CN|VAN|7991|2014|4|0|0|220|87675|86018|0|141|RMB
CN|VAN|7991|2013|10|0|0|128|64505|61615|0|93|RMB
CN|VAN|7991|2013|11|0|0|100|60785|57578|0|79|RMB
CN|VAN|7991|2013|12|0|0|114|81080|76957|0|91|RMB
CN|VAN|7992|2014|1|0|0|279|164285|100660|0|229|RMB
CN|VAN|7992|2014|2|0|0|339|197905|116633|0|259|RMB
CN|VAN|7992|2014|3|0|0|621|359605|205542|0|460|RMB
CN|VAN|7992|2014|4|0|0|520|263010|158634|0|347|RMB
CN|VAN|7992|2013|9|0|0|449|233200|130938|0|413|RMB
CN|VAN|7992|2013|10|0|0|471|258225|148951|0|454|RMB
CN|VAN|7992|2013|11|0|0|285|165055|100966|0|256|RMB
CN|VAN|7992|2013|12|0|0|281|167140|103728|0|258|RMB
CN|VAN|7993|2014|1|3035|6326|365|224145|138686|0|88|RMB
CN|VAN|7993|2014|2|2536|5633|274|127515|86224|0|98|RMB
CN|VAN|7993|2014|3|3772|6495|491|218855|141107|0|242|RMB
CN|VAN|7993|2014|4|3860|5725|424|149900|106861|0|242|RMB
CN|VAN|7993|2013|9|0|0|221|84360|75989|0|146|RMB
CN|VAN|7993|2013|10|3802|8837|195|93085|87828|0|157|RMB
CN|VAN|7993|2013|11|4673|7338|145|78510|71988|0|121|RMB
CN|VAN|7993|2013|12|4709|8833|175|100770|89670|0|132|RMB
CN|VAN|7995|2014|1|0|0|242|128465|119888|0|151|RMB
CN|VAN|7995|2014|2|0|0|539|221615|202112|0|339|RMB
CN|VAN|7995|2014|3|0|0|592|225450|221840|0|344|RMB
CN|VAN|7995|2014|4|0|0|572|214675|207259|0|336|RMB
CN|VAN|7998|2014|2|0|0|1266|717700|414150|0|824|RMB
CN|VAN|7998|2014|3|0|0|2137|1110445|613012|0|1607|RMB
CN|VAN|7998|2014|4|0|0|2471|1202020|665935|0|2018|RMB
CN|VAN|7998|2013|12|0|0|390|222545|152132|0|385|RMB
CN|VAN|7999|2014|1|0|0|669|408990|220213|0|425|RMB
CN|VAN|7999|2014|2|0|0|594|333650|187305|0|386|RMB
CN|VAN|7999|2014|3|0|0|1010|501300|278611|0|775|RMB
CN|VAN|7999|2014|4|0|0|1038|490010|281137|0|649|RMB
CN|VAN|7999|2013|12|0|0|308|201555|114344|0|264|RMB
CN|VAN|9624|2013|6|0|0|934|490350|118917|0|1|RMB
CN|VAN|9625|2013|6|0|0|3663|1647990|295530|0|3|RMB
CN|VAN|9628|2014|2|0|0|437|274375|55000|0|1|RMB
CN|VAN|9628|2013|11|0|0|954|567240|119300|0|1|RMB
CN|VAN|9642|2013|6|0|0|313|141983|70145|0|46|RMB
