SYSTEM_CODE|BRAND_CODE|STORE_CODE|VIP_GRADE|VIP_GRADE_DESCRIPTION|FINANCIAL_YEAR|FINANCIAL_MONTH|SALES_QTY|CROSS_SALES_AMOUNT|OPS_SALES_AMOUNT|TAX_AMOUNT|NUMBER_OF_SALES_TRANSACTIONS|CURRENCY
HK|TBL|4201|AEVTBL|ALL TBL EMP VIP CENT|2014|1|70|80809|26408.2|0|17|HKD
HK|TBL|4201|STD|Normal Customer|2014|1|14048|12515522|6663729.3|0|7932|HKD
HK|TBL|4201|AEVTBL|ALL TBL EMP VIP CENT|2014|2|38|38190|13947.3|0|12|HKD
HK|TBL|4201|STD|Normal Customer|2014|2|12991|11266502|6152589.9|0|6914|HKD
HK|TBL|4201|AEVTBL|ALL TBL EMP VIP CENT|2014|3|116|94311|27971.8|0|25|HKD
HK|TBL|4201|STD|Normal Customer|2014|3|14814|11776608|6407383.3|0|7807|HKD
HK|TBL|4201|AEVTBL|ALL TBL EMP VIP CENT|2014|4|66|47360|10472.1|0|12|HKD
HK|TBL|4201|STD|Normal Customer|2014|4|13291|9896364|5326540|0|6287|HKD
HK|TBL|4201|STD|Normal Customer|2013|5|11171|8456761.2432|4306919.4264||6014|HKD
HK|TBL|4201|STD|Normal Customer|2013|6|14195|10706106.8144|5435477.256||7875|HKD
HK|TBL|4201|STD|Normal Customer|2013|7|12078|9205070.4825|4433624.8825||6526|HKD
HK|TBL|4201|STD|Normal Customer|2013|8|13362|9992185.05|4973641.86||7042|HKD
HK|TBL|4201|STD|Normal Customer|2013|9|13989|11123864.54|5634547.445||7451|HKD
HK|TBL|4201|STD|Normal Customer|2013|10|12611|10454619.8|5586205.8125||6925|HKD
HK|TBL|4201|AEVTBL|ALL TBL EMP VIP CENT|2013|11|61|48794|14667|0|24|HKD
HK|TBL|4201|STD|Normal Customer|2013|11|13195|10871751|5592681.5|0|6976|HKD
HK|TBL|4201|AEVTBL|ALL TBL EMP VIP CENT|2013|12|76|70959|18147.7|0|20|HKD
HK|TBL|4201|STD|Normal Customer|2013|12|22680|18690906|9544841.7|0|10983|HKD
HK|TBL|4202|AEVTBL|ALL TBL EMP VIP CENT|2014|1|97|134447|44087.8|0|23|HKD
HK|TBL|4202|HKVTBL|HK TBL VIP CENTER|2014|1|2093|2341558|1827477.5|0|1103|HKD
HK|TBL|4202|STD|Normal Customer|2014|1|1406|1262885|990252.1|0|1333|HKD
HK|TBL|4202|TWVTBL|TW TBL VIP CENTER|2014|1|2|900|765|0|1|HKD
HK|TBL|4202|AEVTBL|ALL TBL EMP VIP CENT|2014|2|181|215469|78087.5|0|27|HKD
HK|TBL|4202|HKVKPG|HK KPG VIP CENTER|2014|2|1|890|756.5|0|1|HKD
HK|TBL|4202|HKVTBL|HK TBL VIP CENTER|2014|2|1641|1651504|1434988.2|0|881|HKD
HK|TBL|4202|STD|Normal Customer|2014|2|773|555435|523157|0|751|HKD
HK|TBL|4202|AEVTBL|ALL TBL EMP VIP CENT|2014|3|70|62988|27939.7|0|22|HKD
HK|TBL|4202|HKVTBL|HK TBL VIP CENTER|2014|3|1403|1163347|954474.9|0|730|HKD
HK|TBL|4202|STD|Normal Customer|2014|3|655|439201|401137.5|0|551|HKD
HK|TBL|4202|AEVTBL|ALL TBL EMP VIP CENT|2014|4|54|49218|21110|0|13|HKD
HK|TBL|4202|HKVTBL|HK TBL VIP CENTER|2014|4|1244|977729|800206.9|0|658|HKD
HK|TBL|4202|STD|Normal Customer|2014|4|1254|940255|737052|0|785|HKD
HK|TBL|4202|STD|Normal Customer|2013|5|2336|1502462.1|1218259.5496||1154|HKD
HK|TBL|4202|STD|Normal Customer|2013|6|3237|2200964.0664|1624817.9||1743|HKD
HK|TBL|4202|STD|Normal Customer|2013|7|2577|1747822.0825|1248335.745||1506|HKD
HK|TBL|4202|STD|Normal Customer|2013|8|2225|1675733.7525|1311851.1025||1279|HKD
HK|TBL|4202|STD|Normal Customer|2013|9|2578|2042225.6725|1697747.24||1387|HKD
HK|TBL|4202|STD|Normal Customer|2013|10|2296|2055232.1875|1637125.8875||1218|HKD
HK|TBL|4202|AEVTBL|ALL TBL EMP VIP CENT|2013|11|44|52310|21986.2|0|16|HKD
HK|TBL|4202|HKVTBL|HK TBL VIP CENTER|2013|11|1512|1488666|1155466.5|0|711|HKD
HK|TBL|4202|STD|Normal Customer|2013|11|618|476712|401405.1|0|568|HKD
HK|TBL|4202|AEVTBL|ALL TBL EMP VIP CENT|2013|12|191|213880|72288.7|0|42|HKD
HK|TBL|4202|HKVTBL|HK TBL VIP CENTER|2013|12|2933|3404386|2397616.7|0|1418|HKD
HK|TBL|4202|STD|Normal Customer|2013|12|2063|1912914|1404481.1|0|1803|HKD
HK|TBL|4203|AEVTBL|ALL TBL EMP VIP CENT|2014|1|189|214279|75118.1|0|32|HKD
HK|TBL|4203|HKVTBL|HK TBL VIP CENTER|2014|1|1097|1286921|1041673.2|0|530|HKD
HK|TBL|4203|SGVTBL|SG TBL VIP CENTER|2014|1|3|3570|3372|0|3|HKD
HK|TBL|4203|STD|Normal Customer|2014|1|1452|1494120|1226979|0|1196|HKD
HK|TBL|4203|TWVTBL|TW TBL VIP CENTER|2014|1|2|2580|2193|0|1|HKD
HK|TBL|4203|AEVTBL|ALL TBL EMP VIP CENT|2014|2|71|82910|31040.9|0|18|HKD
HK|TBL|4203|HKVTBL|HK TBL VIP CENTER|2014|2|1346|1440891|1242753.4|0|629|HKD
HK|TBL|4203|MYVTBL|MY TBL VIP CENTER|2014|2|5|7850|6409|0|2|HKD
HK|TBL|4203|STD|Normal Customer|2014|2|942|835398|789822|0|761|HKD
HK|TBL|4203|TWVTBL|TW TBL VIP CENTER|2014|2|2|1480|1421|0|1|HKD
HK|TBL|4203|AEVTBL|ALL TBL EMP VIP CENT|2014|3|66|56029|24756.9|0|22|HKD
HK|TBL|4203|HKVTBL|HK TBL VIP CENTER|2014|3|969|955733|810383.6|0|487|HKD
HK|TBL|4203|STD|Normal Customer|2014|3|753|625857|596427.1|0|636|HKD
HK|TBL|4203|AEVTBL|ALL TBL EMP VIP CENT|2014|4|54|45618|19800.5|0|13|HKD
HK|TBL|4203|HKVTBL|HK TBL VIP CENTER|2014|4|986|827050|697886.3|0|443|HKD
HK|TBL|4203|SGVTBL|SG TBL VIP CENTER|2014|4|3|2630|2367|0|2|HKD
HK|TBL|4203|STD|Normal Customer|2014|4|1223|972603|814730.7|0|811|HKD
HK|TBL|4203|TWVTBL|TW TBL VIP CENTER|2014|4|4|2660|2066|0|1|HKD
HK|TBL|4203|STD|Normal Customer|2013|5|1795|1301482.2128|1085357.5992||1157|HKD
HK|TBL|4203|STD|Normal Customer|2013|6|2723|1959829.3608|1478440.0888||1509|HKD
HK|TBL|4203|STD|Normal Customer|2013|7|2291|1684906.3425|1285799.3225||1339|HKD
HK|TBL|4203|STD|Normal Customer|2013|8|2105|1629562.3525|1429713.2575||1162|HKD
HK|TBL|4203|STD|Normal Customer|2013|9|1917|1645575.79|1431671.45||1161|HKD
HK|TBL|4203|STD|Normal Customer|2013|10|2217|2152657.67|1787117.8375||1276|HKD
HK|TBL|4203|AEVTBL|ALL TBL EMP VIP CENT|2013|11|23|28449|11816.7|0|14|HKD
HK|TBL|4203|HKVTBL|HK TBL VIP CENTER|2013|11|1274|1531838|1210001.1|0|570|HKD
HK|TBL|4203|STD|Normal Customer|2013|11|693|541979|474956.5|0|641|HKD
HK|TBL|4203|AEVTBL|ALL TBL EMP VIP CENT|2013|12|273|336858|111469.7|0|50|HKD
HK|TBL|4203|HKVTBL|HK TBL VIP CENTER|2013|12|1988|2523267|1776327.6|0|851|HKD
HK|TBL|4203|STD|Normal Customer|2013|12|2588|2807884|2080911.5|0|2020|HKD
HK|TBL|4204|AEVTBL|ALL TBL EMP VIP CENT|2014|1|117|138246|53737|0|18|HKD
HK|TBL|4204|HKVTBL|HK TBL VIP CENTER|2014|1|1808|2298856|1646298.6|0|737|HKD
HK|TBL|4204|STD|Normal Customer|2014|1|1308|1243211|1015926.7|0|1118|HKD
HK|TBL|4204|AEVTBL|ALL TBL EMP VIP CENT|2014|2|15|15910|7005.7|0|7|HKD
HK|TBL|4204|HKVTBL|HK TBL VIP CENTER|2014|2|1935|2004277|1670193.9|0|738|HKD
HK|TBL|4204|SGVTBL|SG TBL VIP CENTER|2014|2|1|1490|1341|0|1|HKD
HK|TBL|4204|STD|Normal Customer|2014|2|832|637528|592989.3|0|732|HKD
HK|TBL|4204|TWVTBL|TW TBL VIP CENTER|2014|2|2|1680|1512|0|1|HKD
HK|TBL|4204|AEVTBL|ALL TBL EMP VIP CENT|2014|3|23|18769|8176.1|0|12|HKD
HK|TBL|4204|HKVTBL|HK TBL VIP CENTER|2014|3|1336|1187104|1014863.4|0|520|HKD
HK|TBL|4204|STD|Normal Customer|2014|3|773|602484|580444.5|0|671|HKD
HK|TBL|4204|AEVTBL|ALL TBL EMP VIP CENT|2014|4|40|20816|8758.9|0|15|HKD
HK|TBL|4204|HKVTBL|HK TBL VIP CENTER|2014|4|1228|934770|778564|0|442|HKD
HK|TBL|4204|STD|Normal Customer|2014|4|1001|736806|643103.5|0|748|HKD
HK|TBL|4204|STD|Normal Customer|2013|5|2564|1703009.9104|1440371.8568||1099|HKD
HK|TBL|4204|STD|Normal Customer|2013|6|3547|2355215.9496|1777746.7808||1497|HKD
HK|TBL|4204|STD|Normal Customer|2013|7|2896|1951467.2825|1457070.4475||1360|HKD
HK|TBL|4204|STD|Normal Customer|2013|8|2322|1799384.925|1536008.8475||1138|HKD
HK|TBL|4204|STD|Normal Customer|2013|9|2138|1746410.3425|1518498.73||1057|HKD
HK|TBL|4204|STD|Normal Customer|2013|10|2340|2263461.3575|1917094.715||1224|HKD
HK|TBL|4204|AEVTBL|ALL TBL EMP VIP CENT|2013|11|61|54390|21555.1|0|21|HKD
HK|TBL|4204|HKVTBL|HK TBL VIP CENTER|2013|11|1542|1753866|1377330.8|0|585|HKD
HK|TBL|4204|STD|Normal Customer|2013|11|691|568911|497010.4|0|604|HKD
HK|TBL|4204|AEVTBL|ALL TBL EMP VIP CENT|2013|12|52|56867|20374.7|0|15|HKD
HK|TBL|4204|HKVTBL|HK TBL VIP CENTER|2013|12|2661|3465929|2475393.9|0|1030|HKD
HK|TBL|4204|STD|Normal Customer|2013|12|2025|2024817|1508239.6|0|1512|HKD
HK|TBL|4205|AEVTBL|ALL TBL EMP VIP CENT|2014|1|356|389285|116894.6|0|41|HKD
HK|TBL|4205|HKVTBL|HK TBL VIP CENTER|2014|1|1932|2094728|1504223.9|0|886|HKD
HK|TBL|4205|STD|Normal Customer|2014|1|1180|947839|709278.9|0|1062|HKD
HK|TBL|4205|AEVTBL|ALL TBL EMP VIP CENT|2014|2|77|67219|28208.3|0|24|HKD
HK|TBL|4205|HKVTBL|HK TBL VIP CENTER|2014|2|1528|1476052|1201723.1|0|800|HKD
HK|TBL|4205|STD|Normal Customer|2014|2|748|543359|454293.7|0|714|HKD
HK|TBL|4205|AEVTBL|ALL TBL EMP VIP CENT|2014|3|48|55000|24750|0|21|HKD
HK|TBL|4205|HKVTBL|HK TBL VIP CENTER|2014|3|1524|1276892|1046678.2|0|767|HKD
HK|TBL|4205|STD|Normal Customer|2014|3|518|348939|309297|0|448|HKD
HK|TBL|4205|TWVTBL|TW TBL VIP CENTER|2014|3|2|2080|1768|0|1|HKD
HK|TBL|4205|AEVTBL|ALL TBL EMP VIP CENT|2014|4|104|85208|35446.6|0|32|HKD
HK|TBL|4205|HKVTBL|HK TBL VIP CENTER|2014|4|1540|1164552|919685.3|0|783|HKD
HK|TBL|4205|STD|Normal Customer|2014|4|1067|795812|596249.3|0|614|HKD
HK|TBL|4205|STD|Normal Customer|2013|5|2232|1515355.1848|1200864.8112||1140|HKD
HK|TBL|4205|STD|Normal Customer|2013|6|3506|2350666.8048|1636013.7952||1717|HKD
HK|TBL|4205|STD|Normal Customer|2013|7|2756|1931005.7325|1275198.2525||1447|HKD
HK|TBL|4205|STD|Normal Customer|2013|8|2019|1407731.3125|1068797.1525||1082|HKD
HK|TBL|4205|STD|Normal Customer|2013|9|2259|1728972.0675|1402344.365||1116|HKD
HK|TBL|4205|STD|Normal Customer|2013|10|2325|1935692.39|1464788.6725||1113|HKD
HK|TBL|4205|AEVTBL|ALL TBL EMP VIP CENT|2013|11|95|100518|41258.7|0|26|HKD
HK|TBL|4205|HKVTBL|HK TBL VIP CENTER|2013|11|1515|1475721|1122549.1|0|672|HKD
HK|TBL|4205|STD|Normal Customer|2013|11|518|387074|321820.5|0|494|HKD
HK|TBL|4205|AEVTBL|ALL TBL EMP VIP CENT|2013|12|782|824106|235203.5|0|81|HKD
HK|TBL|4205|HKVTBL|HK TBL VIP CENTER|2013|12|3088|3412510|2324846.8|0|1355|HKD
HK|TBL|4205|STD|Normal Customer|2013|12|1899|1584504|1139337.2|0|1679|HKD
HK|TBL|4205|TWVTBL|TW TBL VIP CENTER|2013|12|10|8300|5718.5|0|3|HKD
HK|TBL|4206|AEVTBL|ALL TBL EMP VIP CENT|2014|1|81|94947|27473.4|0|12|HKD
HK|TBL|4206|HKVTBL|HK TBL VIP CENTER|2014|1|1624|1617758|1123028|0|766|HKD
HK|TBL|4206|STD|Normal Customer|2014|1|961|784211|582441|0|867|HKD
HK|TBL|4206|AEVTBL|ALL TBL EMP VIP CENT|2014|2|84|85674|24421.9|0|10|HKD
HK|TBL|4206|HKVTBL|HK TBL VIP CENTER|2014|2|1294|1141503|928134.8|0|654|HKD
HK|TBL|4206|STD|Normal Customer|2014|2|582|371744|319216.6|0|516|HKD
HK|TBL|4206|AEVTBL|ALL TBL EMP VIP CENT|2014|3|12|14680|6606|0|9|HKD
HK|TBL|4206|HKVTBL|HK TBL VIP CENTER|2014|3|1401|1114915|886687.4|0|683|HKD
HK|TBL|4206|STD|Normal Customer|2014|3|383|245028|218729.9|0|339|HKD
HK|TBL|4206|AEVTBL|ALL TBL EMP VIP CENT|2014|4|48|45820|19208.8|0|12|HKD
HK|TBL|4206|HKVTBL|HK TBL VIP CENTER|2014|4|1078|788205|611512.8|0|530|HKD
HK|TBL|4206|STD|Normal Customer|2014|4|966|707981|515526.2|0|516|HKD
HK|TBL|4206|STD|Normal Customer|2013|5|975|628234.468|502506.56||454|HKD
HK|TBL|4206|STD|Normal Customer|2013|6|2677|1651753.0928|1187870.8464||1315|HKD
HK|TBL|4206|STD|Normal Customer|2013|7|2262|1466468.33|920530.8175||1178|HKD
HK|TBL|4206|STD|Normal Customer|2013|8|1835|1237735.0625|812882.0775||950|HKD
HK|TBL|4206|STD|Normal Customer|2013|9|1690|1155113.63|900713.6025||858|HKD
HK|TBL|4206|STD|Normal Customer|2013|10|1639|1369358.505|1057651.2575||854|HKD
HK|TBL|4206|AEVTBL|ALL TBL EMP VIP CENT|2013|11|59|51820|20069|0|13|HKD
HK|TBL|4206|HKVTBL|HK TBL VIP CENTER|2013|11|1235|1075232|805950.8|0|512|HKD
HK|TBL|4206|STD|Normal Customer|2013|11|481|312492|262197.2|0|410|HKD
HK|TBL|4206|AEVTBL|ALL TBL EMP VIP CENT|2013|12|147|147708|47155.7|0|22|HKD
HK|TBL|4206|HKVTBL|HK TBL VIP CENTER|2013|12|2304|2366704|1574429.9|0|1039|HKD
HK|TBL|4206|SGVTBL|SG TBL VIP CENTER|2013|12|2|1880|1387.8|0|1|HKD
HK|TBL|4206|STD|Normal Customer|2013|12|1303|1060016|762542.3|0|1147|HKD
HK|TBL|4207|AEVTBL|ALL TBL EMP VIP CENT|2014|1|157|174797|59759|0|34|HKD
HK|TBL|4207|HKVTBL|HK TBL VIP CENTER|2014|1|1908|2213562|1851057.4|0|1050|HKD
HK|TBL|4207|STD|Normal Customer|2014|1|1524|1276694|1036388|0|1377|HKD
HK|TBL|4207|AEVTBL|ALL TBL EMP VIP CENT|2014|2|56|68120|27202|0|18|HKD
HK|TBL|4207|HKVTBL|HK TBL VIP CENTER|2014|2|1562|1639102|1470360|0|861|HKD
HK|TBL|4207|SGVTBL|SG TBL VIP CENTER|2014|2|1|890|801|0|1|HKD
HK|TBL|4207|STD|Normal Customer|2014|2|890|658023|614462.5|0|841|HKD
HK|TBL|4207|AEVTBL|ALL TBL EMP VIP CENT|2014|3|70|73298|32984.1|0|26|HKD
HK|TBL|4207|HKVTBL|HK TBL VIP CENTER|2014|3|1084|960108|849893.3|0|600|HKD
HK|TBL|4207|SGVTBL|SG TBL VIP CENTER|2014|3|1|2190|1890|0|1|HKD
HK|TBL|4207|STD|Normal Customer|2014|3|741|513496|471204|0|651|HKD
HK|TBL|4207|AEVTBL|ALL TBL EMP VIP CENT|2014|4|35|32960|14832|0|12|HKD
HK|TBL|4207|HKVTBL|HK TBL VIP CENTER|2014|4|1072|878146|750118.2|0|529|HKD
HK|TBL|4207|STD|Normal Customer|2014|4|1068|815407|655064.4|0|779|HKD
HK|TBL|4207|STD|Normal Customer|2013|5|1730|1200859.9224|1036744.6912||987|HKD
HK|TBL|4207|STD|Normal Customer|2013|6|3054|2061772.0152|1579197.4032||1679|HKD
HK|TBL|4207|STD|Normal Customer|2013|7|2527|1696078.2|1209409.975||1379|HKD
HK|TBL|4207|STD|Normal Customer|2013|8|1963|1385759.52|1184504.8075||1176|HKD
HK|TBL|4207|STD|Normal Customer|2013|9|2198|1692089.9725|1493646.03||1291|HKD
HK|TBL|4207|STD|Normal Customer|2013|10|2254|2130231.805|1779814.78||1346|HKD
HK|TBL|4207|AEVTBL|ALL TBL EMP VIP CENT|2013|11|88|90567|38894.4|0|39|HKD
HK|TBL|4207|HKVTBL|HK TBL VIP CENTER|2013|11|1397|1449986|1223779.3|0|737|HKD
HK|TBL|4207|STD|Normal Customer|2013|11|778|560811|481460.8|0|737|HKD
HK|TBL|4207|AEVTBL|ALL TBL EMP VIP CENT|2013|12|123|157490|59396.2|0|47|HKD
HK|TBL|4207|HKVTBL|HK TBL VIP CENTER|2013|12|2376|2644833|2088518.8|0|1210|HKD
HK|TBL|4207|STD|Normal Customer|2013|12|2228|1957233|1461904.8|0|1958|HKD
HK|TBL|4207|TWVTBL|TW TBL VIP CENTER|2013|12|1|2490|1568.7|0|1|HKD
HK|TBL|4208|AEVTBL|ALL TBL EMP VIP CENT|2014|1|148|176196|58899.9|0|35|HKD
HK|TBL|4208|HKVTBL|HK TBL VIP CENTER|2014|1|946|937742|739881.8|0|391|HKD
HK|TBL|4208|STD|Normal Customer|2014|1|477|348978|280034.4|0|394|HKD
HK|TBL|4208|AEVTBL|ALL TBL EMP VIP CENT|2014|2|62|65383|27111.7|0|23|HKD
HK|TBL|4208|HKVTBL|HK TBL VIP CENTER|2014|2|884|839103|729245.2|0|376|HKD
HK|TBL|4208|SGVTBL|SG TBL VIP CENTER|2014|2|2|1670|1511|0|1|HKD
HK|TBL|4208|STD|Normal Customer|2014|2|314|185149|175635.1|0|267|HKD
HK|TBL|4208|TWVTBL|TW TBL VIP CENTER|2014|2|3|2970|2589|0|2|HKD
HK|TBL|4208|AEVTBL|ALL TBL EMP VIP CENT|2014|3|84|84899|37456.7|0|28|HKD
HK|TBL|4208|HKVTBL|HK TBL VIP CENTER|2014|3|727|634249|548132.7|0|325|HKD
HK|TBL|4212|AEVTBL|ALL TBL EMP VIP CENT|2014|2|67|80159|28017.5|0|16|HKD
HK|TBL|4212|HKVTBL|HK TBL VIP CENTER|2014|2|836|853944|673341.9|0|391|HKD
HK|TBL|4212|STD|Normal Customer|2014|2|323|228861|190096.2|0|321|HKD
HK|TBL|4212|AEVTBL|ALL TBL EMP VIP CENT|2014|3|48|52850|21818.3|0|14|HKD
HK|TBL|4212|HKVTBL|HK TBL VIP CENTER|2014|3|755|650579|501986.4|0|353|HKD
HK|TBL|4212|STD|Normal Customer|2014|3|403|271934|212215.1|0|255|HKD
HK|TBL|4212|AEVTBL|ALL TBL EMP VIP CENT|2014|4|76|61159|25490.8|0|15|HKD
HK|TBL|4212|HKVTBL|HK TBL VIP CENTER|2014|4|709|541291|412602.8|0|289|HKD
HK|TBL|4212|STD|Normal Customer|2014|4|685|509397|361106.4|0|314|HKD
HK|TBL|4212|STD|Normal Customer|2013|5|800|558470.2832|414943.5736||412|HKD
HK|TBL|4212|STD|Normal Customer|2013|6|1404|943847.7136|654190.1936||707|HKD
HK|TBL|4212|STD|Normal Customer|2013|7|1130|773268.7275|485749.7725||599|HKD
HK|TBL|4212|STD|Normal Customer|2013|8|906|666902.38|433879.255||473|HKD
HK|TBL|4212|STD|Normal Customer|2013|9|1023|848570.44|648270.45||535|HKD
HK|TBL|4212|STD|Normal Customer|2013|10|933|947886.7675|696960.91||482|HKD
HK|TBL|4212|AEVTBL|ALL TBL EMP VIP CENT|2013|11|60|66838|29243.6|0|20|HKD
HK|TBL|4212|HKVTBL|HK TBL VIP CENTER|2013|11|717|755271|550072.9|0|278|HKD
HK|TBL|4212|STD|Normal Customer|2013|11|388|385554|280330|0|258|HKD
HK|TBL|4212|AEVTBL|ALL TBL EMP VIP CENT|2013|12|96|101250|34536.9|0|18|HKD
HK|TBL|4212|HKVTBL|HK TBL VIP CENTER|2013|12|1442|1461330|998768.1|0|590|HKD
HK|TBL|4212|STD|Normal Customer|2013|12|976|902100|589938.3|0|776|HKD
HK|TBL|4213|AEVTBL|ALL TBL EMP VIP CENT|2014|1|174|212859|73413.5|0|32|HKD
HK|TBL|4213|HKVTBL|HK TBL VIP CENTER|2014|1|1273|1405214|1027848.6|0|513|HKD
HK|TBL|4213|STD|Normal Customer|2014|1|777|595796|491292.4|0|797|HKD
HK|TBL|4213|AEVTBL|ALL TBL EMP VIP CENT|2014|2|101|100455|39095.4|0|26|HKD
HK|TBL|4213|HKVTBL|HK TBL VIP CENTER|2014|2|930|957228|811850|0|445|HKD
HK|TBL|4213|STD|Normal Customer|2014|2|471|317190|299553.5|0|471|HKD
HK|TBL|4213|AEVTBL|ALL TBL EMP VIP CENT|2014|3|44|43200|18635.5|0|16|HKD
HK|TBL|4213|HKVTBL|HK TBL VIP CENTER|2014|3|1160|1000732|798017.5|0|438|HKD
HK|TBL|4213|STD|Normal Customer|2014|3|438|276211|242897.3|0|374|HKD
HK|TBL|4213|AEVTBL|ALL TBL EMP VIP CENT|2014|4|110|103897|43167|0|24|HKD
HK|TBL|4213|HKVTBL|HK TBL VIP CENTER|2014|4|994|742159|577620.5|0|350|HKD
HK|TBL|4213|STD|Normal Customer|2014|4|796|589383|457446.3|0|512|HKD
HK|TBL|4213|STD|Normal Customer|2013|5|1217|848588.2816|688708.4584||625|HKD
HK|TBL|4213|STD|Normal Customer|2013|6|2145|1430920.72|1029411.0256||1072|HKD
HK|TBL|4213|STD|Normal Customer|2013|7|1581|1096623.76|750918.9675||812|HKD
HK|TBL|4213|STD|Normal Customer|2013|8|1355|962801.72|735678.36||732|HKD
HK|TBL|4213|STD|Normal Customer|2013|9|1664|1308784.815|1071135.4825||795|HKD
HK|TBL|4213|STD|Normal Customer|2013|10|1631|1535594.8425|1206282.385||821|HKD
HK|TBL|4213|AEVTBL|ALL TBL EMP VIP CENT|2013|11|79|77098|33677.7|0|27|HKD
HK|TBL|4213|HKVTBL|HK TBL VIP CENTER|2013|11|851|907812|707951.4|0|340|HKD
HK|TBL|4213|STD|Normal Customer|2013|11|668|611284|474000.2|0|482|HKD
HK|TBL|4213|AEVTBL|ALL TBL EMP VIP CENT|2013|12|193|211651|73729.7|0|41|HKD
HK|TBL|4213|HKVTBL|HK TBL VIP CENTER|2013|12|2053|2293003|1619041.1|0|747|HKD
HK|TBL|4213|STD|Normal Customer|2013|12|1359|1227050|891190.5|0|1125|HKD
HK|TBL|4214|AEVTBL|ALL TBL EMP VIP CENT|2014|1|437|518790|158836.7|0|50|HKD
HK|TBL|4214|HKVTBL|HK TBL VIP CENTER|2014|1|785|976269|680679.1|0|380|HKD
HK|TBL|4214|STD|Normal Customer|2014|1|626|545040|391619.6|0|567|HKD
HK|TBL|4214|AEVTBL|ALL TBL EMP VIP CENT|2014|2|201|228007|83265.6|0|29|HKD
HK|TBL|4214|HKVTBL|HK TBL VIP CENTER|2014|2|813|864471|685197.7|0|408|HKD
HK|TBL|4214|STD|Normal Customer|2014|2|399|304046|244845.6|0|391|HKD
HK|TBL|4214|AEVTBL|ALL TBL EMP VIP CENT|2014|3|198|195405|85717.4|0|58|HKD
HK|TBL|4214|HKVTBL|HK TBL VIP CENTER|2014|3|733|652642|514259.5|0|394|HKD
HK|TBL|4214|STD|Normal Customer|2014|3|371|240457|199536.3|0|269|HKD
HK|TBL|4214|AEVTBL|ALL TBL EMP VIP CENT|2014|4|133|108564|42624.3|0|38|HKD
HK|TBL|4214|HKVTBL|HK TBL VIP CENTER|2014|4|805|624199|483013.1|0|400|HKD
HK|TBL|4214|STD|Normal Customer|2014|4|687|510982|379760.6|0|412|HKD
HK|TBL|4214|STD|Normal Customer|2013|5|999|645420.152|501502.7264||465|HKD
HK|TBL|4214|STD|Normal Customer|2013|6|1734|1174192.5272|793426.3992||861|HKD
HK|TBL|4214|STD|Normal Customer|2013|7|1372|934614.505|580089.9025||724|HKD
HK|TBL|4214|STD|Normal Customer|2013|8|1210|876965.2775|558387.655||644|HKD
HK|TBL|4214|STD|Normal Customer|2013|9|1100|892744.2775|672507.7225||568|HKD
HK|TBL|4214|STD|Normal Customer|2013|10|1195|1176882.76|873665.56||652|HKD
HK|TBL|4214|AEVTBL|ALL TBL EMP VIP CENT|2013|11|77|90312|40230.8|0|21|HKD
HK|TBL|4214|HKVTBL|HK TBL VIP CENTER|2013|11|734|952080|682942.5|0|337|HKD
HK|TBL|4214|STD|Normal Customer|2013|11|400|438155|336663.3|0|347|HKD
HK|TBL|4214|AEVTBL|ALL TBL EMP VIP CENT|2013|12|307|353121|110719.4|0|58|HKD
HK|TBL|4214|HKVTBL|HK TBL VIP CENTER|2013|12|1372|1703436|1087251.9|0|599|HKD
HK|TBL|4214|STD|Normal Customer|2013|12|1204|1234332|819844.5|0|1019|HKD
HK|TBL|4215|AEVTBL|ALL TBL EMP VIP CENT|2014|1|107|128437|49184.4|0|33|HKD
HK|TBL|4215|HKVTBL|HK TBL VIP CENTER|2014|1|1152|1270436|986316.3|0|590|HKD
HK|TBL|4215|STD|Normal Customer|2014|1|1004|831921|643239.2|0|988|HKD
HK|TBL|4215|AEVTBL|ALL TBL EMP VIP CENT|2014|2|69|78810|32712.4|0|26|HKD
HK|TBL|4215|HKVTBL|HK TBL VIP CENTER|2014|2|890|948895|837898.5|0|523|HKD
HK|TBL|4215|STD|Normal Customer|2014|2|675|495518|464396.7|0|642|HKD
HK|TBL|4215|AEVTBL|ALL TBL EMP VIP CENT|2014|3|42|52485|22538.5|0|16|HKD
HK|TBL|4215|HKVTBL|HK TBL VIP CENTER|2014|3|910|809853|686762.2|0|513|HKD
HK|TBL|4215|SGVTBL|SG TBL VIP CENTER|2014|3|3|4270|4056.5|0|3|HKD
HK|TBL|4215|STD|Normal Customer|2014|3|484|330564|295767.5|0|429|HKD
HK|TBL|4215|AEVTBL|ALL TBL EMP VIP CENT|2014|4|119|107071|44772|0|24|HKD
HK|TBL|4215|HKVTBL|HK TBL VIP CENTER|2014|4|712|564459|466915.3|0|405|HKD
HK|TBL|4215|STD|Normal Customer|2014|4|890|660447|501044.9|0|515|HKD
HK|TBL|4215|STD|Normal Customer|2013|5|1756|1144518.9856|955580.6008||957|HKD
HK|TBL|4215|STD|Normal Customer|2013|6|2526|1612763.2832|1250624.3368||1366|HKD
HK|TBL|4215|STD|Normal Customer|2013|7|1926|1290817.68|921633.72||1113|HKD
HK|TBL|4215|STD|Normal Customer|2013|8|1232|876634.275|716876.24||725|HKD
HK|TBL|4215|STD|Normal Customer|2013|9|1447|1137263.4425|966878.065||837|HKD
HK|TBL|4215|STD|Normal Customer|2013|10|1449|1275355.81|1069201.7025||928|HKD
HK|TBL|4215|AEVTBL|ALL TBL EMP VIP CENT|2013|11|24|27870|10313.9|0|12|HKD
HK|TBL|4215|HKVTBL|HK TBL VIP CENTER|2013|11|1004|959963|777461.2|0|454|HKD
HK|TBL|4215|STD|Normal Customer|2013|11|509|379005|329158|0|487|HKD
HK|TBL|4215|AEVTBL|ALL TBL EMP VIP CENT|2013|12|192|222589|69281.7|0|36|HKD
HK|TBL|4215|HKVTBL|HK TBL VIP CENTER|2013|12|1434|1579747|1171958.5|0|721|HKD
HK|TBL|4215|STD|Normal Customer|2013|12|1482|1297848|957527|0|1389|HKD
HK|TBL|4216|AEVTBL|ALL TBL EMP VIP CENT|2014|1|159|181470|58892.4|0|38|HKD
HK|TBL|4216|HKVTBL|HK TBL VIP CENTER|2014|1|713|748922|551204.9|0|362|HKD
HK|TBL|4216|HKVVAN|HK VAN VIP CENTER|2014|1|1|790|790|0|1|HKD
HK|TBL|4216|STD|Normal Customer|2014|1|753|625810|437711.2|0|696|HKD
HK|TBL|4216|AEVTBL|ALL TBL EMP VIP CENT|2014|2|83|94140|35443.1|0|24|HKD
HK|TBL|4216|HKVTBL|HK TBL VIP CENTER|2014|2|585|585561|463904.5|0|339|HKD
HK|TBL|4216|STD|Normal Customer|2014|2|536|434944|335260.9|0|503|HKD
HK|TBL|4216|AEVTBL|ALL TBL EMP VIP CENT|2014|3|86|69218|26174.8|0|26|HKD
HK|TBL|4216|HKVTBL|HK TBL VIP CENTER|2014|3|521|436027|341139.6|0|307|HKD
HK|TBL|4216|SGVTBL|SG TBL VIP CENTER|2014|3|1|1990|1691.5|0|1|HKD
HK|TBL|4216|STD|Normal Customer|2014|3|415|305516|235829.4|0|346|HKD
HK|TBL|4216|AEVTBL|ALL TBL EMP VIP CENT|2014|4|94|69435|28868.1|0|17|HKD
HK|TBL|4216|HKVTBL|HK TBL VIP CENTER|2014|4|548|412792|311944.3|0|269|HKD
HK|TBL|4216|STD|Normal Customer|2014|4|653|506706|370062.4|0|470|HKD
HK|TBL|4216|STD|Normal Customer|2013|5|832|609450.7672|442751.9992||490|HKD
HK|TBL|4216|STD|Normal Customer|2013|6|1144|752735.0544|508936.8064||669|HKD
HK|TBL|4216|STD|Normal Customer|2013|7|1101|756789.205|492310.6125||653|HKD
HK|TBL|4208|STD|Normal Customer|2014|3|331|230203|212534.2|0|271|HKD
HK|TBL|4208|AEVTBL|ALL TBL EMP VIP CENT|2014|4|25|17420|7405.4|0|11|HKD
HK|TBL|4208|HKVTBL|HK TBL VIP CENTER|2014|4|564|471606|399874.6|0|277|HKD
HK|TBL|4208|STD|Normal Customer|2014|4|684|543626|415419|0|411|HKD
HK|TBL|4208|STD|Normal Customer|2013|5|1049|721992.5728|576798.1616||471|HKD
HK|TBL|4208|STD|Normal Customer|2013|6|1419|964603.4632|694604.584||618|HKD
HK|TBL|4208|STD|Normal Customer|2013|7|1237|848660.1075|561356.6025||520|HKD
HK|TBL|4208|STD|Normal Customer|2013|8|953|688430.4075|539880.2675||443|HKD
HK|TBL|4208|STD|Normal Customer|2013|9|1187|918407.3175|755020.1125||554|HKD
HK|TBL|4208|STD|Normal Customer|2013|10|1270|1133909.8625|862961.4925||593|HKD
HK|TBL|4208|AEVTBL|ALL TBL EMP VIP CENT|2013|11|103|110996|43957|0|26|HKD
HK|TBL|4208|HKVTBL|HK TBL VIP CENTER|2013|11|794|806077|648570.5|0|314|HKD
HK|TBL|4208|STD|Normal Customer|2013|11|271|199496|172413.7|0|253|HKD
HK|TBL|4208|AEVTBL|ALL TBL EMP VIP CENT|2013|12|367|393200|124751.6|0|62|HKD
HK|TBL|4208|HKVTBL|HK TBL VIP CENTER|2013|12|1319|1450670|1096101.2|0|559|HKD
HK|TBL|4208|STD|Normal Customer|2013|12|813|644318|498018.2|0|705|HKD
HK|TBL|4209|AEVTBL|ALL TBL EMP VIP CENT|2014|1|46|47318|18789.7|0|12|HKD
HK|TBL|4209|HKVTBL|HK TBL VIP CENTER|2014|1|1705|1554821|1183026.1|0|702|HKD
HK|TBL|4209|STD|Normal Customer|2014|1|840|638150|479860.5|0|657|HKD
HK|TBL|4209|AEVTBL|ALL TBL EMP VIP CENT|2014|2|45|44860|13473.3|0|4|HKD
HK|TBL|4209|HKVTBL|HK TBL VIP CENTER|2014|2|1482|1249936|1043234.1|0|648|HKD
HK|TBL|4209|MYVTBL|MY TBL VIP CENTER|2014|2|1|1090|1090|0|1|HKD
HK|TBL|4209|STD|Normal Customer|2014|2|506|331325|282568.5|0|414|HKD
HK|TBL|4209|AEVTBL|ALL TBL EMP VIP CENT|2014|3|84|80100|35276.5|0|16|HKD
HK|TBL|4209|HKVTBL|HK TBL VIP CENTER|2014|3|787|577381|472719.7|0|375|HKD
HK|TBL|4209|SGVTBL|SG TBL VIP CENTER|2014|3|2|1180|869.5|0|1|HKD
HK|TBL|4209|STD|Normal Customer|2014|3|273|180133|132504|0|196|HKD
HK|TBL|4209|AEVTBL|ALL TBL EMP VIP CENT|2014|4|47|41590|17155.1|0|9|HKD
HK|TBL|4209|HKVTBL|HK TBL VIP CENTER|2014|4|1028|700311|548649.4|0|510|HKD
HK|TBL|4209|STD|Normal Customer|2014|4|668|514552|312721.4|0|306|HKD
HK|TBL|4209|STD|Normal Customer|2013|5|1110|682289.6968|567202.3008||565|HKD
HK|TBL|4209|STD|Normal Customer|2013|6|1981|1196202.1376|863680.9384||974|HKD
HK|TBL|4209|STD|Normal Customer|2013|7|1721|1064937.1875|713810.495||853|HKD
HK|TBL|4209|STD|Normal Customer|2013|8|1314|826863.93|605484.56||680|HKD
HK|TBL|4209|STD|Normal Customer|2013|9|1298|899286.6725|745101.12||637|HKD
HK|TBL|4209|STD|Normal Customer|2013|10|1990|1780092.85|1340445.5025||994|HKD
HK|TBL|4209|AEVTBL|ALL TBL EMP VIP CENT|2013|11|25|25739|10780.7|0|9|HKD
HK|TBL|4209|HKVTBL|HK TBL VIP CENTER|2013|11|998|910159|722728.6|0|422|HKD
HK|TBL|4209|STD|Normal Customer|2013|11|396|253135|222725.8|0|334|HKD
HK|TBL|4209|AEVTBL|ALL TBL EMP VIP CENT|2013|12|50|54020|17283.3|0|15|HKD
HK|TBL|4209|HKVTBL|HK TBL VIP CENTER|2013|12|2331|2239796|1595026.7|0|940|HKD
HK|TBL|4209|STD|Normal Customer|2013|12|1143|867512|641823.7|0|919|HKD
HK|TBL|4210|AEVTBL|ALL TBL EMP VIP CENT|2014|1|360|348862|106538.1|0|41|HKD
HK|TBL|4210|HKVTBL|HK TBL VIP CENTER|2014|1|717|697179|509798.3|0|310|HKD
HK|TBL|4210|SGVTBL|SG TBL VIP CENTER|2014|1|1|1190|1071|0|1|HKD
HK|TBL|4210|STD|Normal Customer|2014|1|585|469969|340788.9|0|457|HKD
HK|TBL|4210|AEVTBL|ALL TBL EMP VIP CENT|2014|2|88|84730|29175.5|0|18|HKD
HK|TBL|4210|HKVTBL|HK TBL VIP CENTER|2014|2|654|611010|497900.2|0|299|HKD
HK|TBL|4210|SGVTBL|SG TBL VIP CENTER|2014|2|2|3180|2544|0|1|HKD
HK|TBL|4210|STD|Normal Customer|2014|2|433|338450|263722.2|0|326|HKD
HK|TBL|4210|TWVTBL|TW TBL VIP CENTER|2014|2|2|1040|700|0|1|HKD
HK|TBL|4210|AEVTBL|ALL TBL EMP VIP CENT|2014|3|88|74160|32154.3|0|21|HKD
HK|TBL|4210|HKVTBL|HK TBL VIP CENTER|2014|3|545|446906|361103.8|0|276|HKD
HK|TBL|4210|STD|Normal Customer|2014|3|312|208734|168974|0|219|HKD
HK|TBL|4210|AEVTBL|ALL TBL EMP VIP CENT|2014|4|56|47462|19604.5|0|12|HKD
HK|TBL|4210|HKVTBL|HK TBL VIP CENTER|2014|4|352|275968|219512.1|0|181|HKD
HK|TBL|4210|SGVTBL|SG TBL VIP CENTER|2014|4|1|1190|1011.5|0|1|HKD
HK|TBL|4210|STD|Normal Customer|2014|4|445|352172|264317.5|0|262|HKD
HK|TBL|4210|STD|Normal Customer|2013|5|662|471686.6336|381193.5488||354|HKD
HK|TBL|4210|STD|Normal Customer|2013|6|1415|913089.9448|657748.6968||652|HKD
HK|TBL|4210|STD|Normal Customer|2013|7|1220|801476.325|514607.6725||588|HKD
HK|TBL|4210|STD|Normal Customer|2013|8|994|671270.9|452202.5025||455|HKD
HK|TBL|4210|STD|Normal Customer|2013|9|824|631591.2875|475041.1325||381|HKD
HK|TBL|4210|STD|Normal Customer|2013|10|945|779638.375|600144.1125||407|HKD
HK|TBL|4210|AEVTBL|ALL TBL EMP VIP CENT|2013|11|50|40736|16458|0|15|HKD
HK|TBL|4210|HKVTBL|HK TBL VIP CENTER|2013|11|469|408199|321918.5|0|197|HKD
HK|TBL|4210|STD|Normal Customer|2013|11|351|271198|221548.9|0|251|HKD
HK|TBL|4210|AEVTBL|ALL TBL EMP VIP CENT|2013|12|367|337431|101226.8|0|44|HKD
HK|TBL|4210|HKVTBL|HK TBL VIP CENTER|2013|12|1111|1051158|736332.3|0|447|HKD
HK|TBL|4210|STD|Normal Customer|2013|12|831|700134|493094.5|0|653|HKD
HK|TBL|4211|AEVTBL|ALL TBL EMP VIP CENT|2014|1|119|140257|46551.5|0|29|HKD
HK|TBL|4211|HKVTBL|HK TBL VIP CENTER|2014|1|695|812728|546904|0|301|HKD
HK|TBL|4211|STD|Normal Customer|2014|1|549|477622|327868.7|0|433|HKD
HK|TBL|4211|AEVTBL|ALL TBL EMP VIP CENT|2014|2|128|144983|59966.2|0|33|HKD
HK|TBL|4211|HKVTBL|HK TBL VIP CENTER|2014|2|579|585921|459921.2|0|266|HKD
HK|TBL|4211|STD|Normal Customer|2014|2|337|262276|210245.9|0|288|HKD
HK|TBL|4211|TWVTBL|TW TBL VIP CENTER|2014|2|1|990|841.5|0|1|HKD
HK|TBL|4211|AEVTBL|ALL TBL EMP VIP CENT|2014|3|45|57190|25240.1|0|18|HKD
HK|TBL|4211|HKVTBL|HK TBL VIP CENTER|2014|3|498|470201|365164.9|0|236|HKD
HK|TBL|4211|STD|Normal Customer|2014|3|286|220297|168056.7|0|171|HKD
HK|TBL|4211|AEVTBL|ALL TBL EMP VIP CENT|2014|4|42|40730|18224.8|0|16|HKD
HK|TBL|4211|HKVTBL|HK TBL VIP CENTER|2014|4|419|326393|253215|0|199|HKD
HK|TBL|4211|STD|Normal Customer|2014|4|752|589421|413088.5|0|292|HKD
HK|TBL|4211|STD|Normal Customer|2013|5|913|611084.7904|470690.7928||441|HKD
HK|TBL|4211|STD|Normal Customer|2013|6|1368|883225.5848|624030.7984||700|HKD
HK|TBL|4211|STD|Normal Customer|2013|7|1035|672382.7925|442150.2875||567|HKD
HK|TBL|4211|STD|Normal Customer|2013|8|885|635448.85|433184.3125||482|HKD
HK|TBL|4211|STD|Normal Customer|2013|9|992|753224.1275|553542.7425||510|HKD
HK|TBL|4211|STD|Normal Customer|2013|10|937|876012.0275|649309.26||445|HKD
HK|TBL|4211|AEVTBL|ALL TBL EMP VIP CENT|2013|11|70|77769|34341.9|0|28|HKD
HK|TBL|4211|HKVTBL|HK TBL VIP CENTER|2013|11|693|752900|540404.6|0|259|HKD
HK|TBL|4211|STD|Normal Customer|2013|11|222|157866|134538|0|199|HKD
HK|TBL|4211|AEVTBL|ALL TBL EMP VIP CENT|2013|12|131|155359|54621.2|0|38|HKD
HK|TBL|4211|HKVTBL|HK TBL VIP CENTER|2013|12|1199|1359029|913357.3|0|494|HKD
HK|TBL|4211|HKVVAN|HK VAN VIP CENTER|2013|12|3|1050|916.5|0|1|HKD
HK|TBL|4211|STD|Normal Customer|2013|12|866|854824|542841|0|569|HKD
HK|TBL|4212|AEVTBL|ALL TBL EMP VIP CENT|2014|1|76|76643|28295.4|0|15|HKD
HK|TBL|4212|HKVTBL|HK TBL VIP CENTER|2014|1|882|918565|651699.6|0|383|HKD
HK|TBL|4212|STD|Normal Customer|2014|1|651|635083|419727|0|533|HKD
HK|TBL|4216|STD|Normal Customer|2013|8|1132|794096.0775|503138.4475||635|HKD
HK|TBL|4216|STD|Normal Customer|2013|9|1087|852165.975|616760.1125||631|HKD
HK|TBL|4216|STD|Normal Customer|2013|10|1072|956562.2725|704373.0875||671|HKD
HK|TBL|4216|AEVTBL|ALL TBL EMP VIP CENT|2013|11|184|190246|77828.5|0|49|HKD
HK|TBL|4216|HKVTBL|HK TBL VIP CENTER|2013|11|482|518571|405854.5|0|260|HKD
HK|TBL|4216|STD|Normal Customer|2013|11|378|297784|235433.2|0|385|HKD
HK|TBL|4216|AEVTBL|ALL TBL EMP VIP CENT|2013|12|382|402977|114023.2|0|61|HKD
HK|TBL|4216|HKVTBL|HK TBL VIP CENTER|2013|12|1093|1196438|820765.8|0|540|HKD
HK|TBL|4216|STD|Normal Customer|2013|12|920|806428|578316.3|0|893|HKD
HK|TBL|4217|AEVTBL|ALL TBL EMP VIP CENT|2014|1|92|104189|34516.8|0|24|HKD
HK|TBL|4217|HKVTBL|HK TBL VIP CENTER|2014|1|1164|1268706|901233.5|0|503|HKD
HK|TBL|4217|STD|Normal Customer|2014|1|630|500484|400332.9|0|615|HKD
HK|TBL|4217|AEVTBL|ALL TBL EMP VIP CENT|2014|2|25|31157|12146.8|0|8|HKD
HK|TBL|4217|HKVTBL|HK TBL VIP CENTER|2014|2|957|907519|769170.7|0|458|HKD
HK|TBL|4217|STD|Normal Customer|2014|2|448|295581|273889.4|0|409|HKD
HK|TBL|4217|AEVTBL|ALL TBL EMP VIP CENT|2014|3|33|32225|14231.5|0|15|HKD
HK|TBL|4217|HKVTBL|HK TBL VIP CENTER|2014|3|807|694434|580669.3|0|417|HKD
HK|TBL|4217|STD|Normal Customer|2014|3|321|186050|169186.5|0|273|HKD
HK|TBL|4217|AEVTBL|ALL TBL EMP VIP CENT|2014|4|67|59732|25342.2|0|18|HKD
HK|TBL|4217|HKVTBL|HK TBL VIP CENTER|2014|4|646|529399|419804.5|0|348|HKD
HK|TBL|4217|STD|Normal Customer|2014|4|659|528979|395928|0|393|HKD
HK|TBL|4217|STD|Normal Customer|2013|8|910|680399.625|535725.57||517|HKD
HK|TBL|4217|STD|Normal Customer|2013|9|1100|884948.785|720427.6||585|HKD
HK|TBL|4217|STD|Normal Customer|2013|10|1071|1016629.7325|802235.7475||608|HKD
HK|TBL|4217|AEVTBL|ALL TBL EMP VIP CENT|2013|11|41|44192|17869|0|20|HKD
HK|TBL|4217|HKVTBL|HK TBL VIP CENTER|2013|11|781|850465|657154.9|0|376|HKD
HK|TBL|4217|STD|Normal Customer|2013|11|303|222187|195660.4|0|316|HKD
HK|TBL|4217|AEVTBL|ALL TBL EMP VIP CENT|2013|12|156|195696|57207.7|0|30|HKD
HK|TBL|4217|HKVTBL|HK TBL VIP CENTER|2013|12|1567|1784759|1227280.6|0|721|HKD
HK|TBL|4217|STD|Normal Customer|2013|12|961|787771|590136.2|0|867|HKD
HK|TBL|4218|HKVTBL|HK TBL VIP CENTER|2014|1|1404|1765635|1284217.9|0|638|HKD
HK|TBL|4218|STD|Normal Customer|2014|1|1351|1382058|1076049.8|0|1081|HKD
HK|TBL|4218|TWVTBL|TW TBL VIP CENTER|2014|1|2|2180|1853|0|1|HKD
HK|TBL|4218|HKVTBL|HK TBL VIP CENTER|2014|2|1306|1370667|1133078.1|0|592|HKD
HK|TBL|4218|STD|Normal Customer|2014|2|894|758636|697746.5|0|772|HKD
HK|TBL|4218|HKVLEE|HK LEE VIP CENTER|2014|3|1|1290|1096.5|0|1|HKD
HK|TBL|4218|HKVTBL|HK TBL VIP CENTER|2014|3|1249|1062950|901847.2|0|516|HKD
HK|TBL|4218|SGVTBL|SG TBL VIP CENTER|2014|3|9|5110|4599|0|2|HKD
HK|TBL|4218|STD|Normal Customer|2014|3|726|578952|545400.1|0|618|HKD
HK|TBL|4218|TWVTBL|TW TBL VIP CENTER|2014|3|2|3180|2385|0|1|HKD
HK|TBL|4218|HKVTBL|HK TBL VIP CENTER|2014|4|1213|926915|762168|0|485|HKD
HK|TBL|4218|STD|Normal Customer|2014|4|1178|877394|733919|0|782|HKD
HK|TBL|4218|TWVTBL|TW TBL VIP CENTER|2014|4|1|450|382.5|0|1|HKD
HK|TBL|4218|STD|Normal Customer|2013|5|3819|2926697.7352|2054490.9624||2505|HKD
HK|TBL|4218|STD|Normal Customer|2013|6|3210|2216585.5672|1620902.6696||1799|HKD
HK|TBL|4218|STD|Normal Customer|2013|7|2232|1513774.5625|1103633.2475||1208|HKD
HK|TBL|4218|STD|Normal Customer|2013|8|1882|1476364.8475|1136301.3575||1091|HKD
HK|TBL|4218|STD|Normal Customer|2013|9|1905|1543873.16|1264873.47||1053|HKD
HK|TBL|4218|STD|Normal Customer|2013|10|1884|1838499.8725|1501188.33||1097|HKD
HK|TBL|4218|HKVTBL|HK TBL VIP CENTER|2013|11|1105|1226132|925073|0|428|HKD
HK|TBL|4218|STD|Normal Customer|2013|11|3004|3373028|2171456.6|0|2109|HKD
HK|TBL|4218|HKVTBL|HK TBL VIP CENTER|2013|12|2148|2596048|1805617.9|0|865|HKD
HK|TBL|4218|MYVTBL|MY TBL VIP CENTER|2013|12|3|1030|811|0|1|HKD
HK|TBL|4218|STD|Normal Customer|2013|12|2855|2949206|2065792.7|0|2156|HKD
