SYSTEM_CODE|BRAND_CODE|STORE_CODE|VISIT_YEAR|VISIT_MONTH|VISITOR_COUNT|OUTSIDE_TRAFFIC_COUNT|SALES_QTY|CROSS_SALES_AMOUNT|OPS_SALES_AMOUNT|TAX_AMOUNT|NUMBER_OF_SALES_TRANSACTIONS|CURRENCY
HK|TBL|4201|2014|1|155249|633420|14118|12596331|6690137.5|0|7949|HKD
HK|TBL|4201|2014|2|139503|657049|13029|11304692|6166537.2|0|6926|HKD
HK|TBL|4201|2014|3|146329|801840|14930|11870919|6435355.1|0|7832|HKD
HK|TBL|4201|2014|4|116335|615463|13357|9943724|5337012.1|0|6299|HKD
HK|TBL|4201|2013|5|0|0|11171|8456761.2432|4306919.4264||6014|HKD
HK|TBL|4201|2013|6|0|0|14195|10706106.8144|5435477.256||7875|HKD
HK|TBL|4201|2013|7|0|0|12078|9205070.4825|4433624.8825||6526|HKD
HK|TBL|4201|2013|8|0|0|13362|9992185.05|4973641.86||7042|HKD
HK|TBL|4201|2013|9|99886|530696|13989|11123864.54|5634547.445|0|7451|HKD
HK|TBL|4201|2013|10|133516|885490|12611|10454619.8|5586205.8125|0|6925|HKD
HK|TBL|4201|2013|11|125898|430716|13256|10920545|5607348.5|0|7000|HKD
HK|TBL|4201|2013|12|218412|778499|22756|18761865|9562989.4|0|11003|HKD
HK|TBL|4202|2014|1|58904|72528|3598|3739790|2862582.4|0|2460|HKD
HK|TBL|4202|2014|2|43428|65515|2596|2423298|2036989.2|0|1660|HKD
HK|TBL|4202|2014|3|30737|55104|2128|1665536|1383552.1|0|1303|HKD
HK|TBL|4202|2014|4|30945|44167|2552|1967202|1558368.9|0|1456|HKD
HK|TBL|4202|2013|5|0|0|2336|1502462.1|1218259.5496||1154|HKD
HK|TBL|4202|2013|6|0|0|3237|2200964.0664|1624817.9||1743|HKD
HK|TBL|4202|2013|7|0|0|2577|1747822.0825|1248335.745||1506|HKD
HK|TBL|4202|2013|8|11023|15638|2225|1675733.7525|1311851.1025|0|1279|HKD
HK|TBL|4202|2013|9|31341|44810|2578|2042225.6725|1697747.24|0|1387|HKD
HK|TBL|4202|2013|10|28615|52223|2296|2055232.1875|1637125.8875|0|1218|HKD
HK|TBL|4202|2013|11|29339|49775|2174|2017688|1578857.8|0|1295|HKD
HK|TBL|4202|2013|12|65034|76123|5187|5531180|3874386.5|0|3263|HKD
HK|TBL|4203|2014|1|37430|196455|2743|3001470|2349335.3|0|1762|HKD
HK|TBL|4203|2014|2|31775|207648|2366|2368529|2071446.3|0|1411|HKD
HK|TBL|4203|2014|3|21705|202721|1788|1637619|1431567.6|0|1145|HKD
HK|TBL|4203|2014|4|22320|180619|2270|1850561|1536850.5|0|1270|HKD
HK|TBL|4203|2013|5|0|0|1795|1301482.2128|1085357.5992||1157|HKD
HK|TBL|4203|2013|6|0|0|2723|1959829.3608|1478440.0888||1509|HKD
HK|TBL|4203|2013|7|0|0|2291|1684906.3425|1285799.3225||1339|HKD
HK|TBL|4203|2013|8|6688|48414|2105|1629562.3525|1429713.2575|0|1162|HKD
HK|TBL|4203|2013|9|25958|197147|1917|1645575.79|1431671.45|0|1161|HKD
HK|TBL|4203|2013|10|25432|171731|2217|2152657.67|1787117.8375|0|1276|HKD
HK|TBL|4203|2013|11|23535|172970|1990|2102266|1696774.3|0|1225|HKD
HK|TBL|4203|2013|12|51701|277099|4849|5668009|3968708.8|0|2921|HKD
HK|TBL|4204|2014|1|30906|119759|3233|3680313|2715962.3|0|1873|HKD
HK|TBL|4204|2014|2|25291|118308|2785|2660885|2273041.9|0|1479|HKD
HK|TBL|4204|2014|3|19172|122714|2132|1808357|1603484|0|1203|HKD
HK|TBL|4204|2014|4|17380|98973|2269|1692392|1430426.4|0|1205|HKD
HK|TBL|4204|2013|5|0|0|2564|1703009.9104|1440371.8568||1099|HKD
HK|TBL|4204|2013|6|0|0|3547|2355215.9496|1777746.7808||1497|HKD
HK|TBL|4204|2013|7|0|0|2896|1951467.2825|1457070.4475||1360|HKD
HK|TBL|4204|2013|8|6360|45750|2322|1799384.925|1536008.8475|0|1138|HKD
HK|TBL|4204|2013|9|16254|125417|2138|1746410.3425|1518498.73|0|1057|HKD
HK|TBL|4204|2013|10|18166|97650|2340|2263461.3575|1917094.715|0|1224|HKD
HK|TBL|4204|2013|11|16444|84149|2294|2377167|1895896.3|0|1210|HKD
HK|TBL|4204|2013|12|39401|147757|4738|5547613|4004008.2|0|2557|HKD
HK|TBL|4205|2014|1|37054|67948|3468|3431852|2330397.4|0|1989|HKD
HK|TBL|4205|2014|2|29465|69087|2353|2086630|1684225.1|0|1538|HKD
HK|TBL|4205|2014|3|20538|71615|2092|1682911|1382493.2|0|1237|HKD
HK|TBL|4205|2014|4|20826|54959|2711|2045572|1551381.2|0|1429|HKD
HK|TBL|4205|2013|5|0|0|2232|1515355.1848|1200864.8112||1140|HKD
HK|TBL|4205|2013|6|0|0|3506|2350666.8048|1636013.7952||1717|HKD
HK|TBL|4205|2013|7|0|0|2756|1931005.7325|1275198.2525||1447|HKD
HK|TBL|4205|2013|8|11727|25429|2019|1407731.3125|1068797.1525|0|1082|HKD
HK|TBL|4205|2013|9|18060|74719|2259|1728972.0675|1402344.365|0|1116|HKD
HK|TBL|4205|2013|10|18251|57731|2325|1935692.39|1464788.6725|0|1113|HKD
HK|TBL|4205|2013|11|19063|55209|2128|1963313|1485628.3|0|1192|HKD
HK|TBL|4205|2013|12|48991|85362|5779|5829420|3705106|0|3118|HKD
HK|TBL|4206|2014|1|42849|118125|2666|2496916|1732942.4|0|1645|HKD
HK|TBL|4206|2014|2|31601|124311|1960|1598921|1271773.3|0|1180|HKD
HK|TBL|4206|2014|3|25614|113727|1796|1374623|1112023.3|0|1031|HKD
HK|TBL|4206|2014|4|25483|107992|2092|1542006|1146247.8|0|1058|HKD
HK|TBL|4206|2013|5|0|0|975|628234.468|502506.56||454|HKD
HK|TBL|4206|2013|6|0|0|2677|1651753.0928|1187870.8464||1315|HKD
HK|TBL|4206|2013|7|0|0|2262|1466468.33|920530.8175||1178|HKD
HK|TBL|4206|2013|8|8577|96972|1835|1237735.0625|812882.0775|0|950|HKD
HK|TBL|4206|2013|9|29849|269288|1690|1155113.63|900713.6025|0|858|HKD
HK|TBL|4206|2013|10|22528|222376|1639|1369358.505|1057651.2575|0|854|HKD
HK|TBL|4206|2013|11|24498|123915|1775|1439544|1088217|0|935|HKD
HK|TBL|4206|2013|12|50686|133372|3756|3576308|2385515.7|0|2209|HKD
HK|TBL|4207|2014|1|62726|97031|3589|3665053|2947204.4|0|2461|HKD
HK|TBL|4207|2014|2|48115|94131|2509|2366135|2112825.5|0|1721|HKD
HK|TBL|4207|2014|3|34766|87890|1896|1549092|1355971.4|0|1278|HKD
HK|TBL|4207|2014|4|32133|88380|2175|1726513|1420014.6|0|1320|HKD
HK|TBL|4207|2013|5|0|0|1730|1200859.9224|1036744.6912||987|HKD
HK|TBL|4207|2013|6|0|0|3054|2061772.0152|1579197.4032||1679|HKD
HK|TBL|4207|2013|7|0|0|2527|1696078.2|1209409.975||1379|HKD
HK|TBL|4207|2013|8|37542|57020|1963|1385759.52|1184504.8075|0|1176|HKD
HK|TBL|4207|2013|9|41514|121461|2198|1692089.9725|1493646.03|0|1291|HKD
HK|TBL|4207|2013|10|39920|80711|2254|2130231.805|1779814.78|0|1346|HKD
HK|TBL|4207|2013|11|39670|77355|2263|2101364|1744134.5|0|1513|HKD
HK|TBL|4207|2013|12|73315|124375|4728|4762046|3611388.5|0|3216|HKD
HK|TBL|4208|2014|1|16231|72846|1571|1462916|1078816.1|0|820|HKD
HK|TBL|4208|2014|2|13828|70438|1265|1094275|936092|0|669|HKD
HK|TBL|4208|2014|3|12074|75042|1142|949351|798123.6|0|624|HKD
HK|TBL|4208|2014|4|13387|75945|1273|1032652|822699|0|699|HKD
HK|TBL|4208|2013|5|0|0|1049|721992.5728|576798.1616||471|HKD
HK|TBL|4208|2013|6|0|0|1419|964603.4632|694604.584||618|HKD
HK|TBL|4208|2013|7|0|0|1237|848660.1075|561356.6025||520|HKD
HK|TBL|4208|2013|8|0|0|953|688430.4075|539880.2675||443|HKD
HK|TBL|4208|2013|9|7426|79173|1187|918407.3175|755020.1125|0|554|HKD
HK|TBL|4208|2013|10|12067|71280|1270|1133909.8625|862961.4925|0|593|HKD
HK|TBL|4208|2013|11|11816|68559|1168|1116569|864941.2|0|593|HKD
HK|TBL|4208|2013|12|23930|104536|2499|2488188|1718871|0|1326|HKD
HK|TBL|4209|2014|1|45558|106840|2591|2240289|1681676.3|0|1371|HKD
HK|TBL|4209|2014|2|32592|137138|2034|1627211|1340365.9|0|1067|HKD
HK|TBL|4209|2014|3|6469|26971|1146|838794|641369.7|0|588|HKD
HK|TBL|4209|2014|4|19931|64971|1743|1256453|878525.9|0|825|HKD
HK|TBL|4209|2013|5|0|0|1110|682289.6968|567202.3008||565|HKD
HK|TBL|4209|2013|6|0|0|1981|1196202.1376|863680.9384||974|HKD
HK|TBL|4209|2013|7|0|0|1721|1064937.1875|713810.495||853|HKD
HK|TBL|4209|2013|8|0|0|1314|826863.93|605484.56||680|HKD
HK|TBL|4209|2013|9|19515|66166|1298|899286.6725|745101.12|0|637|HKD
HK|TBL|4209|2013|10|28687|113719|1990|1780092.85|1340445.5025|0|994|HKD
HK|TBL|4209|2013|11|24080|100559|1419|1189033|956235.1|0|765|HKD
HK|TBL|4209|2013|12|55016|150071|3524|3161328|2254133.7|0|1874|HKD
HK|TBL|4210|2014|1|20207|80503|1663|1517200|958196.3|0|809|HKD
HK|TBL|4210|2014|2|15802|71092|1179|1038410|794041.9|0|645|HKD
HK|TBL|4210|2014|3|12287|62381|945|729800|562232.1|0|516|HKD
HK|TBL|4210|2014|4|10260|53640|854|676792|504445.6|0|456|HKD
HK|TBL|4210|2013|5|0|0|662|471686.6336|381193.5488||354|HKD
HK|TBL|4210|2013|6|0|0|1415|913089.9448|657748.6968||652|HKD
HK|TBL|4210|2013|7|0|0|1220|801476.325|514607.6725||588|HKD
HK|TBL|4210|2013|8|0|0|994|671270.9|452202.5025||455|HKD
HK|TBL|4210|2013|9|8368|69499|824|631591.2875|475041.1325|0|381|HKD
HK|TBL|4210|2013|10|9900|69860|945|779638.375|600144.1125|0|407|HKD
HK|TBL|4210|2013|11|10093|68788|870|720133|559925.4|0|463|HKD
HK|TBL|4210|2013|12|24989|102535|2309|2088723|1330653.6|0|1144|HKD
HK|TBL|4211|2014|1|17379|215706|1363|1430607|921324.2|0|763|HKD
HK|TBL|4211|2014|2|13231|216429|1045|994170|730974.8|0|588|HKD
HK|TBL|4211|2014|3|9883|242766|829|747688|558461.7|0|425|HKD
HK|TBL|4211|2014|4|10295|205739|1213|956544|684528.3|0|507|HKD
HK|TBL|4211|2013|5|0|0|913|611084.7904|470690.7928||441|HKD
HK|TBL|4211|2013|6|0|0|1368|883225.5848|624030.7984||700|HKD
HK|TBL|4211|2013|7|0|0|1035|672382.7925|442150.2875||567|HKD
HK|TBL|4211|2013|8|2836|77459|885|635448.85|433184.3125|0|482|HKD
HK|TBL|4211|2013|9|10716|283691|992|753224.1275|553542.7425|0|510|HKD
HK|TBL|4211|2013|10|9603|215426|937|876012.0275|649309.26|0|445|HKD
HK|TBL|4211|2013|11|9783|207956|985|988535|709284.5|0|486|HKD
HK|TBL|4211|2013|12|22898|267572|2199|2370262|1511736|0|1102|HKD
HK|TBL|4212|2014|1|18471|266380|1609|1630291|1099722|0|931|HKD
HK|TBL|4212|2014|2|15278|266187|1226|1162964|891455.6|0|728|HKD
HK|TBL|4212|2014|3|10828|293685|1206|975363|736019.8|0|622|HKD
HK|TBL|4212|2014|4|10249|277001|1470|1111847|799200|0|618|HKD
HK|TBL|4212|2013|5|0|0|800|558470.2832|414943.5736||412|HKD
HK|TBL|4212|2013|6|0|0|1404|943847.7136|654190.1936||707|HKD
HK|TBL|4212|2013|7|0|0|1130|773268.7275|485749.7725||599|HKD
HK|TBL|4212|2013|8|2131|81186|906|666902.38|433879.255|0|473|HKD
HK|TBL|4212|2013|9|11027|415645|1023|848570.44|648270.45|0|535|HKD
HK|TBL|4212|2013|10|9986|316884|933|947886.7675|696960.91|0|482|HKD
HK|TBL|4212|2013|11|11071|314880|1165|1207663|859646.5|0|556|HKD
HK|TBL|4212|2013|12|25551|415415|2514|2464680|1623243.3|0|1384|HKD
HK|TBL|4213|2014|1|22227|10960|2224|2213869|1592554.5|0|1342|HKD
HK|TBL|4213|2014|2|15841|20888|1502|1374873|1150498.9|0|942|HKD
HK|TBL|4213|2014|3|12541|35201|1642|1320143|1059550.3|0|828|HKD
HK|TBL|4213|2014|4|11747|136016|1900|1435439|1078233.8|0|886|HKD
HK|TBL|4213|2013|5|0|0|1217|848588.2816|688708.4584||625|HKD
HK|TBL|4213|2013|6|0|0|2145|1430920.72|1029411.0256||1072|HKD
HK|TBL|4213|2013|7|0|0|1581|1096623.76|750918.9675||812|HKD
HK|TBL|4213|2013|8|2892|4893|1355|962801.72|735678.36|0|732|HKD
HK|TBL|4213|2013|9|13174|24868|1664|1308784.815|1071135.4825|0|795|HKD
HK|TBL|4213|2013|10|12710|12690|1631|1535594.8425|1206282.385|0|821|HKD
HK|TBL|4213|2013|11|13443|15426|1598|1596194|1215629.3|0|849|HKD
HK|TBL|4213|2013|12|30757|23372|3605|3731704|2583961.3|0|1913|HKD
HK|TBL|4214|2014|1|19418|59775|1848|2040099|1231135.4|0|997|HKD
HK|TBL|4214|2014|2|17294|55202|1413|1396524|1013308.9|0|828|HKD
HK|TBL|4214|2014|3|14354|40796|1302|1088504|799513.2|0|721|HKD
HK|TBL|4214|2014|4|12718|26697|1625|1243745|905398|0|850|HKD
HK|TBL|4214|2013|5|0|0|999|645420.152|501502.7264||465|HKD
HK|TBL|4214|2013|6|0|0|1734|1174192.5272|793426.3992||861|HKD
HK|TBL|4214|2013|7|0|0|1372|934614.505|580089.9025||724|HKD
HK|TBL|4214|2013|8|3548|17903|1210|876965.2775|558387.655|0|644|HKD
HK|TBL|4214|2013|9|14051|68580|1100|892744.2775|672507.7225|0|568|HKD
HK|TBL|4214|2013|10|12567|49676|1195|1176882.76|873665.56|0|652|HKD
HK|TBL|4214|2013|11|13811|50624|1211|1480547|1059836.6|0|705|HKD
HK|TBL|4214|2013|12|25990|82556|2883|3290889|2017815.8|0|1676|HKD
HK|TBL|4215|2014|1|45730|582223|2263|2230794|1678739.9|0|1611|HKD
HK|TBL|4215|2014|2|33464|644368|1634|1523223|1335007.6|0|1191|HKD
HK|TBL|4215|2014|3|23745|1084057|1439|1197172|1009124.7|0|961|HKD
HK|TBL|4215|2014|4|22559|683928|1721|1331977|1012732.2|0|944|HKD
HK|TBL|4215|2013|5|0|0|1756|1144518.9856|955580.6008||957|HKD
HK|TBL|4215|2013|6|0|0|2526|1612763.2832|1250624.3368||1366|HKD
HK|TBL|4215|2013|7|0|0|1926|1290817.68|921633.72||1113|HKD
HK|TBL|4215|2013|8|4783|254620|1232|876634.275|716876.24|0|725|HKD
HK|TBL|4215|2013|9|24649|1043489|1447|1137263.4425|966878.065|0|837|HKD
HK|TBL|4215|2013|10|25612|815823|1449|1275355.81|1069201.7025|0|928|HKD
HK|TBL|4215|2013|11|26092|515702|1537|1366838|1116933.1|0|953|HKD
HK|TBL|4215|2013|12|53814|683381|3108|3100184|2198767.2|0|2146|HKD
HK|TBL|4216|2014|1|26827|96415|1626|1556992|1048598.5|0|1097|HKD
HK|TBL|4216|2014|2|23503|78618|1204|1114645|834608.5|0|866|HKD
HK|TBL|4216|2014|3|15771|71385|1023|812751|604835.3|0|680|HKD
HK|TBL|4216|2014|4|16270|164845|1295|988933|710874.8|0|756|HKD
HK|TBL|4216|2013|5|0|0|832|609450.7672|442751.9992||490|HKD
HK|TBL|4216|2013|6|0|0|1144|752735.0544|508936.8064||669|HKD
HK|TBL|4216|2013|7|0|0|1101|756789.205|492310.6125||653|HKD
HK|TBL|4216|2013|8|0|0|1132|794096.0775|503138.4475||635|HKD
HK|TBL|4216|2013|9|13612|100834|1087|852165.975|616760.1125|0|631|HKD
HK|TBL|4216|2013|10|16129|93978|1072|956562.2725|704373.0875|0|671|HKD
HK|TBL|4216|2013|11|16318|74193|1044|1006601|719116.2|0|694|HKD
HK|TBL|4216|2013|12|34409|134252|2395|2405843|1513105.3|0|1494|HKD
HK|TBL|4217|2014|1|36882|501592|1886|1873379|1336083.2|0|1142|HKD
HK|TBL|4217|2014|2|31548|502028|1430|1234257|1055206.9|0|875|HKD
HK|TBL|4217|2014|3|22506|568315|1161|912709|764087.3|0|705|HKD
HK|TBL|4217|2014|4|20729|484671|1372|1118110|841074.7|0|759|HKD
HK|TBL|4217|2013|8|11191|228231|910|680399.625|535725.57|0|517|HKD
HK|TBL|4217|2013|9|28352|645273|1100|884948.785|720427.6|0|585|HKD
HK|TBL|4217|2013|10|23562|502872|1071|1016629.7325|802235.7475|0|608|HKD
HK|TBL|4217|2013|11|23338|479131|1125|1116844|870684.3|0|712|HKD
HK|TBL|4217|2013|12|47103|631264|2684|2768226|1874624.5|0|1618|HKD
HK|TBL|4218|2014|1|41165|205084|2757|3149873|2362120.7|0|1720|HKD
HK|TBL|4218|2014|2|34921|210535|2200|2129303|1830824.6|0|1364|HKD
HK|TBL|4218|2014|3|26537|197331|1987|1651482|1455327.8|0|1138|HKD
HK|TBL|4218|2014|4|24616|152068|2392|1804759|1496469.5|0|1268|HKD
HK|TBL|4218|2013|5|0|0|3819|2926697.7352|2054490.9624||2505|HKD
HK|TBL|4218|2013|6|0|0|3210|2216585.5672|1620902.6696||1799|HKD
HK|TBL|4218|2013|7|0|0|2232|1513774.5625|1103633.2475||1208|HKD
HK|TBL|4218|2013|8|0|0|1882|1476364.8475|1136301.3575||1091|HKD
HK|TBL|4218|2013|9|20526|169486|1905|1543873.16|1264873.47|0|1053|HKD
HK|TBL|4218|2013|10|26308|153024|1884|1838499.8725|1501188.33|0|1097|HKD
HK|TBL|4218|2013|11|30496|200855|4109|4599160|3096529.6|0|2537|HKD
HK|TBL|4218|2013|12|55711|284760|5006|5546284|3872221.6|0|3022|HKD
HK|TBL|4518|2014|1|0|0|787|3262440|2282966|108856|403|HKD
HK|TBL|4518|2014|2|0|0|934|3940913|2544548|121318|421|HKD
HK|TBL|4518|2014|3|0|0|833|3133265|2053154|97910|350|HKD
HK|TBL|4518|2014|4|0|0|734|2531132|1726610|82348|345|HKD
HK|TBL|4518|2013|10|0|0|599|2042546.38|1384454.43||253|HKD
HK|TBL|4518|2013|11|0|0|905|3633064|2350313|112077|400|HKD
HK|TBL|4518|2013|12|0|0|1762|7648928|4384896|209070|702|HKD
