SYSTEM_CODE|BRAND_CODE|STORE_CODE|CATEGORY|GENDER|QTY_ONHAND|CUT_TO_DAY
HK|TBL|4201|Accessories|Male|1270|2014-05-01
HK|TBL|4201|Accessories|Male|1203|2014-05-02
HK|TBL|4201|Accessories|Male|1201|2014-05-03
HK|TBL|4201|Accessories|Male|1150|2014-05-04
HK|TBL|4201|Accessories|Male|1271|2014-05-05
HK|TBL|4201|Accessories|Male|1238|2014-05-06
HK|TBL|4201|Accessories|Male|1204|2014-05-07
HK|TBL|4201|Accessories|Male|1281|2014-05-08
HK|TBL|4201|Accessories|Male|1485|2014-05-09
HK|TBL|4201|Accessories|Male|1453|2014-05-10
HK|TBL|4201|Accessories|Woman|41|2014-05-01
HK|TBL|4201|Accessories|Woman|40|2014-05-02
HK|TBL|4201|Accessories|Woman|41|2014-05-03
HK|TBL|4201|Accessories|Woman|41|2014-05-04
HK|TBL|4201|Accessories|Woman|41|2014-05-05
HK|TBL|4201|Accessories|Woman|41|2014-05-06
HK|TBL|4201|Accessories|Woman|40|2014-05-07
HK|TBL|4201|Accessories|Woman|39|2014-05-08
HK|TBL|4201|Accessories|Woman|39|2014-05-09
HK|TBL|4201|Accessories|Woman|39|2014-05-10
HK|TBL|4201|Apparel|Male|7091|2014-05-01
HK|TBL|4201|Apparel|Male|6782|2014-05-02
HK|TBL|4201|Apparel|Male|6692|2014-05-03
HK|TBL|4201|Apparel|Male|6490|2014-05-04
HK|TBL|4201|Apparel|Male|6528|2014-05-05
HK|TBL|4201|Apparel|Male|6306|2014-05-06
HK|TBL|4201|Apparel|Male|6125|2014-05-07
HK|TBL|4201|Apparel|Male|6615|2014-05-08
HK|TBL|4201|Apparel|Male|7405|2014-05-09
HK|TBL|4201|Apparel|Male|7313|2014-05-10
HK|TBL|4201|Apparel|Woman|2359|2014-05-01
HK|TBL|4201|Apparel|Woman|2321|2014-05-02
HK|TBL|4201|Apparel|Woman|2303|2014-05-03
HK|TBL|4201|Apparel|Woman|2279|2014-05-04
HK|TBL|4201|Apparel|Woman|2280|2014-05-05
HK|TBL|4201|Apparel|Woman|2247|2014-05-06
HK|TBL|4201|Apparel|Woman|2229|2014-05-07
HK|TBL|4201|Apparel|Woman|2229|2014-05-08
HK|TBL|4201|Apparel|Woman|2288|2014-05-09
HK|TBL|4201|Apparel|Woman|2233|2014-05-10
HK|TBL|4201|Footwear|Male|2535|2014-05-01
HK|TBL|4201|Footwear|Male|2455|2014-05-02
HK|TBL|4201|Footwear|Male|2390|2014-05-03
HK|TBL|4201|Footwear|Male|2303|2014-05-04
HK|TBL|4201|Footwear|Male|2286|2014-05-05
HK|TBL|4201|Footwear|Male|2219|2014-05-06
HK|TBL|4201|Footwear|Male|2170|2014-05-07
HK|TBL|4201|Footwear|Male|2167|2014-05-08
HK|TBL|4201|Footwear|Male|2544|2014-05-09
HK|TBL|4201|Footwear|Male|2453|2014-05-10
HK|TBL|4201|Footwear|Toddler|43|2014-05-01
HK|TBL|4201|Footwear|Toddler|41|2014-05-02
HK|TBL|4201|Footwear|Toddler|41|2014-05-03
HK|TBL|4201|Footwear|Toddler|39|2014-05-04
HK|TBL|4201|Footwear|Toddler|36|2014-05-05
HK|TBL|4201|Footwear|Toddler|34|2014-05-06
HK|TBL|4201|Footwear|Toddler|31|2014-05-07
HK|TBL|4201|Footwear|Toddler|31|2014-05-08
HK|TBL|4201|Footwear|Toddler|82|2014-05-09
HK|TBL|4201|Footwear|Toddler|77|2014-05-10
HK|TBL|4201|Footwear|Woman|1226|2014-05-01
HK|TBL|4201|Footwear|Woman|1186|2014-05-02
HK|TBL|4201|Footwear|Woman|1142|2014-05-03
HK|TBL|4201|Footwear|Woman|1106|2014-05-04
HK|TBL|4201|Footwear|Woman|1142|2014-05-05
HK|TBL|4201|Footwear|Woman|1122|2014-05-06
HK|TBL|4201|Footwear|Woman|1107|2014-05-07
HK|TBL|4201|Footwear|Woman|1084|2014-05-08
HK|TBL|4201|Footwear|Woman|1175|2014-05-09
HK|TBL|4201|Footwear|Woman|1140|2014-05-10
HK|TBL|4201|Footwear|Y|108|2014-05-01
HK|TBL|4201|Footwear|Y|103|2014-05-02
HK|TBL|4201|Footwear|Y|98|2014-05-03
HK|TBL|4201|Footwear|Y|97|2014-05-04
HK|TBL|4201|Footwear|Y|103|2014-05-05
HK|TBL|4201|Footwear|Y|99|2014-05-06
HK|TBL|4201|Footwear|Y|99|2014-05-07
HK|TBL|4201|Footwear|Y|91|2014-05-08
HK|TBL|4201|Footwear|Y|125|2014-05-09
HK|TBL|4201|Footwear|Y|121|2014-05-10
HK|TBL|4201|Footwear||56|2014-05-01
HK|TBL|4201|Footwear||56|2014-05-02
HK|TBL|4201|Footwear||57|2014-05-03
HK|TBL|4201|Footwear||52|2014-05-04
HK|TBL|4201|Footwear||49|2014-05-05
HK|TBL|4201|Footwear||45|2014-05-06
HK|TBL|4201|Footwear||43|2014-05-07
HK|TBL|4201|Footwear||43|2014-05-08
HK|TBL|4201|Footwear||75|2014-05-09
HK|TBL|4201|Footwear||65|2014-05-10
HK|TBL|4201||Male|632|2014-05-01
HK|TBL|4201||Male|597|2014-05-02
HK|TBL|4201||Male|592|2014-05-03
HK|TBL|4201||Male|557|2014-05-04
HK|TBL|4201||Male|579|2014-05-05
HK|TBL|4201||Male|547|2014-05-06
HK|TBL|4201||Male|519|2014-05-07
HK|TBL|4201||Male|561|2014-05-08
HK|TBL|4201||Male|882|2014-05-09
HK|TBL|4201||Male|913|2014-05-10
HK|TBL|4201||Toddler|5|2014-05-01
HK|TBL|4201||Toddler|5|2014-05-02
HK|TBL|4201||Toddler|5|2014-05-03
HK|TBL|4201||Toddler|5|2014-05-04
HK|TBL|4201||Toddler|5|2014-05-05
HK|TBL|4201||Toddler|5|2014-05-06
HK|TBL|4201||Toddler|5|2014-05-07
HK|TBL|4201||Toddler|5|2014-05-08
HK|TBL|4201||Toddler|5|2014-05-09
HK|TBL|4201||Toddler|5|2014-05-10
HK|TBL|4201||Woman|62|2014-05-01
HK|TBL|4201||Woman|55|2014-05-02
HK|TBL|4201||Woman|50|2014-05-03
HK|TBL|4201||Woman|40|2014-05-04
HK|TBL|4201||Woman|61|2014-05-05
HK|TBL|4201||Woman|55|2014-05-06
HK|TBL|4201||Woman|48|2014-05-07
HK|TBL|4201||Woman|42|2014-05-08
HK|TBL|4201||Woman|72|2014-05-09
HK|TBL|4201||Woman|61|2014-05-10
HK|TBL|4201||Y|1|2014-05-01
HK|TBL|4201||Y|1|2014-05-02
HK|TBL|4201||Y|1|2014-05-03
HK|TBL|4201||Y|1|2014-05-04
HK|TBL|4201||Y|1|2014-05-05
HK|TBL|4201||Y|1|2014-05-06
HK|TBL|4201||Y|1|2014-05-07
HK|TBL|4201||Y|1|2014-05-08
HK|TBL|4201||Y|23|2014-05-09
HK|TBL|4201||Y|22|2014-05-10
HK|TBL|4201|||2|2014-05-01
HK|TBL|4201|||2|2014-05-02
HK|TBL|4201|||2|2014-05-03
HK|TBL|4201|||2|2014-05-04
HK|TBL|4201|||2|2014-05-05
HK|TBL|4201|||2|2014-05-06
HK|TBL|4201|||2|2014-05-07
HK|TBL|4201|||2|2014-05-08
HK|TBL|4201|||2|2014-05-09
HK|TBL|4201|||2|2014-05-10
HK|TBL|4202|Accessories|Male|340|2014-05-01
HK|TBL|4202|Accessories|Male|339|2014-05-02
HK|TBL|4202|Accessories|Male|337|2014-05-03
HK|TBL|4202|Accessories|Male|336|2014-05-04
HK|TBL|4202|Accessories|Male|334|2014-05-05
HK|TBL|4202|Accessories|Male|337|2014-05-06
HK|TBL|4202|Accessories|Male|332|2014-05-07
HK|TBL|4202|Accessories|Male|337|2014-05-08
HK|TBL|4202|Accessories|Male|343|2014-05-09
HK|TBL|4202|Accessories|Male|333|2014-05-10
HK|TBL|4202|Accessories|Woman|37|2014-05-01
HK|TBL|4202|Accessories|Woman|37|2014-05-02
HK|TBL|4202|Accessories|Woman|35|2014-05-03
HK|TBL|4202|Accessories|Woman|35|2014-05-04
HK|TBL|4202|Accessories|Woman|35|2014-05-05
HK|TBL|4202|Accessories|Woman|37|2014-05-06
HK|TBL|4202|Accessories|Woman|37|2014-05-07
HK|TBL|4202|Accessories|Woman|38|2014-05-08
HK|TBL|4202|Accessories|Woman|38|2014-05-09
HK|TBL|4202|Accessories|Woman|39|2014-05-10
HK|TBL|4202|Apparel|Male|2519|2014-05-01
HK|TBL|4202|Apparel|Male|2581|2014-05-02
HK|TBL|4202|Apparel|Male|2554|2014-05-03
HK|TBL|4202|Apparel|Male|2519|2014-05-04
HK|TBL|4202|Apparel|Male|2499|2014-05-05
HK|TBL|4202|Apparel|Male|2515|2014-05-06
HK|TBL|4202|Apparel|Male|2447|2014-05-07
HK|TBL|4202|Apparel|Male|2506|2014-05-08
HK|TBL|4202|Apparel|Male|2656|2014-05-09
HK|TBL|4202|Apparel|Male|2621|2014-05-10
HK|TBL|4202|Apparel|Woman|583|2014-05-01
HK|TBL|4202|Apparel|Woman|590|2014-05-02
HK|TBL|4202|Apparel|Woman|583|2014-05-03
HK|TBL|4202|Apparel|Woman|577|2014-05-04
HK|TBL|4202|Apparel|Woman|578|2014-05-05
HK|TBL|4202|Apparel|Woman|585|2014-05-06
HK|TBL|4202|Apparel|Woman|574|2014-05-07
HK|TBL|4202|Apparel|Woman|585|2014-05-08
HK|TBL|4202|Apparel|Woman|588|2014-05-09
HK|TBL|4202|Apparel|Woman|575|2014-05-10
HK|TBL|4202|Footwear|Male|771|2014-05-01
HK|TBL|4202|Footwear|Male|777|2014-05-02
HK|TBL|4202|Footwear|Male|770|2014-05-03
HK|TBL|4202|Footwear|Male|753|2014-05-04
HK|TBL|4202|Footwear|Male|750|2014-05-05
HK|TBL|4202|Footwear|Male|752|2014-05-06
HK|TBL|4202|Footwear|Male|748|2014-05-07
HK|TBL|4202|Footwear|Male|762|2014-05-08
HK|TBL|4202|Footwear|Male|810|2014-05-09
HK|TBL|4202|Footwear|Male|783|2014-05-10
HK|TBL|4202|Footwear|Toddler|35|2014-05-01
HK|TBL|4202|Footwear|Toddler|34|2014-05-02
HK|TBL|4202|Footwear|Toddler|34|2014-05-03
HK|TBL|4202|Footwear|Toddler|32|2014-05-04
HK|TBL|4202|Footwear|Toddler|32|2014-05-05
HK|TBL|4202|Footwear|Toddler|30|2014-05-06
HK|TBL|4202|Footwear|Toddler|30|2014-05-07
HK|TBL|4202|Footwear|Toddler|30|2014-05-08
HK|TBL|4202|Footwear|Toddler|29|2014-05-09
HK|TBL|4202|Footwear|Toddler|29|2014-05-10
HK|TBL|4202|Footwear|Woman|484|2014-05-01
HK|TBL|4202|Footwear|Woman|484|2014-05-02
HK|TBL|4202|Footwear|Woman|476|2014-05-03
HK|TBL|4202|Footwear|Woman|466|2014-05-04
HK|TBL|4202|Footwear|Woman|465|2014-05-05
HK|TBL|4202|Footwear|Woman|459|2014-05-06
HK|TBL|4202|Footwear|Woman|457|2014-05-07
HK|TBL|4202|Footwear|Woman|455|2014-05-08
HK|TBL|4202|Footwear|Woman|496|2014-05-09
HK|TBL|4202|Footwear|Woman|484|2014-05-10
HK|TBL|4202|Footwear|Y|55|2014-05-01
HK|TBL|4202|Footwear|Y|54|2014-05-02
HK|TBL|4202|Footwear|Y|54|2014-05-03
HK|TBL|4202|Footwear|Y|53|2014-05-04
HK|TBL|4202|Footwear|Y|53|2014-05-05
HK|TBL|4202|Footwear|Y|52|2014-05-06
HK|TBL|4202|Footwear|Y|52|2014-05-07
HK|TBL|4202|Footwear|Y|56|2014-05-08
HK|TBL|4202|Footwear|Y|58|2014-05-09
HK|TBL|4202|Footwear|Y|57|2014-05-10
HK|TBL|4202|Footwear||1|2014-05-01
HK|TBL|4202|Footwear||1|2014-05-02
HK|TBL|4202|Footwear||1|2014-05-03
HK|TBL|4202|Footwear||1|2014-05-04
HK|TBL|4202|Footwear||1|2014-05-05
HK|TBL|4202|Footwear||1|2014-05-06
HK|TBL|4202|Footwear||1|2014-05-07
HK|TBL|4202|Footwear||1|2014-05-08
HK|TBL|4202|Footwear||1|2014-05-09
HK|TBL|4202|Footwear||1|2014-05-10
HK|TBL|4202||Male|1196|2014-05-01
HK|TBL|4202||Male|1229|2014-05-02
HK|TBL|4202||Male|1215|2014-05-03
HK|TBL|4202||Male|1192|2014-05-04
HK|TBL|4202||Male|1178|2014-05-05
HK|TBL|4202||Male|1194|2014-05-06
HK|TBL|4202||Male|1141|2014-05-07
HK|TBL|4202||Male|1178|2014-05-08
HK|TBL|4202||Male|1224|2014-05-09
HK|TBL|4202||Male|1200|2014-05-10
HK|TBL|4202||Toddler|31|2014-05-01
HK|TBL|4202||Toddler|31|2014-05-02
HK|TBL|4202||Toddler|30|2014-05-03
HK|TBL|4202||Toddler|30|2014-05-04
HK|TBL|4202||Toddler|30|2014-05-05
HK|TBL|4202||Toddler|31|2014-05-06
HK|TBL|4202||Toddler|31|2014-05-07
HK|TBL|4202||Toddler|32|2014-05-08
HK|TBL|4202||Toddler|33|2014-05-09
HK|TBL|4202||Toddler|31|2014-05-10
HK|TBL|4202||Unisex|-34|2014-05-01
HK|TBL|4202||Unisex|-34|2014-05-02
HK|TBL|4202||Unisex|-34|2014-05-03
HK|TBL|4202||Unisex|-34|2014-05-04
HK|TBL|4202||Unisex|-34|2014-05-05
HK|TBL|4202||Unisex|-34|2014-05-06
HK|TBL|4202||Unisex|-34|2014-05-07
HK|TBL|4202||Unisex|-34|2014-05-08
HK|TBL|4202||Unisex|-34|2014-05-09
HK|TBL|4202||Unisex|-35|2014-05-10
HK|TBL|4202||Woman|111|2014-05-01
HK|TBL|4202||Woman|112|2014-05-02
HK|TBL|4202||Woman|108|2014-05-03
HK|TBL|4202||Woman|106|2014-05-04
HK|TBL|4202||Woman|105|2014-05-05
HK|TBL|4202||Woman|105|2014-05-06
HK|TBL|4202||Woman|101|2014-05-07
HK|TBL|4202||Woman|109|2014-05-08
HK|TBL|4202||Woman|127|2014-05-09
HK|TBL|4202||Woman|120|2014-05-10
HK|TBL|4202||Y|24|2014-05-01
HK|TBL|4202||Y|24|2014-05-02
HK|TBL|4202||Y|22|2014-05-03
HK|TBL|4202||Y|22|2014-05-04
HK|TBL|4202||Y|22|2014-05-05
HK|TBL|4202||Y|22|2014-05-06
HK|TBL|4202||Y|22|2014-05-07
HK|TBL|4202||Y|24|2014-05-08
HK|TBL|4202||Y|24|2014-05-09
HK|TBL|4202||Y|24|2014-05-10
HK|TBL|4202|||42|2014-05-01
HK|TBL|4202|||44|2014-05-02
HK|TBL|4202|||42|2014-05-03
HK|TBL|4202|||41|2014-05-04
HK|TBL|4202|||41|2014-05-05
HK|TBL|4202|||43|2014-05-06
HK|TBL|4202|||43|2014-05-07
HK|TBL|4202|||44|2014-05-08
HK|TBL|4202|||43|2014-05-09
HK|TBL|4202|||43|2014-05-10
HK|TBL|4203|Accessories|Male|357|2014-05-01
HK|TBL|4203|Accessories|Male|359|2014-05-02
HK|TBL|4203|Accessories|Male|353|2014-05-03
HK|TBL|4203|Accessories|Male|351|2014-05-04
HK|TBL|4203|Accessories|Male|360|2014-05-05
HK|TBL|4203|Accessories|Male|354|2014-05-06
HK|TBL|4203|Accessories|Male|350|2014-05-07
HK|TBL|4203|Accessories|Male|372|2014-05-08
HK|TBL|4203|Accessories|Male|366|2014-05-09
HK|TBL|4203|Accessories|Male|418|2014-05-10
HK|TBL|4203|Accessories|Woman|36|2014-05-01
HK|TBL|4203|Accessories|Woman|38|2014-05-02
HK|TBL|4203|Accessories|Woman|37|2014-05-03
HK|TBL|4203|Accessories|Woman|35|2014-05-04
HK|TBL|4203|Accessories|Woman|36|2014-05-05
HK|TBL|4203|Accessories|Woman|36|2014-05-06
HK|TBL|4203|Accessories|Woman|36|2014-05-07
HK|TBL|4203|Accessories|Woman|39|2014-05-08
HK|TBL|4203|Accessories|Woman|39|2014-05-09
HK|TBL|4203|Accessories|Woman|39|2014-05-10
HK|TBL|4203|Apparel|Male|2961|2014-05-01
HK|TBL|4203|Apparel|Male|2951|2014-05-02
HK|TBL|4203|Apparel|Male|2916|2014-05-03
HK|TBL|4203|Apparel|Male|2776|2014-05-04
HK|TBL|4203|Apparel|Male|2803|2014-05-05
HK|TBL|4203|Apparel|Male|2766|2014-05-06
HK|TBL|4203|Apparel|Male|2754|2014-05-07
HK|TBL|4203|Apparel|Male|2962|2014-05-08
HK|TBL|4203|Apparel|Male|2956|2014-05-09
HK|TBL|4203|Apparel|Male|3289|2014-05-10
HK|TBL|4203|Apparel|Woman|1090|2014-05-01
HK|TBL|4203|Apparel|Woman|1085|2014-05-02
HK|TBL|4203|Apparel|Woman|1077|2014-05-03
HK|TBL|4203|Apparel|Woman|1063|2014-05-04
HK|TBL|4203|Apparel|Woman|1079|2014-05-05
HK|TBL|4203|Apparel|Woman|1068|2014-05-06
HK|TBL|4203|Apparel|Woman|1066|2014-05-07
HK|TBL|4203|Apparel|Woman|1087|2014-05-08
HK|TBL|4203|Apparel|Woman|1088|2014-05-09
HK|TBL|4203|Apparel|Woman|1085|2014-05-10
HK|TBL|4203|Footwear|Male|1161|2014-05-01
HK|TBL|4203|Footwear|Male|1156|2014-05-02
HK|TBL|4203|Footwear|Male|1136|2014-05-03
HK|TBL|4203|Footwear|Male|1124|2014-05-04
HK|TBL|4203|Footwear|Male|1142|2014-05-05
HK|TBL|4203|Footwear|Male|1128|2014-05-06
HK|TBL|4203|Footwear|Male|1120|2014-05-07
HK|TBL|4203|Footwear|Male|1171|2014-05-08
HK|TBL|4203|Footwear|Male|1168|2014-05-09
HK|TBL|4203|Footwear|Male|1307|2014-05-10
HK|TBL|4203|Footwear|Toddler|96|2014-05-01
HK|TBL|4203|Footwear|Toddler|98|2014-05-02
HK|TBL|4203|Footwear|Toddler|96|2014-05-03
HK|TBL|4203|Footwear|Toddler|96|2014-05-04
HK|TBL|4203|Footwear|Toddler|97|2014-05-05
HK|TBL|4203|Footwear|Toddler|96|2014-05-06
HK|TBL|4203|Footwear|Toddler|96|2014-05-07
HK|TBL|4203|Footwear|Toddler|101|2014-05-08
HK|TBL|4203|Footwear|Toddler|100|2014-05-09
HK|TBL|4203|Footwear|Toddler|121|2014-05-10
HK|TBL|4203|Footwear|Woman|686|2014-05-01
HK|TBL|4203|Footwear|Woman|594|2014-05-02
HK|TBL|4203|Footwear|Woman|591|2014-05-03
HK|TBL|4203|Footwear|Woman|587|2014-05-04
HK|TBL|4203|Footwear|Woman|596|2014-05-05
HK|TBL|4203|Footwear|Woman|593|2014-05-06
HK|TBL|4203|Footwear|Woman|585|2014-05-07
HK|TBL|4203|Footwear|Woman|595|2014-05-08
HK|TBL|4203|Footwear|Woman|594|2014-05-09
HK|TBL|4203|Footwear|Woman|630|2014-05-10
HK|TBL|4203|Footwear|Y|105|2014-05-01
HK|TBL|4203|Footwear|Y|104|2014-05-02
HK|TBL|4203|Footwear|Y|102|2014-05-03
HK|TBL|4203|Footwear|Y|101|2014-05-04
HK|TBL|4203|Footwear|Y|100|2014-05-05
HK|TBL|4203|Footwear|Y|100|2014-05-06
HK|TBL|4203|Footwear|Y|100|2014-05-07
HK|TBL|4203|Footwear|Y|106|2014-05-08
HK|TBL|4203|Footwear|Y|106|2014-05-09
HK|TBL|4203|Footwear|Y|133|2014-05-10
HK|TBL|4203|Footwear||31|2014-05-01
HK|TBL|4203|Footwear||2|2014-05-02
HK|TBL|4203|Footwear||2|2014-05-03
HK|TBL|4203|Footwear||2|2014-05-04
HK|TBL|4203|Footwear||2|2014-05-05
HK|TBL|4203|Footwear||2|2014-05-06
HK|TBL|4203|Footwear||2|2014-05-07
HK|TBL|4203|Footwear||2|2014-05-08
HK|TBL|4203|Footwear||2|2014-05-09
HK|TBL|4203|Footwear||2|2014-05-10
HK|TBL|4203||Male|1429|2014-05-01
HK|TBL|4203||Male|1453|2014-05-02
HK|TBL|4203||Male|1434|2014-05-03
HK|TBL|4203||Male|1409|2014-05-04
HK|TBL|4203||Male|1431|2014-05-05
HK|TBL|4203||Male|1412|2014-05-06
HK|TBL|4203||Male|1396|2014-05-07
HK|TBL|4203||Male|1444|2014-05-08
HK|TBL|4203||Male|1435|2014-05-09
HK|TBL|4203||Male|1449|2014-05-10
HK|TBL|4203||Toddler|29|2014-05-01
HK|TBL|4203||Toddler|30|2014-05-02
HK|TBL|4203||Toddler|30|2014-05-03
HK|TBL|4203||Toddler|30|2014-05-04
HK|TBL|4203||Toddler|31|2014-05-05
HK|TBL|4203||Toddler|30|2014-05-06
HK|TBL|4203||Toddler|30|2014-05-07
HK|TBL|4203||Toddler|30|2014-05-08
HK|TBL|4203||Toddler|30|2014-05-09
HK|TBL|4203||Toddler|50|2014-05-10
HK|TBL|4203||Unisex|-10|2014-05-01
HK|TBL|4203||Unisex|-10|2014-05-02
HK|TBL|4203||Unisex|-10|2014-05-03
HK|TBL|4203||Unisex|-10|2014-05-04
HK|TBL|4203||Unisex|-10|2014-05-05
HK|TBL|4203||Unisex|-10|2014-05-06
HK|TBL|4203||Unisex|-10|2014-05-07
HK|TBL|4203||Unisex|-10|2014-05-08
HK|TBL|4203||Unisex|-10|2014-05-09
HK|TBL|4203||Unisex|-10|2014-05-10
HK|TBL|4203||Woman|151|2014-05-01
HK|TBL|4203||Woman|148|2014-05-02
HK|TBL|4203||Woman|148|2014-05-03
HK|TBL|4203||Woman|146|2014-05-04
HK|TBL|4203||Woman|153|2014-05-05
HK|TBL|4203||Woman|152|2014-05-06
HK|TBL|4203||Woman|148|2014-05-07
HK|TBL|4203||Woman|152|2014-05-08
HK|TBL|4203||Woman|150|2014-05-09
HK|TBL|4203||Woman|150|2014-05-10
HK|TBL|4203||Y|36|2014-05-01
HK|TBL|4203||Y|37|2014-05-02
HK|TBL|4203||Y|37|2014-05-03
HK|TBL|4203||Y|37|2014-05-04
HK|TBL|4203||Y|37|2014-05-05
HK|TBL|4203||Y|37|2014-05-06
HK|TBL|4203||Y|37|2014-05-07
HK|TBL|4203||Y|38|2014-05-08
HK|TBL|4203||Y|38|2014-05-09
HK|TBL|4203||Y|54|2014-05-10
HK|TBL|4203|||55|2014-05-01
HK|TBL|4203|||56|2014-05-02
HK|TBL|4203|||56|2014-05-03
HK|TBL|4203|||54|2014-05-04
HK|TBL|4203|||55|2014-05-05
HK|TBL|4203|||55|2014-05-06
HK|TBL|4203|||54|2014-05-07
HK|TBL|4203|||56|2014-05-08
HK|TBL|4203|||56|2014-05-09
HK|TBL|4203|||56|2014-05-10
HK|TBL|4204|Accessories|Male|317|2014-05-01
HK|TBL|4204|Accessories|Male|312|2014-05-02
HK|TBL|4204|Accessories|Male|314|2014-05-03
HK|TBL|4204|Accessories|Male|312|2014-05-04
HK|TBL|4204|Accessories|Male|317|2014-05-05
HK|TBL|4204|Accessories|Male|316|2014-05-06
HK|TBL|4204|Accessories|Male|316|2014-05-07
HK|TBL|4204|Accessories|Male|329|2014-05-08
HK|TBL|4204|Accessories|Male|328|2014-05-09
HK|TBL|4204|Accessories|Male|326|2014-05-10
HK|TBL|4204|Accessories|Woman|18|2014-05-01
HK|TBL|4204|Accessories|Woman|17|2014-05-02
HK|TBL|4204|Accessories|Woman|17|2014-05-03
HK|TBL|4204|Accessories|Woman|16|2014-05-04
HK|TBL|4204|Accessories|Woman|16|2014-05-05
HK|TBL|4204|Accessories|Woman|16|2014-05-06
HK|TBL|4204|Accessories|Woman|16|2014-05-07
HK|TBL|4204|Accessories|Woman|18|2014-05-08
HK|TBL|4204|Accessories|Woman|18|2014-05-09
HK|TBL|4204|Accessories|Woman|17|2014-05-10
HK|TBL|4204|Apparel|Male|3144|2014-05-01
HK|TBL|4204|Apparel|Male|3110|2014-05-02
HK|TBL|4204|Apparel|Male|3177|2014-05-03
HK|TBL|4204|Apparel|Male|3157|2014-05-04
HK|TBL|4204|Apparel|Male|3183|2014-05-05
HK|TBL|4204|Apparel|Male|3161|2014-05-06
HK|TBL|4204|Apparel|Male|3150|2014-05-07
HK|TBL|4204|Apparel|Male|3238|2014-05-08
HK|TBL|4204|Apparel|Male|3226|2014-05-09
HK|TBL|4204|Apparel|Male|3332|2014-05-10
HK|TBL|4204|Apparel|Woman|17|2014-05-01
HK|TBL|4204|Apparel|Woman|16|2014-05-02
HK|TBL|4204|Apparel|Woman|12|2014-05-03
HK|TBL|4204|Apparel|Woman|12|2014-05-04
HK|TBL|4204|Apparel|Woman|12|2014-05-05
HK|TBL|4204|Apparel|Woman|12|2014-05-06
HK|TBL|4204|Apparel|Woman|12|2014-05-07
HK|TBL|4204|Apparel|Woman|12|2014-05-08
HK|TBL|4204|Apparel|Woman|12|2014-05-09
HK|TBL|4204|Apparel|Woman|12|2014-05-10
HK|TBL|4204|Footwear|Male|961|2014-05-01
HK|TBL|4204|Footwear|Male|944|2014-05-02
HK|TBL|4204|Footwear|Male|948|2014-05-03
HK|TBL|4204|Footwear|Male|942|2014-05-04
HK|TBL|4204|Footwear|Male|948|2014-05-05
HK|TBL|4204|Footwear|Male|941|2014-05-06
HK|TBL|4204|Footwear|Male|933|2014-05-07
HK|TBL|4204|Footwear|Male|966|2014-05-08
HK|TBL|4204|Footwear|Male|963|2014-05-09
HK|TBL|4204|Footwear|Male|994|2014-05-10
HK|TBL|4204|Footwear|Toddler|100|2014-05-01
HK|TBL|4204|Footwear|Toddler|99|2014-05-02
HK|TBL|4204|Footwear|Toddler|98|2014-05-03
HK|TBL|4204|Footwear|Toddler|98|2014-05-04
HK|TBL|4204|Footwear|Toddler|99|2014-05-05
HK|TBL|4204|Footwear|Toddler|99|2014-05-06
HK|TBL|4204|Footwear|Toddler|98|2014-05-07
HK|TBL|4204|Footwear|Toddler|98|2014-05-08
HK|TBL|4204|Footwear|Toddler|96|2014-05-09
HK|TBL|4204|Footwear|Toddler|96|2014-05-10
HK|TBL|4204|Footwear|Woman|615|2014-05-01
HK|TBL|4204|Footwear|Woman|610|2014-05-02
HK|TBL|4204|Footwear|Woman|612|2014-05-03
HK|TBL|4204|Footwear|Woman|538|2014-05-04
HK|TBL|4204|Footwear|Woman|540|2014-05-05
HK|TBL|4204|Footwear|Woman|536|2014-05-06
HK|TBL|4204|Footwear|Woman|535|2014-05-07
HK|TBL|4204|Footwear|Woman|580|2014-05-08
HK|TBL|4204|Footwear|Woman|579|2014-05-09
HK|TBL|4204|Footwear|Woman|603|2014-05-10
HK|TBL|4204|Footwear|Y|88|2014-05-01
HK|TBL|4204|Footwear|Y|86|2014-05-02
HK|TBL|4204|Footwear|Y|87|2014-05-03
HK|TBL|4204|Footwear|Y|87|2014-05-04
HK|TBL|4204|Footwear|Y|89|2014-05-05
HK|TBL|4204|Footwear|Y|87|2014-05-06
HK|TBL|4204|Footwear|Y|86|2014-05-07
HK|TBL|4204|Footwear|Y|95|2014-05-08
HK|TBL|4204|Footwear|Y|95|2014-05-09
HK|TBL|4204|Footwear|Y|94|2014-05-10
HK|TBL|4204|Footwear||1|2014-05-01
HK|TBL|4204|Footwear||1|2014-05-02
HK|TBL|4204|Footwear||1|2014-05-03
HK|TBL|4204|Footwear||1|2014-05-04
HK|TBL|4204|Footwear||1|2014-05-05
HK|TBL|4204|Footwear||1|2014-05-06
HK|TBL|4204|Footwear||1|2014-05-07
HK|TBL|4204|Footwear||1|2014-05-08
HK|TBL|4204|Footwear||1|2014-05-09
HK|TBL|4204|Footwear||1|2014-05-10
HK|TBL|4204||Male|1295|2014-05-01
HK|TBL|4204||Male|1275|2014-05-02
HK|TBL|4204||Male|1292|2014-05-03
HK|TBL|4204||Male|1270|2014-05-04
HK|TBL|4204||Male|1294|2014-05-05
HK|TBL|4204||Male|1278|2014-05-06
HK|TBL|4204||Male|1262|2014-05-07
HK|TBL|4204||Male|1287|2014-05-08
HK|TBL|4204||Male|1284|2014-05-09
HK|TBL|4204||Male|1277|2014-05-10
HK|TBL|4204||Toddler|30|2014-05-01
HK|TBL|4204||Toddler|30|2014-05-02
HK|TBL|4204||Toddler|29|2014-05-03
HK|TBL|4204||Toddler|29|2014-05-04
HK|TBL|4204||Toddler|30|2014-05-05
HK|TBL|4204||Toddler|30|2014-05-06
HK|TBL|4204||Toddler|30|2014-05-07
HK|TBL|4204||Toddler|31|2014-05-08
HK|TBL|4204||Toddler|31|2014-05-09
HK|TBL|4204||Toddler|33|2014-05-10
HK|TBL|4204||Unisex|-7|2014-05-01
HK|TBL|4204||Unisex|-7|2014-05-02
HK|TBL|4204||Unisex|-7|2014-05-03
HK|TBL|4204||Unisex|-7|2014-05-04
HK|TBL|4204||Unisex|-7|2014-05-05
HK|TBL|4204||Unisex|-7|2014-05-06
HK|TBL|4204||Unisex|-7|2014-05-07
HK|TBL|4204||Unisex|-7|2014-05-08
HK|TBL|4204||Unisex|-7|2014-05-09
HK|TBL|4204||Unisex|-7|2014-05-10
HK|TBL|4204||Woman|122|2014-05-01
HK|TBL|4204||Woman|120|2014-05-02
HK|TBL|4204||Woman|123|2014-05-03
HK|TBL|4204||Woman|123|2014-05-04
HK|TBL|4204||Woman|125|2014-05-05
HK|TBL|4204||Woman|124|2014-05-06
HK|TBL|4204||Woman|113|2014-05-07
HK|TBL|4204||Woman|120|2014-05-08
HK|TBL|4204||Woman|118|2014-05-09
HK|TBL|4204||Woman|129|2014-05-10
HK|TBL|4204||Y|30|2014-05-01
HK|TBL|4204||Y|30|2014-05-02
HK|TBL|4204||Y|29|2014-05-03
HK|TBL|4204||Y|29|2014-05-04
HK|TBL|4204||Y|30|2014-05-05
HK|TBL|4204||Y|30|2014-05-06
HK|TBL|4204||Y|30|2014-05-07
HK|TBL|4204||Y|30|2014-05-08
HK|TBL|4204||Y|30|2014-05-09
HK|TBL|4204||Y|30|2014-05-10
HK|TBL|4204|||53|2014-05-01
HK|TBL|4204|||52|2014-05-02
HK|TBL|4204|||52|2014-05-03
HK|TBL|4204|||52|2014-05-04
HK|TBL|4204|||55|2014-05-05
HK|TBL|4204|||54|2014-05-06
HK|TBL|4204|||53|2014-05-07
HK|TBL|4204|||54|2014-05-08
HK|TBL|4204|||54|2014-05-09
HK|TBL|4204|||55|2014-05-10
HK|TBL|4205|Accessories|Male|393|2014-05-01
HK|TBL|4205|Accessories|Male|391|2014-05-02
HK|TBL|4205|Accessories|Male|386|2014-05-03
HK|TBL|4205|Accessories|Male|386|2014-05-04
HK|TBL|4205|Accessories|Male|393|2014-05-05
HK|TBL|4205|Accessories|Male|390|2014-05-06
HK|TBL|4205|Accessories|Male|389|2014-05-07
HK|TBL|4205|Accessories|Male|403|2014-05-08
HK|TBL|4205|Accessories|Male|401|2014-05-09
HK|TBL|4205|Accessories|Male|395|2014-05-10
HK|TBL|4205|Accessories|Woman|39|2014-05-01
HK|TBL|4205|Accessories|Woman|39|2014-05-02
HK|TBL|4205|Accessories|Woman|38|2014-05-03
HK|TBL|4205|Accessories|Woman|38|2014-05-04
HK|TBL|4205|Accessories|Woman|40|2014-05-05
HK|TBL|4205|Accessories|Woman|40|2014-05-06
HK|TBL|4205|Accessories|Woman|40|2014-05-07
HK|TBL|4205|Accessories|Woman|41|2014-05-08
HK|TBL|4205|Accessories|Woman|41|2014-05-09
HK|TBL|4205|Accessories|Woman|38|2014-05-10
HK|TBL|4205|Apparel|Male|3357|2014-05-01
HK|TBL|4205|Apparel|Male|3335|2014-05-02
HK|TBL|4205|Apparel|Male|3303|2014-05-03
HK|TBL|4205|Apparel|Male|3327|2014-05-04
HK|TBL|4205|Apparel|Male|3366|2014-05-05
HK|TBL|4205|Apparel|Male|3331|2014-05-06
HK|TBL|4205|Apparel|Male|3313|2014-05-07
HK|TBL|4205|Apparel|Male|3435|2014-05-08
HK|TBL|4205|Apparel|Male|3418|2014-05-09
HK|TBL|4205|Apparel|Male|3424|2014-05-10
HK|TBL|4205|Apparel|Woman|1035|2014-05-01
HK|TBL|4205|Apparel|Woman|1028|2014-05-02
HK|TBL|4205|Apparel|Woman|1008|2014-05-03
HK|TBL|4205|Apparel|Woman|1018|2014-05-04
HK|TBL|4205|Apparel|Woman|1033|2014-05-05
HK|TBL|4205|Apparel|Woman|1015|2014-05-06
HK|TBL|4205|Apparel|Woman|1006|2014-05-07
HK|TBL|4205|Apparel|Woman|1052|2014-05-08
HK|TBL|4205|Apparel|Woman|1041|2014-05-09
HK|TBL|4205|Apparel|Woman|1042|2014-05-10
HK|TBL|4205|Footwear|Male|1118|2014-05-01
HK|TBL|4205|Footwear|Male|1115|2014-05-02
HK|TBL|4205|Footwear|Male|1108|2014-05-03
HK|TBL|4205|Footwear|Male|1108|2014-05-04
HK|TBL|4205|Footwear|Male|1129|2014-05-05
HK|TBL|4205|Footwear|Male|1116|2014-05-06
HK|TBL|4205|Footwear|Male|1110|2014-05-07
HK|TBL|4205|Footwear|Male|1140|2014-05-08
HK|TBL|4205|Footwear|Male|1132|2014-05-09
HK|TBL|4205|Footwear|Male|1126|2014-05-10
HK|TBL|4205|Footwear|Toddler|107|2014-05-01
HK|TBL|4205|Footwear|Toddler|107|2014-05-02
HK|TBL|4205|Footwear|Toddler|105|2014-05-03
HK|TBL|4205|Footwear|Toddler|104|2014-05-04
HK|TBL|4205|Footwear|Toddler|105|2014-05-05
HK|TBL|4205|Footwear|Toddler|104|2014-05-06
HK|TBL|4205|Footwear|Toddler|104|2014-05-07
HK|TBL|4205|Footwear|Toddler|103|2014-05-08
HK|TBL|4205|Footwear|Toddler|103|2014-05-09
HK|TBL|4205|Footwear|Toddler|103|2014-05-10
HK|TBL|4205|Footwear|Woman|603|2014-05-01
HK|TBL|4205|Footwear|Woman|600|2014-05-02
HK|TBL|4205|Footwear|Woman|591|2014-05-03
HK|TBL|4205|Footwear|Woman|599|2014-05-04
HK|TBL|4205|Footwear|Woman|609|2014-05-05
HK|TBL|4205|Footwear|Woman|600|2014-05-06
HK|TBL|4205|Footwear|Woman|596|2014-05-07
HK|TBL|4205|Footwear|Woman|607|2014-05-08
HK|TBL|4205|Footwear|Woman|604|2014-05-09
HK|TBL|4205|Footwear|Woman|607|2014-05-10
HK|TBL|4205|Footwear|Y|106|2014-05-01
HK|TBL|4205|Footwear|Y|105|2014-05-02
HK|TBL|4205|Footwear|Y|103|2014-05-03
HK|TBL|4205|Footwear|Y|101|2014-05-04
HK|TBL|4205|Footwear|Y|103|2014-05-05
HK|TBL|4205|Footwear|Y|102|2014-05-06
HK|TBL|4205|Footwear|Y|102|2014-05-07
HK|TBL|4205|Footwear|Y|107|2014-05-08
HK|TBL|4205|Footwear|Y|107|2014-05-09
HK|TBL|4205|Footwear|Y|107|2014-05-10
HK|TBL|4205|Footwear||0|2014-05-01
HK|TBL|4205|Footwear||0|2014-05-02
HK|TBL|4205|Footwear||0|2014-05-03
HK|TBL|4205|Footwear||0|2014-05-04
HK|TBL|4205|Footwear||0|2014-05-05
HK|TBL|4205|Footwear||0|2014-05-06
HK|TBL|4205|Footwear||0|2014-05-07
HK|TBL|4205|Footwear||0|2014-05-08
HK|TBL|4205|Footwear||0|2014-05-09
HK|TBL|4205|Footwear||0|2014-05-10
HK|TBL|4205||Male|1386|2014-05-01
HK|TBL|4205||Male|1373|2014-05-02
HK|TBL|4205||Male|1349|2014-05-03
HK|TBL|4205||Male|1363|2014-05-04
HK|TBL|4205||Male|1393|2014-05-05
HK|TBL|4205||Male|1372|2014-05-06
HK|TBL|4205||Male|1360|2014-05-07
HK|TBL|4205||Male|1435|2014-05-08
HK|TBL|4205||Male|1415|2014-05-09
HK|TBL|4205||Male|1394|2014-05-10
HK|TBL|4205||Toddler|35|2014-05-01
HK|TBL|4205||Toddler|35|2014-05-02
HK|TBL|4205||Toddler|35|2014-05-03
HK|TBL|4205||Toddler|36|2014-05-04
HK|TBL|4205||Toddler|37|2014-05-05
HK|TBL|4205||Toddler|37|2014-05-06
HK|TBL|4205||Toddler|37|2014-05-07
HK|TBL|4205||Toddler|37|2014-05-08
HK|TBL|4205||Toddler|37|2014-05-09
HK|TBL|4205||Toddler|36|2014-05-10
HK|TBL|4205||Unisex|-67|2014-05-01
HK|TBL|4205||Unisex|-68|2014-05-02
HK|TBL|4205||Unisex|-69|2014-05-03
HK|TBL|4205||Unisex|-69|2014-05-04
HK|TBL|4205||Unisex|-70|2014-05-05
HK|TBL|4205||Unisex|-70|2014-05-06
HK|TBL|4205||Unisex|-71|2014-05-07
HK|TBL|4205||Unisex|-71|2014-05-08
HK|TBL|4205||Unisex|-71|2014-05-09
HK|TBL|4205||Unisex|-73|2014-05-10
HK|TBL|4205||Woman|112|2014-05-01
HK|TBL|4205||Woman|110|2014-05-02
HK|TBL|4205||Woman|109|2014-05-03
HK|TBL|4205||Woman|106|2014-05-04
HK|TBL|4205||Woman|109|2014-05-05
HK|TBL|4205||Woman|104|2014-05-06
HK|TBL|4205||Woman|101|2014-05-07
HK|TBL|4205||Woman|113|2014-05-08
HK|TBL|4205||Woman|113|2014-05-09
HK|TBL|4205||Woman|111|2014-05-10
HK|TBL|4205||Y|28|2014-05-01
HK|TBL|4205||Y|28|2014-05-02
HK|TBL|4205||Y|27|2014-05-03
HK|TBL|4205||Y|28|2014-05-04
HK|TBL|4205||Y|28|2014-05-05
HK|TBL|4205||Y|26|2014-05-06
HK|TBL|4205||Y|25|2014-05-07
HK|TBL|4205||Y|26|2014-05-08
HK|TBL|4205||Y|25|2014-05-09
HK|TBL|4205||Y|25|2014-05-10
HK|TBL|4205|||26|2014-05-01
HK|TBL|4205|||25|2014-05-02
HK|TBL|4205|||24|2014-05-03
HK|TBL|4205|||24|2014-05-04
HK|TBL|4205|||25|2014-05-05
HK|TBL|4205|||25|2014-05-06
HK|TBL|4205|||25|2014-05-07
HK|TBL|4205|||25|2014-05-08
HK|TBL|4205|||25|2014-05-09
HK|TBL|4205|||25|2014-05-10
HK|TBL|4206|Accessories|Male|404|2014-05-01
HK|TBL|4206|Accessories|Male|405|2014-05-02
HK|TBL|4206|Accessories|Male|400|2014-05-03
HK|TBL|4206|Accessories|Male|395|2014-05-04
HK|TBL|4206|Accessories|Male|395|2014-05-05
HK|TBL|4206|Accessories|Male|401|2014-05-06
HK|TBL|4206|Accessories|Male|401|2014-05-07
HK|TBL|4206|Accessories|Male|410|2014-05-08
HK|TBL|4206|Accessories|Male|410|2014-05-09
HK|TBL|4206|Accessories|Male|486|2014-05-10
HK|TBL|4206|Accessories|Woman|36|2014-05-01
HK|TBL|4206|Accessories|Woman|39|2014-05-02
HK|TBL|4206|Accessories|Woman|37|2014-05-03
HK|TBL|4206|Accessories|Woman|35|2014-05-04
HK|TBL|4206|Accessories|Woman|35|2014-05-05
HK|TBL|4206|Accessories|Woman|35|2014-05-06
HK|TBL|4206|Accessories|Woman|34|2014-05-07
HK|TBL|4206|Accessories|Woman|38|2014-05-08
HK|TBL|4206|Accessories|Woman|38|2014-05-09
HK|TBL|4206|Accessories|Woman|54|2014-05-10
HK|TBL|4206|Apparel|Male|2445|2014-05-01
HK|TBL|4206|Apparel|Male|2669|2014-05-02
HK|TBL|4206|Apparel|Male|2647|2014-05-03
HK|TBL|4206|Apparel|Male|2633|2014-05-04
HK|TBL|4206|Apparel|Male|2626|2014-05-05
HK|TBL|4206|Apparel|Male|2638|2014-05-06
HK|TBL|4206|Apparel|Male|2628|2014-05-07
HK|TBL|4206|Apparel|Male|2659|2014-05-08
HK|TBL|4206|Apparel|Male|2777|2014-05-09
HK|TBL|4206|Apparel|Male|2915|2014-05-10
HK|TBL|4206|Apparel|Woman|817|2014-05-01
HK|TBL|4206|Apparel|Woman|839|2014-05-02
HK|TBL|4206|Apparel|Woman|836|2014-05-03
HK|TBL|4206|Apparel|Woman|833|2014-05-04
HK|TBL|4206|Apparel|Woman|824|2014-05-05
HK|TBL|4206|Apparel|Woman|829|2014-05-06
HK|TBL|4206|Apparel|Woman|825|2014-05-07
HK|TBL|4206|Apparel|Woman|827|2014-05-08
HK|TBL|4206|Apparel|Woman|830|2014-05-09
HK|TBL|4206|Apparel|Woman|862|2014-05-10
HK|TBL|4206|Footwear|Male|1060|2014-05-01
HK|TBL|4206|Footwear|Male|1083|2014-05-02
HK|TBL|4206|Footwear|Male|1074|2014-05-03
HK|TBL|4206|Footwear|Male|1067|2014-05-04
HK|TBL|4206|Footwear|Male|1065|2014-05-05
HK|TBL|4206|Footwear|Male|1071|2014-05-06
HK|TBL|4206|Footwear|Male|1064|2014-05-07
HK|TBL|4206|Footwear|Male|1076|2014-05-08
HK|TBL|4206|Footwear|Male|1082|2014-05-09
HK|TBL|4206|Footwear|Male|1127|2014-05-10
HK|TBL|4206|Footwear|Woman|608|2014-05-01
HK|TBL|4206|Footwear|Woman|618|2014-05-02
HK|TBL|4206|Footwear|Woman|612|2014-05-03
HK|TBL|4206|Footwear|Woman|603|2014-05-04
HK|TBL|4206|Footwear|Woman|602|2014-05-05
HK|TBL|4206|Footwear|Woman|600|2014-05-06
HK|TBL|4206|Footwear|Woman|592|2014-05-07
HK|TBL|4206|Footwear|Woman|603|2014-05-08
HK|TBL|4206|Footwear|Woman|608|2014-05-09
HK|TBL|4206|Footwear|Woman|787|2014-05-10
HK|TBL|4206||Male|1268|2014-05-01
HK|TBL|4206||Male|1311|2014-05-02
HK|TBL|4206||Male|1303|2014-05-03
HK|TBL|4206||Male|1292|2014-05-04
HK|TBL|4206||Male|1278|2014-05-05
HK|TBL|4206||Male|1282|2014-05-06
HK|TBL|4206||Male|1275|2014-05-07
HK|TBL|4206||Male|1296|2014-05-08
HK|TBL|4206||Male|1320|2014-05-09
HK|TBL|4206||Male|1366|2014-05-10
HK|TBL|4206||Toddler|19|2014-05-01
HK|TBL|4206||Toddler|19|2014-05-02
HK|TBL|4206||Toddler|19|2014-05-03
HK|TBL|4206||Toddler|19|2014-05-04
HK|TBL|4206||Toddler|19|2014-05-05
HK|TBL|4206||Toddler|19|2014-05-06
HK|TBL|4206||Toddler|19|2014-05-07
HK|TBL|4206||Toddler|19|2014-05-08
HK|TBL|4206||Toddler|19|2014-05-09
HK|TBL|4206||Toddler|19|2014-05-10
HK|TBL|4206||Unisex|-40|2014-05-01
HK|TBL|4206||Unisex|-41|2014-05-02
HK|TBL|4206||Unisex|-41|2014-05-03
HK|TBL|4206||Unisex|-41|2014-05-04
HK|TBL|4206||Unisex|-41|2014-05-05
HK|TBL|4206||Unisex|-41|2014-05-06
HK|TBL|4206||Unisex|-41|2014-05-07
HK|TBL|4206||Unisex|-41|2014-05-08
HK|TBL|4206||Unisex|-41|2014-05-09
HK|TBL|4206||Unisex|-41|2014-05-10
HK|TBL|4206||Woman|120|2014-05-01
HK|TBL|4206||Woman|125|2014-05-02
HK|TBL|4206||Woman|124|2014-05-03
HK|TBL|4206||Woman|124|2014-05-04
HK|TBL|4206||Woman|125|2014-05-05
HK|TBL|4206||Woman|122|2014-05-06
HK|TBL|4206||Woman|117|2014-05-07
HK|TBL|4206||Woman|121|2014-05-08
HK|TBL|4206||Woman|121|2014-05-09
HK|TBL|4206||Woman|158|2014-05-10
HK|TBL|4206||Y|22|2014-05-01
HK|TBL|4206||Y|22|2014-05-02
HK|TBL|4206||Y|22|2014-05-03
HK|TBL|4206||Y|22|2014-05-04
HK|TBL|4206||Y|22|2014-05-05
HK|TBL|4206||Y|22|2014-05-06
HK|TBL|4206||Y|22|2014-05-07
HK|TBL|4206||Y|22|2014-05-08
HK|TBL|4206||Y|22|2014-05-09
HK|TBL|4206||Y|22|2014-05-10
HK|TBL|4206|||34|2014-05-01
HK|TBL|4206|||35|2014-05-02
HK|TBL|4206|||33|2014-05-03
HK|TBL|4206|||32|2014-05-04
HK|TBL|4206|||30|2014-05-05
HK|TBL|4206|||30|2014-05-06
HK|TBL|4206|||29|2014-05-07
HK|TBL|4206|||29|2014-05-08
HK|TBL|4206|||29|2014-05-09
HK|TBL|4206|||31|2014-05-10
HK|TBL|4207|Accessories|Male|367|2014-05-01
HK|TBL|4207|Accessories|Male|363|2014-05-02
HK|TBL|4207|Accessories|Male|403|2014-05-03
HK|TBL|4207|Accessories|Male|400|2014-05-04
HK|TBL|4207|Accessories|Male|401|2014-05-05
HK|TBL|4207|Accessories|Male|394|2014-05-06
HK|TBL|4207|Accessories|Male|390|2014-05-07
HK|TBL|4207|Accessories|Male|405|2014-05-08
HK|TBL|4207|Accessories|Male|403|2014-05-09
HK|TBL|4207|Accessories|Male|391|2014-05-10
HK|TBL|4207|Accessories|Woman|17|2014-05-01
HK|TBL|4207|Accessories|Woman|16|2014-05-02
HK|TBL|4207|Accessories|Woman|16|2014-05-03
HK|TBL|4207|Accessories|Woman|16|2014-05-04
HK|TBL|4207|Accessories|Woman|17|2014-05-05
HK|TBL|4207|Accessories|Woman|17|2014-05-06
HK|TBL|4207|Accessories|Woman|17|2014-05-07
HK|TBL|4207|Accessories|Woman|17|2014-05-08
HK|TBL|4207|Accessories|Woman|17|2014-05-09
HK|TBL|4207|Accessories|Woman|17|2014-05-10
HK|TBL|4207|Apparel|Male|2373|2014-05-01
HK|TBL|4207|Apparel|Male|2334|2014-05-02
HK|TBL|4207|Apparel|Male|2360|2014-05-03
HK|TBL|4207|Apparel|Male|2346|2014-05-04
HK|TBL|4207|Apparel|Male|2423|2014-05-05
HK|TBL|4207|Apparel|Male|2398|2014-05-06
HK|TBL|4207|Apparel|Male|2313|2014-05-07
HK|TBL|4207|Apparel|Male|2466|2014-05-08
HK|TBL|4207|Apparel|Male|2493|2014-05-09
HK|TBL|4207|Apparel|Male|2497|2014-05-10
HK|TBL|4207|Apparel|Woman|2|2014-05-01
HK|TBL|4207|Apparel|Woman|2|2014-05-02
HK|TBL|4207|Apparel|Woman|2|2014-05-03
HK|TBL|4207|Apparel|Woman|-1|2014-05-04
HK|TBL|4207|Apparel|Woman|-1|2014-05-05
HK|TBL|4207|Apparel|Woman|-2|2014-05-06
HK|TBL|4207|Apparel|Woman|-2|2014-05-07
HK|TBL|4207|Apparel|Woman|-2|2014-05-08
HK|TBL|4207|Apparel|Woman|-2|2014-05-09
HK|TBL|4207|Apparel|Woman|-2|2014-05-10
HK|TBL|4207|Footwear|Male|914|2014-05-01
HK|TBL|4207|Footwear|Male|907|2014-05-02
HK|TBL|4207|Footwear|Male|912|2014-05-03
HK|TBL|4207|Footwear|Male|900|2014-05-04
HK|TBL|4207|Footwear|Male|920|2014-05-05
HK|TBL|4207|Footwear|Male|909|2014-05-06
HK|TBL|4207|Footwear|Male|901|2014-05-07
HK|TBL|4207|Footwear|Male|932|2014-05-08
HK|TBL|4207|Footwear|Male|936|2014-05-09
HK|TBL|4207|Footwear|Male|923|2014-05-10
HK|TBL|4207|Footwear|Woman|299|2014-05-01
HK|TBL|4207|Footwear|Woman|296|2014-05-02
HK|TBL|4207|Footwear|Woman|297|2014-05-03
HK|TBL|4207|Footwear|Woman|291|2014-05-04
HK|TBL|4207|Footwear|Woman|303|2014-05-05
HK|TBL|4207|Footwear|Woman|301|2014-05-06
HK|TBL|4207|Footwear|Woman|296|2014-05-07
HK|TBL|4207|Footwear|Woman|311|2014-05-08
HK|TBL|4207|Footwear|Woman|330|2014-05-09
HK|TBL|4207|Footwear|Woman|327|2014-05-10
HK|TBL|4207|Footwear||1|2014-05-01
HK|TBL|4207|Footwear||1|2014-05-02
HK|TBL|4207|Footwear||1|2014-05-03
HK|TBL|4207|Footwear||1|2014-05-04
HK|TBL|4207|Footwear||2|2014-05-05
HK|TBL|4207|Footwear||1|2014-05-06
HK|TBL|4207|Footwear||1|2014-05-07
HK|TBL|4207|Footwear||1|2014-05-08
HK|TBL|4207|Footwear||1|2014-05-09
HK|TBL|4207|Footwear||1|2014-05-10
HK|TBL|4207||Male|1302|2014-05-01
HK|TBL|4207||Male|1286|2014-05-02
HK|TBL|4207||Male|1322|2014-05-03
HK|TBL|4207||Male|1301|2014-05-04
HK|TBL|4207||Male|1322|2014-05-05
HK|TBL|4207||Male|1302|2014-05-06
HK|TBL|4207||Male|1264|2014-05-07
HK|TBL|4207||Male|1337|2014-05-08
HK|TBL|4207||Male|1336|2014-05-09
HK|TBL|4207||Male|1314|2014-05-10
HK|TBL|4207||Unisex|-4|2014-05-01
HK|TBL|4207||Unisex|-4|2014-05-02
HK|TBL|4207||Unisex|-4|2014-05-03
HK|TBL|4207||Unisex|-4|2014-05-04
HK|TBL|4207||Unisex|-4|2014-05-05
HK|TBL|4207||Unisex|-5|2014-05-06
HK|TBL|4207||Unisex|-5|2014-05-07
HK|TBL|4207||Unisex|-5|2014-05-08
HK|TBL|4207||Unisex|-5|2014-05-09
HK|TBL|4207||Unisex|-5|2014-05-10
HK|TBL|4207||Woman|146|2014-05-01
HK|TBL|4207||Woman|143|2014-05-02
HK|TBL|4207||Woman|189|2014-05-03
HK|TBL|4207||Woman|185|2014-05-04
HK|TBL|4207||Woman|187|2014-05-05
HK|TBL|4207||Woman|185|2014-05-06
HK|TBL|4207||Woman|183|2014-05-07
HK|TBL|4207||Woman|185|2014-05-08
HK|TBL|4207||Woman|184|2014-05-09
HK|TBL|4207||Woman|182|2014-05-10
HK|TBL|4207||Y|7|2014-05-01
HK|TBL|4207||Y|7|2014-05-02
HK|TBL|4207||Y|7|2014-05-03
HK|TBL|4207||Y|6|2014-05-04
HK|TBL|4207||Y|8|2014-05-05
HK|TBL|4207||Y|8|2014-05-06
HK|TBL|4207||Y|8|2014-05-07
HK|TBL|4207||Y|9|2014-05-08
HK|TBL|4207||Y|9|2014-05-09
HK|TBL|4207||Y|7|2014-05-10
HK|TBL|4207|||21|2014-05-01
HK|TBL|4207|||20|2014-05-02
HK|TBL|4207|||20|2014-05-03
HK|TBL|4207|||19|2014-05-04
HK|TBL|4207|||20|2014-05-05
HK|TBL|4207|||19|2014-05-06
HK|TBL|4207|||19|2014-05-07
HK|TBL|4207|||22|2014-05-08
HK|TBL|4207|||21|2014-05-09
HK|TBL|4207|||21|2014-05-10
HK|TBL|4208|Accessories|Male|258|2014-05-01
HK|TBL|4208|Accessories|Male|253|2014-05-02
HK|TBL|4208|Accessories|Male|254|2014-05-03
HK|TBL|4208|Accessories|Male|249|2014-05-04
HK|TBL|4208|Accessories|Male|249|2014-05-05
HK|TBL|4208|Accessories|Male|248|2014-05-06
HK|TBL|4208|Accessories|Male|247|2014-05-07
HK|TBL|4208|Accessories|Male|261|2014-05-08
HK|TBL|4208|Accessories|Male|258|2014-05-09
HK|TBL|4208|Accessories|Male|254|2014-05-10
HK|TBL|4208|Accessories|Woman|28|2014-05-01
HK|TBL|4208|Accessories|Woman|28|2014-05-02
HK|TBL|4208|Accessories|Woman|28|2014-05-03
HK|TBL|4208|Accessories|Woman|28|2014-05-04
HK|TBL|4208|Accessories|Woman|28|2014-05-05
HK|TBL|4208|Accessories|Woman|29|2014-05-06
HK|TBL|4208|Accessories|Woman|28|2014-05-07
HK|TBL|4208|Accessories|Woman|28|2014-05-08
HK|TBL|4208|Accessories|Woman|28|2014-05-09
HK|TBL|4208|Accessories|Woman|26|2014-05-10
HK|TBL|4208|Apparel|Male|1363|2014-05-01
HK|TBL|4208|Apparel|Male|1348|2014-05-02
HK|TBL|4208|Apparel|Male|1338|2014-05-03
HK|TBL|4208|Apparel|Male|1317|2014-05-04
HK|TBL|4208|Apparel|Male|1313|2014-05-05
HK|TBL|4208|Apparel|Male|1318|2014-05-06
HK|TBL|4208|Apparel|Male|1313|2014-05-07
HK|TBL|4208|Apparel|Male|1439|2014-05-08
HK|TBL|4208|Apparel|Male|1433|2014-05-09
HK|TBL|4208|Apparel|Male|1419|2014-05-10
HK|TBL|4208|Apparel|Woman|461|2014-05-01
HK|TBL|4208|Apparel|Woman|460|2014-05-02
HK|TBL|4208|Apparel|Woman|463|2014-05-03
HK|TBL|4208|Apparel|Woman|457|2014-05-04
HK|TBL|4208|Apparel|Woman|457|2014-05-05
HK|TBL|4208|Apparel|Woman|453|2014-05-06
HK|TBL|4208|Apparel|Woman|453|2014-05-07
HK|TBL|4208|Apparel|Woman|458|2014-05-08
HK|TBL|4208|Apparel|Woman|456|2014-05-09
HK|TBL|4208|Apparel|Woman|453|2014-05-10
HK|TBL|4208|Footwear|Male|652|2014-05-01
HK|TBL|4208|Footwear|Male|645|2014-05-02
HK|TBL|4208|Footwear|Male|643|2014-05-03
HK|TBL|4208|Footwear|Male|639|2014-05-04
HK|TBL|4208|Footwear|Male|635|2014-05-05
HK|TBL|4208|Footwear|Male|634|2014-05-06
HK|TBL|4208|Footwear|Male|632|2014-05-07
HK|TBL|4208|Footwear|Male|652|2014-05-08
HK|TBL|4208|Footwear|Male|646|2014-05-09
HK|TBL|4208|Footwear|Male|638|2014-05-10
HK|TBL|4208|Footwear|Toddler|2|2014-05-09
HK|TBL|4208|Footwear|Toddler|2|2014-05-10
HK|TBL|4208|Footwear|Woman|390|2014-05-01
HK|TBL|4208|Footwear|Woman|387|2014-05-02
HK|TBL|4208|Footwear|Woman|385|2014-05-03
HK|TBL|4208|Footwear|Woman|379|2014-05-04
HK|TBL|4208|Footwear|Woman|380|2014-05-05
HK|TBL|4208|Footwear|Woman|387|2014-05-06
HK|TBL|4208|Footwear|Woman|384|2014-05-07
HK|TBL|4208|Footwear|Woman|394|2014-05-08
HK|TBL|4208|Footwear|Woman|394|2014-05-09
HK|TBL|4208|Footwear|Woman|390|2014-05-10
HK|TBL|4208||Male|1014|2014-05-01
HK|TBL|4208||Male|991|2014-05-02
HK|TBL|4208||Male|995|2014-05-03
HK|TBL|4208||Male|980|2014-05-04
HK|TBL|4208||Male|974|2014-05-05
HK|TBL|4208||Male|986|2014-05-06
HK|TBL|4208||Male|976|2014-05-07
HK|TBL|4208||Male|1033|2014-05-08
HK|TBL|4208||Male|1015|2014-05-09
HK|TBL|4208||Male|995|2014-05-10
HK|TBL|4208||Toddler|10|2014-05-01
HK|TBL|4208||Toddler|10|2014-05-02
HK|TBL|4208||Toddler|10|2014-05-03
HK|TBL|4208||Toddler|10|2014-05-04
HK|TBL|4208||Toddler|10|2014-05-05
HK|TBL|4208||Toddler|10|2014-05-06
HK|TBL|4208||Toddler|9|2014-05-07
HK|TBL|4208||Toddler|9|2014-05-08
HK|TBL|4208||Toddler|9|2014-05-09
HK|TBL|4208||Toddler|9|2014-05-10
HK|TBL|4208||Unisex|-8|2014-05-01
HK|TBL|4208||Unisex|-8|2014-05-02
HK|TBL|4208||Unisex|-8|2014-05-03
HK|TBL|4208||Unisex|-8|2014-05-04
HK|TBL|4208||Unisex|-8|2014-05-05
HK|TBL|4208||Unisex|-8|2014-05-06
HK|TBL|4208||Unisex|-8|2014-05-07
HK|TBL|4208||Unisex|-8|2014-05-08
HK|TBL|4208||Unisex|-8|2014-05-09
HK|TBL|4208||Unisex|-8|2014-05-10
HK|TBL|4208||Woman|98|2014-05-01
HK|TBL|4208||Woman|95|2014-05-02
HK|TBL|4208||Woman|96|2014-05-03
HK|TBL|4208||Woman|94|2014-05-04
HK|TBL|4208||Woman|97|2014-05-05
HK|TBL|4208||Woman|97|2014-05-06
HK|TBL|4208||Woman|97|2014-05-07
HK|TBL|4208||Woman|104|2014-05-08
HK|TBL|4208||Woman|100|2014-05-09
HK|TBL|4208||Woman|99|2014-05-10
HK|TBL|4208||Y|12|2014-05-01
HK|TBL|4208||Y|12|2014-05-02
HK|TBL|4208||Y|12|2014-05-03
HK|TBL|4208||Y|12|2014-05-04
HK|TBL|4208||Y|12|2014-05-05
HK|TBL|4208||Y|11|2014-05-06
HK|TBL|4208||Y|10|2014-05-07
HK|TBL|4208||Y|10|2014-05-08
HK|TBL|4208||Y|10|2014-05-09
HK|TBL|4208||Y|10|2014-05-10
HK|TBL|4208|||21|2014-05-01
HK|TBL|4208|||21|2014-05-02
HK|TBL|4208|||20|2014-05-03
HK|TBL|4208|||19|2014-05-04
HK|TBL|4208|||19|2014-05-05
HK|TBL|4208|||18|2014-05-06
HK|TBL|4208|||18|2014-05-07
HK|TBL|4208|||23|2014-05-08
HK|TBL|4208|||23|2014-05-09
HK|TBL|4208|||23|2014-05-10
HK|TBL|4209|Accessories|Male|314|2014-05-01
HK|TBL|4209|Accessories|Male|312|2014-05-02
HK|TBL|4209|Accessories|Male|312|2014-05-03
HK|TBL|4209|Accessories|Male|311|2014-05-04
HK|TBL|4209|Accessories|Male|310|2014-05-05
HK|TBL|4209|Accessories|Male|309|2014-05-06
HK|TBL|4209|Accessories|Male|308|2014-05-07
HK|TBL|4209|Accessories|Male|317|2014-05-08
HK|TBL|4209|Accessories|Male|313|2014-05-09
HK|TBL|4209|Accessories|Male|394|2014-05-10
HK|TBL|4209|Accessories|Woman|15|2014-05-01
HK|TBL|4209|Accessories|Woman|15|2014-05-02
HK|TBL|4209|Accessories|Woman|15|2014-05-03
HK|TBL|4209|Accessories|Woman|14|2014-05-04
HK|TBL|4209|Accessories|Woman|14|2014-05-05
HK|TBL|4209|Accessories|Woman|14|2014-05-06
HK|TBL|4209|Accessories|Woman|14|2014-05-07
HK|TBL|4209|Accessories|Woman|15|2014-05-08
HK|TBL|4209|Accessories|Woman|15|2014-05-09
HK|TBL|4209|Accessories|Woman|15|2014-05-10
HK|TBL|4209|Apparel|Male|1917|2014-05-01
HK|TBL|4209|Apparel|Male|1969|2014-05-02
HK|TBL|4209|Apparel|Male|1949|2014-05-03
HK|TBL|4209|Apparel|Male|1922|2014-05-04
HK|TBL|4209|Apparel|Male|1913|2014-05-05
HK|TBL|4209|Apparel|Male|1942|2014-05-06
HK|TBL|4209|Apparel|Male|1919|2014-05-07
HK|TBL|4209|Apparel|Male|2042|2014-05-08
HK|TBL|4209|Apparel|Male|2030|2014-05-09
HK|TBL|4209|Apparel|Male|2217|2014-05-10
HK|TBL|4209|Apparel|Woman|29|2014-05-01
HK|TBL|4209|Apparel|Woman|29|2014-05-02
HK|TBL|4209|Apparel|Woman|29|2014-05-03
HK|TBL|4209|Apparel|Woman|29|2014-05-04
HK|TBL|4209|Apparel|Woman|29|2014-05-05
HK|TBL|4209|Apparel|Woman|31|2014-05-06
HK|TBL|4209|Apparel|Woman|31|2014-05-07
HK|TBL|4209|Apparel|Woman|31|2014-05-08
HK|TBL|4209|Apparel|Woman|33|2014-05-09
HK|TBL|4209|Apparel|Woman|33|2014-05-10
HK|TBL|4209|Footwear|Male|695|2014-05-01
HK|TBL|4209|Footwear|Male|704|2014-05-02
HK|TBL|4209|Footwear|Male|702|2014-05-03
HK|TBL|4209|Footwear|Male|696|2014-05-04
HK|TBL|4209|Footwear|Male|690|2014-05-05
HK|TBL|4209|Footwear|Male|698|2014-05-06
HK|TBL|4209|Footwear|Male|692|2014-05-07
HK|TBL|4209|Footwear|Male|711|2014-05-08
HK|TBL|4209|Footwear|Male|707|2014-05-09
HK|TBL|4209|Footwear|Male|698|2014-05-10
HK|TBL|4209|Footwear|Toddler|1|2014-05-01
HK|TBL|4209|Footwear|Toddler|1|2014-05-02
HK|TBL|4209|Footwear|Toddler|1|2014-05-03
HK|TBL|4209|Footwear|Toddler|1|2014-05-04
HK|TBL|4209|Footwear|Toddler|1|2014-05-05
HK|TBL|4209|Footwear|Toddler|-1|2014-05-06
HK|TBL|4209|Footwear|Toddler|-1|2014-05-07
HK|TBL|4209|Footwear|Toddler|-1|2014-05-08
HK|TBL|4209|Footwear|Toddler|-1|2014-05-09
HK|TBL|4209|Footwear|Toddler|-1|2014-05-10
HK|TBL|4209|Footwear|Woman|373|2014-05-01
HK|TBL|4209|Footwear|Woman|376|2014-05-02
HK|TBL|4209|Footwear|Woman|376|2014-05-03
HK|TBL|4209|Footwear|Woman|370|2014-05-04
HK|TBL|4209|Footwear|Woman|369|2014-05-05
HK|TBL|4209|Footwear|Woman|365|2014-05-06
HK|TBL|4209|Footwear|Woman|360|2014-05-07
HK|TBL|4209|Footwear|Woman|369|2014-05-08
HK|TBL|4209|Footwear|Woman|369|2014-05-09
HK|TBL|4209|Footwear|Woman|368|2014-05-10
HK|TBL|4209|Footwear||2|2014-05-01
HK|TBL|4209|Footwear||2|2014-05-02
HK|TBL|4209|Footwear||2|2014-05-03
HK|TBL|4209|Footwear||2|2014-05-04
HK|TBL|4209|Footwear||2|2014-05-05
HK|TBL|4209|Footwear||2|2014-05-06
HK|TBL|4209|Footwear||2|2014-05-07
HK|TBL|4209|Footwear||2|2014-05-08
HK|TBL|4209|Footwear||2|2014-05-09
HK|TBL|4209|Footwear||2|2014-05-10
HK|TBL|4209||Male|1135|2014-05-01
HK|TBL|4209||Male|1153|2014-05-02
HK|TBL|4209||Male|1146|2014-05-03
HK|TBL|4209||Male|1133|2014-05-04
HK|TBL|4209||Male|1124|2014-05-05
HK|TBL|4209||Male|1126|2014-05-06
HK|TBL|4209||Male|1115|2014-05-07
HK|TBL|4209||Male|1178|2014-05-08
HK|TBL|4209||Male|1170|2014-05-09
HK|TBL|4209||Male|1187|2014-05-10
HK|TBL|4209||Toddler|10|2014-05-01
HK|TBL|4209||Toddler|10|2014-05-02
HK|TBL|4209||Toddler|10|2014-05-03
HK|TBL|4209||Toddler|10|2014-05-04
HK|TBL|4209||Toddler|10|2014-05-05
HK|TBL|4209||Toddler|10|2014-05-06
HK|TBL|4209||Toddler|10|2014-05-07
HK|TBL|4209||Toddler|10|2014-05-08
HK|TBL|4209||Toddler|10|2014-05-09
HK|TBL|4209||Toddler|10|2014-05-10
HK|TBL|4209||Unisex|-18|2014-05-01
HK|TBL|4209||Unisex|-18|2014-05-02
HK|TBL|4209||Unisex|-18|2014-05-03
HK|TBL|4209||Unisex|-18|2014-05-04
HK|TBL|4209||Unisex|-18|2014-05-05
HK|TBL|4209||Unisex|-18|2014-05-06
HK|TBL|4209||Unisex|-19|2014-05-07
HK|TBL|4209||Unisex|-19|2014-05-08
HK|TBL|4209||Unisex|-19|2014-05-09
HK|TBL|4209||Unisex|-19|2014-05-10
HK|TBL|4209||Woman|101|2014-05-01
HK|TBL|4209||Woman|102|2014-05-02
HK|TBL|4209||Woman|103|2014-05-03
HK|TBL|4209||Woman|102|2014-05-04
HK|TBL|4209||Woman|101|2014-05-05
HK|TBL|4209||Woman|95|2014-05-06
HK|TBL|4209||Woman|91|2014-05-07
HK|TBL|4209||Woman|100|2014-05-08
HK|TBL|4209||Woman|100|2014-05-09
HK|TBL|4209||Woman|101|2014-05-10
HK|TBL|4209||Y|11|2014-05-01
HK|TBL|4209||Y|10|2014-05-02
HK|TBL|4209||Y|10|2014-05-03
HK|TBL|4209||Y|10|2014-05-04
HK|TBL|4209||Y|10|2014-05-05
HK|TBL|4209||Y|10|2014-05-06
HK|TBL|4209||Y|10|2014-05-07
HK|TBL|4209||Y|10|2014-05-08
HK|TBL|4209||Y|10|2014-05-09
HK|TBL|4209||Y|10|2014-05-10
HK|TBL|4209|||50|2014-05-01
HK|TBL|4209|||50|2014-05-02
HK|TBL|4209|||50|2014-05-03
HK|TBL|4209|||49|2014-05-04
HK|TBL|4209|||48|2014-05-05
HK|TBL|4209|||47|2014-05-06
HK|TBL|4209|||46|2014-05-07
HK|TBL|4209|||48|2014-05-08
HK|TBL|4209|||48|2014-05-09
HK|TBL|4209|||45|2014-05-10
HK|TBL|4210|Accessories|Male|277|2014-05-01
HK|TBL|4210|Accessories|Male|276|2014-05-02
HK|TBL|4210|Accessories|Male|274|2014-05-03
HK|TBL|4210|Accessories|Male|270|2014-05-04
HK|TBL|4210|Accessories|Male|277|2014-05-05
HK|TBL|4210|Accessories|Male|274|2014-05-06
HK|TBL|4210|Accessories|Male|273|2014-05-07
HK|TBL|4210|Accessories|Male|279|2014-05-08
HK|TBL|4210|Accessories|Male|275|2014-05-09
HK|TBL|4210|Accessories|Male|270|2014-05-10
HK|TBL|4210|Accessories|Woman|35|2014-05-01
HK|TBL|4210|Accessories|Woman|35|2014-05-02
HK|TBL|4210|Accessories|Woman|35|2014-05-03
HK|TBL|4210|Accessories|Woman|35|2014-05-04
HK|TBL|4210|Accessories|Woman|35|2014-05-05
HK|TBL|4210|Accessories|Woman|33|2014-05-06
HK|TBL|4210|Accessories|Woman|33|2014-05-07
HK|TBL|4210|Accessories|Woman|33|2014-05-08
HK|TBL|4210|Accessories|Woman|33|2014-05-09
HK|TBL|4210|Accessories|Woman|32|2014-05-10
HK|TBL|4210|Apparel|Male|1781|2014-05-01
HK|TBL|4210|Apparel|Male|1779|2014-05-02
HK|TBL|4210|Apparel|Male|1768|2014-05-03
HK|TBL|4210|Apparel|Male|1758|2014-05-04
HK|TBL|4210|Apparel|Male|1788|2014-05-05
HK|TBL|4210|Apparel|Male|1787|2014-05-06
HK|TBL|4210|Apparel|Male|1785|2014-05-07
HK|TBL|4210|Apparel|Male|1787|2014-05-08
HK|TBL|4210|Apparel|Male|1828|2014-05-09
HK|TBL|4210|Apparel|Male|1817|2014-05-10
HK|TBL|4210|Apparel|Woman|487|2014-05-01
HK|TBL|4210|Apparel|Woman|484|2014-05-02
HK|TBL|4210|Apparel|Woman|483|2014-05-03
HK|TBL|4210|Apparel|Woman|483|2014-05-04
HK|TBL|4210|Apparel|Woman|490|2014-05-05
HK|TBL|4210|Apparel|Woman|486|2014-05-06
HK|TBL|4210|Apparel|Woman|486|2014-05-07
HK|TBL|4210|Apparel|Woman|487|2014-05-08
HK|TBL|4210|Apparel|Woman|484|2014-05-09
HK|TBL|4210|Apparel|Woman|471|2014-05-10
HK|TBL|4210|Footwear|Male|706|2014-05-01
HK|TBL|4210|Footwear|Male|704|2014-05-02
HK|TBL|4210|Footwear|Male|698|2014-05-03
HK|TBL|4210|Footwear|Male|690|2014-05-04
HK|TBL|4210|Footwear|Male|700|2014-05-05
HK|TBL|4210|Footwear|Male|698|2014-05-06
HK|TBL|4210|Footwear|Male|693|2014-05-07
HK|TBL|4210|Footwear|Male|706|2014-05-08
HK|TBL|4210|Footwear|Male|707|2014-05-09
HK|TBL|4210|Footwear|Male|703|2014-05-10
HK|TBL|4210|Footwear|Toddler|42|2014-05-01
HK|TBL|4210|Footwear|Toddler|42|2014-05-02
HK|TBL|4210|Footwear|Toddler|41|2014-05-03
HK|TBL|4210|Footwear|Toddler|39|2014-05-04
HK|TBL|4210|Footwear|Toddler|40|2014-05-05
HK|TBL|4210|Footwear|Toddler|38|2014-05-06
HK|TBL|4210|Footwear|Toddler|38|2014-05-07
HK|TBL|4210|Footwear|Toddler|40|2014-05-08
HK|TBL|4210|Footwear|Toddler|40|2014-05-09
HK|TBL|4210|Footwear|Toddler|40|2014-05-10
HK|TBL|4210|Footwear|Woman|301|2014-05-01
HK|TBL|4210|Footwear|Woman|302|2014-05-02
HK|TBL|4210|Footwear|Woman|299|2014-05-03
HK|TBL|4210|Footwear|Woman|298|2014-05-04
HK|TBL|4210|Footwear|Woman|303|2014-05-05
HK|TBL|4210|Footwear|Woman|296|2014-05-06
HK|TBL|4210|Footwear|Woman|295|2014-05-07
HK|TBL|4210|Footwear|Woman|300|2014-05-08
HK|TBL|4210|Footwear|Woman|299|2014-05-09
HK|TBL|4210|Footwear|Woman|291|2014-05-10
HK|TBL|4210|Footwear|Y|74|2014-05-01
HK|TBL|4210|Footwear|Y|74|2014-05-02
HK|TBL|4210|Footwear|Y|73|2014-05-03
HK|TBL|4210|Footwear|Y|72|2014-05-04
HK|TBL|4210|Footwear|Y|74|2014-05-05
HK|TBL|4210|Footwear|Y|73|2014-05-06
HK|TBL|4210|Footwear|Y|72|2014-05-07
HK|TBL|4210|Footwear|Y|73|2014-05-08
HK|TBL|4210|Footwear|Y|74|2014-05-09
HK|TBL|4210|Footwear|Y|72|2014-05-10
HK|TBL|4210|Footwear||4|2014-05-01
HK|TBL|4210|Footwear||4|2014-05-02
HK|TBL|4210|Footwear||4|2014-05-03
HK|TBL|4210|Footwear||4|2014-05-04
HK|TBL|4210|Footwear||4|2014-05-05
HK|TBL|4210|Footwear||4|2014-05-06
HK|TBL|4210|Footwear||4|2014-05-07
HK|TBL|4210|Footwear||4|2014-05-08
HK|TBL|4210|Footwear||4|2014-05-09
HK|TBL|4210|Footwear||4|2014-05-10
HK|TBL|4210||Male|1013|2014-05-01
HK|TBL|4210||Male|1010|2014-05-02
HK|TBL|4210||Male|997|2014-05-03
HK|TBL|4210||Male|982|2014-05-04
HK|TBL|4210||Male|1012|2014-05-05
HK|TBL|4210||Male|1007|2014-05-06
HK|TBL|4210||Male|1004|2014-05-07
HK|TBL|4210||Male|1036|2014-05-08
HK|TBL|4210||Male|1030|2014-05-09
HK|TBL|4210||Male|1017|2014-05-10
HK|TBL|4210||Toddler|22|2014-05-01
HK|TBL|4210||Toddler|22|2014-05-02
HK|TBL|4210||Toddler|22|2014-05-03
HK|TBL|4210||Toddler|21|2014-05-04
HK|TBL|4210||Toddler|22|2014-05-05
HK|TBL|4210||Toddler|22|2014-05-06
HK|TBL|4210||Toddler|22|2014-05-07
HK|TBL|4210||Toddler|23|2014-05-08
HK|TBL|4210||Toddler|23|2014-05-09
HK|TBL|4210||Toddler|23|2014-05-10
HK|TBL|4210||Unisex|-23|2014-05-01
HK|TBL|4210||Unisex|-23|2014-05-02
HK|TBL|4210||Unisex|-23|2014-05-03
HK|TBL|4210||Unisex|-23|2014-05-04
HK|TBL|4210||Unisex|-23|2014-05-05
HK|TBL|4210||Unisex|-23|2014-05-06
HK|TBL|4210||Unisex|-23|2014-05-07
HK|TBL|4210||Unisex|-23|2014-05-08
HK|TBL|4210||Unisex|-23|2014-05-09
HK|TBL|4210||Unisex|-23|2014-05-10
HK|TBL|4210||Woman|96|2014-05-01
HK|TBL|4210||Woman|96|2014-05-02
HK|TBL|4210||Woman|95|2014-05-03
HK|TBL|4210||Woman|92|2014-05-04
HK|TBL|4210||Woman|94|2014-05-05
HK|TBL|4210||Woman|92|2014-05-06
HK|TBL|4210||Woman|92|2014-05-07
HK|TBL|4210||Woman|93|2014-05-08
HK|TBL|4210||Woman|93|2014-05-09
HK|TBL|4210||Woman|92|2014-05-10
HK|TBL|4210||Y|19|2014-05-01
HK|TBL|4210||Y|19|2014-05-02
HK|TBL|4210||Y|19|2014-05-03
HK|TBL|4210||Y|19|2014-05-04
HK|TBL|4210||Y|19|2014-05-05
HK|TBL|4210||Y|19|2014-05-06
HK|TBL|4210||Y|19|2014-05-07
HK|TBL|4210||Y|19|2014-05-08
HK|TBL|4210||Y|19|2014-05-09
HK|TBL|4210||Y|19|2014-05-10
HK|TBL|4210|||20|2014-05-01
HK|TBL|4210|||20|2014-05-02
HK|TBL|4210|||20|2014-05-03
HK|TBL|4210|||19|2014-05-04
HK|TBL|4210|||19|2014-05-05
HK|TBL|4210|||20|2014-05-06
HK|TBL|4210|||20|2014-05-07
HK|TBL|4210|||21|2014-05-08
HK|TBL|4210|||21|2014-05-09
HK|TBL|4210|||21|2014-05-10
HK|TBL|4211|Accessories|Male|253|2014-05-01
HK|TBL|4211|Accessories|Male|252|2014-05-02
HK|TBL|4211|Accessories|Male|252|2014-05-03
HK|TBL|4211|Accessories|Male|252|2014-05-04
HK|TBL|4211|Accessories|Male|251|2014-05-05
HK|TBL|4211|Accessories|Male|246|2014-05-06
HK|TBL|4211|Accessories|Male|244|2014-05-07
HK|TBL|4211|Accessories|Male|253|2014-05-08
HK|TBL|4211|Accessories|Male|255|2014-05-09
HK|TBL|4211|Accessories|Male|255|2014-05-10
HK|TBL|4211|Accessories|Woman|17|2014-05-01
HK|TBL|4211|Accessories|Woman|18|2014-05-02
HK|TBL|4211|Accessories|Woman|18|2014-05-03
HK|TBL|4211|Accessories|Woman|20|2014-05-04
HK|TBL|4211|Accessories|Woman|20|2014-05-05
HK|TBL|4211|Accessories|Woman|20|2014-05-06
HK|TBL|4211|Accessories|Woman|20|2014-05-07
HK|TBL|4211|Accessories|Woman|20|2014-05-08
HK|TBL|4211|Accessories|Woman|20|2014-05-09
HK|TBL|4211|Accessories|Woman|20|2014-05-10
HK|TBL|4211|Apparel|Male|2111|2014-05-01
HK|TBL|4211|Apparel|Male|2123|2014-05-02
HK|TBL|4211|Apparel|Male|2122|2014-05-03
HK|TBL|4211|Apparel|Male|2111|2014-05-04
HK|TBL|4211|Apparel|Male|2094|2014-05-05
HK|TBL|4211|Apparel|Male|2093|2014-05-06
HK|TBL|4211|Apparel|Male|2091|2014-05-07
HK|TBL|4211|Apparel|Male|2196|2014-05-08
HK|TBL|4211|Apparel|Male|2415|2014-05-09
HK|TBL|4211|Apparel|Male|2395|2014-05-10
HK|TBL|4211|Apparel|Woman|7|2014-05-01
HK|TBL|4211|Apparel|Woman|12|2014-05-02
HK|TBL|4211|Apparel|Woman|12|2014-05-03
HK|TBL|4211|Apparel|Woman|13|2014-05-04
HK|TBL|4211|Apparel|Woman|13|2014-05-05
HK|TBL|4211|Apparel|Woman|10|2014-05-06
HK|TBL|4211|Apparel|Woman|10|2014-05-07
HK|TBL|4211|Apparel|Woman|10|2014-05-08
HK|TBL|4211|Apparel|Woman|10|2014-05-09
HK|TBL|4211|Apparel|Woman|10|2014-05-10
HK|TBL|4211|Footwear|Male|665|2014-05-01
HK|TBL|4211|Footwear|Male|666|2014-05-02
HK|TBL|4211|Footwear|Male|662|2014-05-03
HK|TBL|4211|Footwear|Male|659|2014-05-04
HK|TBL|4211|Footwear|Male|656|2014-05-05
HK|TBL|4211|Footwear|Male|657|2014-05-06
HK|TBL|4211|Footwear|Male|656|2014-05-07
HK|TBL|4211|Footwear|Male|666|2014-05-08
HK|TBL|4211|Footwear|Male|661|2014-05-09
HK|TBL|4211|Footwear|Male|659|2014-05-10
HK|TBL|4211|Footwear|Toddler|32|2014-05-01
HK|TBL|4211|Footwear|Toddler|33|2014-05-02
HK|TBL|4211|Footwear|Toddler|33|2014-05-03
HK|TBL|4211|Footwear|Toddler|33|2014-05-04
HK|TBL|4211|Footwear|Toddler|33|2014-05-05
HK|TBL|4211|Footwear|Toddler|33|2014-05-06
HK|TBL|4211|Footwear|Toddler|33|2014-05-07
HK|TBL|4211|Footwear|Toddler|33|2014-05-08
HK|TBL|4211|Footwear|Toddler|32|2014-05-09
HK|TBL|4211|Footwear|Toddler|33|2014-05-10
HK|TBL|4211|Footwear|Woman|272|2014-05-01
HK|TBL|4211|Footwear|Woman|274|2014-05-02
HK|TBL|4211|Footwear|Woman|274|2014-05-03
HK|TBL|4211|Footwear|Woman|274|2014-05-04
HK|TBL|4211|Footwear|Woman|272|2014-05-05
HK|TBL|4211|Footwear|Woman|272|2014-05-06
HK|TBL|4211|Footwear|Woman|272|2014-05-07
HK|TBL|4211|Footwear|Woman|275|2014-05-08
HK|TBL|4211|Footwear|Woman|274|2014-05-09
HK|TBL|4211|Footwear|Woman|271|2014-05-10
HK|TBL|4211|Footwear|Y|59|2014-05-01
HK|TBL|4211|Footwear|Y|62|2014-05-02
HK|TBL|4211|Footwear|Y|62|2014-05-03
HK|TBL|4211|Footwear|Y|62|2014-05-04
HK|TBL|4211|Footwear|Y|62|2014-05-05
HK|TBL|4211|Footwear|Y|63|2014-05-06
HK|TBL|4211|Footwear|Y|61|2014-05-07
HK|TBL|4211|Footwear|Y|61|2014-05-08
HK|TBL|4211|Footwear|Y|63|2014-05-09
HK|TBL|4211|Footwear|Y|63|2014-05-10
HK|TBL|4211|Footwear||1|2014-05-01
HK|TBL|4211|Footwear||1|2014-05-02
HK|TBL|4211|Footwear||1|2014-05-03
HK|TBL|4211|Footwear||1|2014-05-04
HK|TBL|4211|Footwear||1|2014-05-05
HK|TBL|4211|Footwear||1|2014-05-06
HK|TBL|4211|Footwear||1|2014-05-07
HK|TBL|4211|Footwear||1|2014-05-08
HK|TBL|4211|Footwear||1|2014-05-09
HK|TBL|4211|Footwear||1|2014-05-10
HK|TBL|4211||Male|949|2014-05-01
HK|TBL|4211||Male|955|2014-05-02
HK|TBL|4211||Male|951|2014-05-03
HK|TBL|4211||Male|947|2014-05-04
HK|TBL|4211||Male|940|2014-05-05
HK|TBL|4211||Male|939|2014-05-06
HK|TBL|4211||Male|935|2014-05-07
HK|TBL|4211||Male|958|2014-05-08
HK|TBL|4211||Male|965|2014-05-09
HK|TBL|4211||Male|957|2014-05-10
HK|TBL|4211||Toddler|18|2014-05-01
HK|TBL|4211||Toddler|18|2014-05-02
HK|TBL|4211||Toddler|18|2014-05-03
HK|TBL|4211||Toddler|18|2014-05-04
HK|TBL|4211||Toddler|18|2014-05-05
HK|TBL|4211||Toddler|18|2014-05-06
HK|TBL|4211||Toddler|18|2014-05-07
HK|TBL|4211||Toddler|18|2014-05-08
HK|TBL|4211||Toddler|18|2014-05-09
HK|TBL|4211||Toddler|18|2014-05-10
HK|TBL|4211||Unisex|-11|2014-05-01
HK|TBL|4211||Unisex|-11|2014-05-02
HK|TBL|4211||Unisex|-11|2014-05-03
HK|TBL|4211||Unisex|-11|2014-05-04
HK|TBL|4211||Unisex|-10|2014-05-05
HK|TBL|4211||Unisex|-10|2014-05-06
HK|TBL|4211||Unisex|-10|2014-05-07
HK|TBL|4211||Unisex|-10|2014-05-08
HK|TBL|4211||Unisex|-10|2014-05-09
HK|TBL|4211||Unisex|-10|2014-05-10
HK|TBL|4211||Woman|107|2014-05-01
HK|TBL|4211||Woman|106|2014-05-02
HK|TBL|4211||Woman|104|2014-05-03
HK|TBL|4211||Woman|104|2014-05-04
HK|TBL|4211||Woman|103|2014-05-05
HK|TBL|4211||Woman|105|2014-05-06
HK|TBL|4211||Woman|105|2014-05-07
HK|TBL|4211||Woman|110|2014-05-08
HK|TBL|4211||Woman|110|2014-05-09
HK|TBL|4211||Woman|106|2014-05-10
HK|TBL|4211||Y|20|2014-05-01
HK|TBL|4211||Y|20|2014-05-02
HK|TBL|4211||Y|20|2014-05-03
HK|TBL|4211||Y|20|2014-05-04
HK|TBL|4211||Y|20|2014-05-05
HK|TBL|4211||Y|19|2014-05-06
HK|TBL|4211||Y|18|2014-05-07
HK|TBL|4211||Y|18|2014-05-08
HK|TBL|4211||Y|18|2014-05-09
HK|TBL|4211||Y|17|2014-05-10
HK|TBL|4211|||19|2014-05-01
HK|TBL|4211|||19|2014-05-02
HK|TBL|4211|||19|2014-05-03
HK|TBL|4211|||19|2014-05-04
HK|TBL|4211|||19|2014-05-05
HK|TBL|4211|||18|2014-05-06
HK|TBL|4211|||18|2014-05-07
HK|TBL|4211|||19|2014-05-08
HK|TBL|4211|||19|2014-05-09
HK|TBL|4211|||19|2014-05-10
HK|TBL|4212|Accessories|Male|261|2014-05-01
HK|TBL|4212|Accessories|Male|263|2014-05-02
HK|TBL|4212|Accessories|Male|257|2014-05-03
HK|TBL|4212|Accessories|Male|256|2014-05-04
HK|TBL|4212|Accessories|Male|260|2014-05-05
HK|TBL|4212|Accessories|Male|256|2014-05-06
HK|TBL|4212|Accessories|Male|256|2014-05-07
HK|TBL|4212|Accessories|Male|265|2014-05-08
HK|TBL|4212|Accessories|Male|270|2014-05-09
HK|TBL|4212|Accessories|Male|266|2014-05-10
HK|TBL|4212|Accessories|Woman|27|2014-05-01
HK|TBL|4212|Accessories|Woman|27|2014-05-02
HK|TBL|4212|Accessories|Woman|27|2014-05-03
HK|TBL|4212|Accessories|Woman|26|2014-05-04
HK|TBL|4212|Accessories|Woman|27|2014-05-05
HK|TBL|4212|Accessories|Woman|27|2014-05-06
HK|TBL|4212|Accessories|Woman|27|2014-05-07
HK|TBL|4212|Accessories|Woman|31|2014-05-08
HK|TBL|4212|Accessories|Woman|31|2014-05-09
HK|TBL|4212|Accessories|Woman|28|2014-05-10
HK|TBL|4212|Apparel|Male|2194|2014-05-01
HK|TBL|4212|Apparel|Male|2187|2014-05-02
HK|TBL|4212|Apparel|Male|2133|2014-05-03
HK|TBL|4212|Apparel|Male|2117|2014-05-04
HK|TBL|4212|Apparel|Male|2186|2014-05-05
HK|TBL|4212|Apparel|Male|2156|2014-05-06
HK|TBL|4212|Apparel|Male|2150|2014-05-07
HK|TBL|4212|Apparel|Male|2321|2014-05-08
HK|TBL|4212|Apparel|Male|2424|2014-05-09
HK|TBL|4212|Apparel|Male|2404|2014-05-10
HK|TBL|4212|Apparel|Woman|4|2014-05-01
HK|TBL|4212|Apparel|Woman|5|2014-05-02
HK|TBL|4212|Apparel|Woman|5|2014-05-03
HK|TBL|4212|Apparel|Woman|10|2014-05-04
HK|TBL|4212|Apparel|Woman|12|2014-05-05
HK|TBL|4212|Apparel|Woman|10|2014-05-06
HK|TBL|4212|Apparel|Woman|10|2014-05-07
HK|TBL|4212|Apparel|Woman|10|2014-05-08
HK|TBL|4212|Apparel|Woman|10|2014-05-09
HK|TBL|4212|Apparel|Woman|10|2014-05-10
HK|TBL|4212|Footwear|Male|757|2014-05-01
HK|TBL|4212|Footwear|Male|761|2014-05-02
HK|TBL|4212|Footwear|Male|745|2014-05-03
HK|TBL|4212|Footwear|Male|740|2014-05-04
HK|TBL|4212|Footwear|Male|745|2014-05-05
HK|TBL|4212|Footwear|Male|740|2014-05-06
HK|TBL|4212|Footwear|Male|737|2014-05-07
HK|TBL|4212|Footwear|Male|759|2014-05-08
HK|TBL|4212|Footwear|Male|764|2014-05-09
HK|TBL|4212|Footwear|Male|757|2014-05-10
HK|TBL|4212|Footwear|Woman|369|2014-05-01
HK|TBL|4212|Footwear|Woman|321|2014-05-02
HK|TBL|4212|Footwear|Woman|316|2014-05-03
HK|TBL|4212|Footwear|Woman|313|2014-05-04
HK|TBL|4212|Footwear|Woman|311|2014-05-05
HK|TBL|4212|Footwear|Woman|308|2014-05-06
HK|TBL|4212|Footwear|Woman|308|2014-05-07
HK|TBL|4212|Footwear|Woman|320|2014-05-08
HK|TBL|4212|Footwear|Woman|320|2014-05-09
HK|TBL|4212|Footwear|Woman|316|2014-05-10
HK|TBL|4212||Male|1004|2014-05-01
HK|TBL|4212||Male|1020|2014-05-02
HK|TBL|4212||Male|1004|2014-05-03
HK|TBL|4212||Male|990|2014-05-04
HK|TBL|4212||Male|1017|2014-05-05
HK|TBL|4212||Male|1009|2014-05-06
HK|TBL|4212||Male|1005|2014-05-07
HK|TBL|4212||Male|1035|2014-05-08
HK|TBL|4212||Male|1042|2014-05-09
HK|TBL|4212||Male|1034|2014-05-10
HK|TBL|4212||Toddler|10|2014-05-01
HK|TBL|4212||Toddler|10|2014-05-02
HK|TBL|4212||Toddler|10|2014-05-03
HK|TBL|4212||Toddler|10|2014-05-04
HK|TBL|4212||Toddler|10|2014-05-05
HK|TBL|4212||Toddler|10|2014-05-06
HK|TBL|4212||Toddler|10|2014-05-07
HK|TBL|4212||Toddler|10|2014-05-08
HK|TBL|4212||Toddler|10|2014-05-09
HK|TBL|4212||Toddler|10|2014-05-10
HK|TBL|4212||Unisex|-15|2014-05-01
HK|TBL|4212||Unisex|-15|2014-05-02
HK|TBL|4212||Unisex|-15|2014-05-03
HK|TBL|4212||Unisex|-15|2014-05-04
HK|TBL|4212||Unisex|-15|2014-05-05
HK|TBL|4212||Unisex|-17|2014-05-06
HK|TBL|4212||Unisex|-17|2014-05-07
HK|TBL|4212||Unisex|-17|2014-05-08
HK|TBL|4212||Unisex|-17|2014-05-09
HK|TBL|4212||Unisex|-19|2014-05-10
HK|TBL|4212||Woman|98|2014-05-01
HK|TBL|4212||Woman|90|2014-05-02
HK|TBL|4212||Woman|90|2014-05-03
HK|TBL|4212||Woman|89|2014-05-04
HK|TBL|4212||Woman|91|2014-05-05
HK|TBL|4212||Woman|89|2014-05-06
HK|TBL|4212||Woman|85|2014-05-07
HK|TBL|4212||Woman|90|2014-05-08
HK|TBL|4212||Woman|95|2014-05-09
HK|TBL|4212||Woman|95|2014-05-10
HK|TBL|4212||Y|10|2014-05-01
HK|TBL|4212||Y|10|2014-05-02
HK|TBL|4212||Y|10|2014-05-03
HK|TBL|4212||Y|10|2014-05-04
HK|TBL|4212||Y|9|2014-05-05
HK|TBL|4212||Y|9|2014-05-06
HK|TBL|4212||Y|9|2014-05-07
HK|TBL|4212||Y|9|2014-05-08
HK|TBL|4212||Y|8|2014-05-09
HK|TBL|4212||Y|7|2014-05-10
HK|TBL|4212|||21|2014-05-01
HK|TBL|4212|||21|2014-05-02
HK|TBL|4212|||21|2014-05-03
HK|TBL|4212|||21|2014-05-04
HK|TBL|4212|||23|2014-05-05
HK|TBL|4212|||22|2014-05-06
HK|TBL|4212|||22|2014-05-07
HK|TBL|4212|||21|2014-05-08
HK|TBL|4212|||20|2014-05-09
HK|TBL|4212|||20|2014-05-10
HK|TBL|4213|Accessories|Male|289|2014-05-01
HK|TBL|4213|Accessories|Male|288|2014-05-02
HK|TBL|4213|Accessories|Male|287|2014-05-03
HK|TBL|4213|Accessories|Male|283|2014-05-04
HK|TBL|4213|Accessories|Male|284|2014-05-05
HK|TBL|4213|Accessories|Male|280|2014-05-06
HK|TBL|4213|Accessories|Male|279|2014-05-07
HK|TBL|4213|Accessories|Male|292|2014-05-08
HK|TBL|4213|Accessories|Male|289|2014-05-09
HK|TBL|4213|Accessories|Male|283|2014-05-10
HK|TBL|4213|Accessories|Woman|28|2014-05-01
HK|TBL|4213|Accessories|Woman|28|2014-05-02
HK|TBL|4213|Accessories|Woman|28|2014-05-03
HK|TBL|4213|Accessories|Woman|27|2014-05-04
HK|TBL|4213|Accessories|Woman|29|2014-05-05
HK|TBL|4213|Accessories|Woman|30|2014-05-06
HK|TBL|4213|Accessories|Woman|30|2014-05-07
HK|TBL|4213|Accessories|Woman|31|2014-05-08
HK|TBL|4213|Accessories|Woman|31|2014-05-09
HK|TBL|4213|Accessories|Woman|31|2014-05-10
HK|TBL|4213|Apparel|Male|2007|2014-05-01
HK|TBL|4213|Apparel|Male|1977|2014-05-02
HK|TBL|4213|Apparel|Male|2037|2014-05-03
HK|TBL|4213|Apparel|Male|2005|2014-05-04
HK|TBL|4213|Apparel|Male|2046|2014-05-05
HK|TBL|4213|Apparel|Male|2020|2014-05-06
HK|TBL|4213|Apparel|Male|2011|2014-05-07
HK|TBL|4213|Apparel|Male|2178|2014-05-08
HK|TBL|4213|Apparel|Male|2278|2014-05-09
HK|TBL|4213|Apparel|Male|2234|2014-05-10
HK|TBL|4213|Apparel|Woman|630|2014-05-01
HK|TBL|4213|Apparel|Woman|627|2014-05-02
HK|TBL|4213|Apparel|Woman|620|2014-05-03
HK|TBL|4213|Apparel|Woman|618|2014-05-04
HK|TBL|4213|Apparel|Woman|623|2014-05-05
HK|TBL|4213|Apparel|Woman|620|2014-05-06
HK|TBL|4213|Apparel|Woman|618|2014-05-07
HK|TBL|4213|Apparel|Woman|632|2014-05-08
HK|TBL|4213|Apparel|Woman|629|2014-05-09
HK|TBL|4213|Apparel|Woman|615|2014-05-10
HK|TBL|4213|Footwear|Male|709|2014-05-01
HK|TBL|4213|Footwear|Male|702|2014-05-02
HK|TBL|4213|Footwear|Male|702|2014-05-03
HK|TBL|4213|Footwear|Male|693|2014-05-04
HK|TBL|4213|Footwear|Male|697|2014-05-05
HK|TBL|4213|Footwear|Male|691|2014-05-06
HK|TBL|4213|Footwear|Male|688|2014-05-07
HK|TBL|4213|Footwear|Male|717|2014-05-08
HK|TBL|4213|Footwear|Male|709|2014-05-09
HK|TBL|4213|Footwear|Male|699|2014-05-10
HK|TBL|4213|Footwear|Toddler|107|2014-05-01
HK|TBL|4213|Footwear|Toddler|106|2014-05-02
HK|TBL|4213|Footwear|Toddler|105|2014-05-03
HK|TBL|4213|Footwear|Toddler|104|2014-05-04
HK|TBL|4213|Footwear|Toddler|104|2014-05-05
HK|TBL|4213|Footwear|Toddler|104|2014-05-06
HK|TBL|4213|Footwear|Toddler|104|2014-05-07
HK|TBL|4213|Footwear|Toddler|107|2014-05-08
HK|TBL|4213|Footwear|Toddler|107|2014-05-09
HK|TBL|4213|Footwear|Toddler|106|2014-05-10
HK|TBL|4213|Footwear|Woman|483|2014-05-01
HK|TBL|4213|Footwear|Woman|480|2014-05-02
HK|TBL|4213|Footwear|Woman|418|2014-05-03
HK|TBL|4213|Footwear|Woman|416|2014-05-04
HK|TBL|4213|Footwear|Woman|423|2014-05-05
HK|TBL|4213|Footwear|Woman|414|2014-05-06
HK|TBL|4213|Footwear|Woman|413|2014-05-07
HK|TBL|4213|Footwear|Woman|424|2014-05-08
HK|TBL|4213|Footwear|Woman|421|2014-05-09
HK|TBL|4213|Footwear|Woman|416|2014-05-10
HK|TBL|4213|Footwear|Y|108|2014-05-01
HK|TBL|4213|Footwear|Y|108|2014-05-02
HK|TBL|4213|Footwear|Y|108|2014-05-03
HK|TBL|4213|Footwear|Y|106|2014-05-04
HK|TBL|4213|Footwear|Y|106|2014-05-05
HK|TBL|4213|Footwear|Y|106|2014-05-06
HK|TBL|4213|Footwear|Y|105|2014-05-07
HK|TBL|4213|Footwear|Y|107|2014-05-08
HK|TBL|4213|Footwear|Y|107|2014-05-09
HK|TBL|4213|Footwear|Y|107|2014-05-10
HK|TBL|4213|Footwear||16|2014-05-01
HK|TBL|4213|Footwear||16|2014-05-02
HK|TBL|4213|Footwear||5|2014-05-03
HK|TBL|4213|Footwear||5|2014-05-04
HK|TBL|4213|Footwear||5|2014-05-05
HK|TBL|4213|Footwear||5|2014-05-06
HK|TBL|4213|Footwear||5|2014-05-07
HK|TBL|4213|Footwear||5|2014-05-08
HK|TBL|4213|Footwear||5|2014-05-09
HK|TBL|4213|Footwear||5|2014-05-10
HK|TBL|4213||Male|1042|2014-05-01
HK|TBL|4213||Male|1021|2014-05-02
HK|TBL|4213||Male|1040|2014-05-03
HK|TBL|4213||Male|1026|2014-05-04
HK|TBL|4213||Male|1054|2014-05-05
HK|TBL|4213||Male|1043|2014-05-06
HK|TBL|4213||Male|1036|2014-05-07
HK|TBL|4213||Male|1085|2014-05-08
HK|TBL|4213||Male|1086|2014-05-09
HK|TBL|4213||Male|1068|2014-05-10
HK|TBL|4213||Toddler|33|2014-05-01
HK|TBL|4213||Toddler|33|2014-05-02
HK|TBL|4213||Toddler|33|2014-05-03
HK|TBL|4213||Toddler|33|2014-05-04
HK|TBL|4213||Toddler|33|2014-05-05
HK|TBL|4213||Toddler|33|2014-05-06
HK|TBL|4213||Toddler|33|2014-05-07
HK|TBL|4213||Toddler|33|2014-05-08
HK|TBL|4213||Toddler|33|2014-05-09
HK|TBL|4213||Toddler|33|2014-05-10
HK|TBL|4213||Unisex|-15|2014-05-01
HK|TBL|4213||Unisex|-15|2014-05-02
HK|TBL|4213||Unisex|-15|2014-05-03
HK|TBL|4213||Unisex|-15|2014-05-04
HK|TBL|4213||Unisex|-15|2014-05-05
HK|TBL|4213||Unisex|-15|2014-05-06
HK|TBL|4213||Unisex|-15|2014-05-07
HK|TBL|4213||Unisex|-15|2014-05-08
HK|TBL|4213||Unisex|-15|2014-05-09
HK|TBL|4213||Unisex|-15|2014-05-10
HK|TBL|4213||Woman|101|2014-05-01
HK|TBL|4213||Woman|99|2014-05-02
HK|TBL|4213||Woman|95|2014-05-03
HK|TBL|4213||Woman|94|2014-05-04
HK|TBL|4213||Woman|96|2014-05-05
HK|TBL|4213||Woman|96|2014-05-06
HK|TBL|4213||Woman|89|2014-05-07
HK|TBL|4213||Woman|91|2014-05-08
HK|TBL|4213||Woman|96|2014-05-09
HK|TBL|4213||Woman|92|2014-05-10
HK|TBL|4213||Y|27|2014-05-01
HK|TBL|4213||Y|27|2014-05-02
HK|TBL|4213||Y|27|2014-05-03
HK|TBL|4213||Y|27|2014-05-04
HK|TBL|4213||Y|27|2014-05-05
HK|TBL|4213||Y|26|2014-05-06
HK|TBL|4213||Y|26|2014-05-07
HK|TBL|4213||Y|27|2014-05-08
HK|TBL|4213||Y|27|2014-05-09
HK|TBL|4213||Y|27|2014-05-10
HK|TBL|4213|||25|2014-05-01
HK|TBL|4213|||25|2014-05-02
HK|TBL|4213|||25|2014-05-03
HK|TBL|4213|||25|2014-05-04
HK|TBL|4213|||25|2014-05-05
HK|TBL|4213|||25|2014-05-06
HK|TBL|4213|||25|2014-05-07
HK|TBL|4213|||25|2014-05-08
HK|TBL|4213|||25|2014-05-09
HK|TBL|4213|||25|2014-05-10
HK|TBL|4214|Accessories|Male|332|2014-05-01
HK|TBL|4214|Accessories|Male|323|2014-05-02
HK|TBL|4214|Accessories|Male|317|2014-05-03
HK|TBL|4214|Accessories|Male|314|2014-05-04
HK|TBL|4214|Accessories|Male|319|2014-05-05
HK|TBL|4214|Accessories|Male|319|2014-05-06
HK|TBL|4214|Accessories|Male|317|2014-05-07
HK|TBL|4214|Accessories|Male|319|2014-05-08
HK|TBL|4214|Accessories|Male|323|2014-05-09
HK|TBL|4214|Accessories|Male|318|2014-05-10
HK|TBL|4214|Accessories|Woman|40|2014-05-01
HK|TBL|4214|Accessories|Woman|40|2014-05-02
HK|TBL|4214|Accessories|Woman|38|2014-05-03
HK|TBL|4214|Accessories|Woman|37|2014-05-04
HK|TBL|4214|Accessories|Woman|38|2014-05-05
HK|TBL|4214|Accessories|Woman|36|2014-05-06
HK|TBL|4214|Accessories|Woman|36|2014-05-07
HK|TBL|4214|Accessories|Woman|37|2014-05-08
HK|TBL|4214|Accessories|Woman|37|2014-05-09
HK|TBL|4214|Accessories|Woman|37|2014-05-10
HK|TBL|4214|Apparel|Male|2647|2014-05-01
HK|TBL|4214|Apparel|Male|2621|2014-05-02
HK|TBL|4214|Apparel|Male|2568|2014-05-03
HK|TBL|4214|Apparel|Male|2553|2014-05-04
HK|TBL|4214|Apparel|Male|2623|2014-05-05
HK|TBL|4214|Apparel|Male|2614|2014-05-06
HK|TBL|4214|Apparel|Male|2534|2014-05-07
HK|TBL|4214|Apparel|Male|2566|2014-05-08
HK|TBL|4214|Apparel|Male|2613|2014-05-09
HK|TBL|4214|Apparel|Male|2575|2014-05-10
HK|TBL|4214|Apparel|Woman|734|2014-05-01
HK|TBL|4214|Apparel|Woman|726|2014-05-02
HK|TBL|4214|Apparel|Woman|705|2014-05-03
HK|TBL|4214|Apparel|Woman|690|2014-05-04
HK|TBL|4214|Apparel|Woman|723|2014-05-05
HK|TBL|4214|Apparel|Woman|711|2014-05-06
HK|TBL|4214|Apparel|Woman|710|2014-05-07
HK|TBL|4214|Apparel|Woman|733|2014-05-08
HK|TBL|4214|Apparel|Woman|754|2014-05-09
HK|TBL|4214|Apparel|Woman|741|2014-05-10
HK|TBL|4214|Footwear|Male|834|2014-05-01
HK|TBL|4214|Footwear|Male|824|2014-05-02
HK|TBL|4214|Footwear|Male|824|2014-05-03
HK|TBL|4214|Footwear|Male|819|2014-05-04
HK|TBL|4214|Footwear|Male|822|2014-05-05
HK|TBL|4214|Footwear|Male|817|2014-05-06
HK|TBL|4214|Footwear|Male|816|2014-05-07
HK|TBL|4214|Footwear|Male|820|2014-05-08
HK|TBL|4214|Footwear|Male|823|2014-05-09
HK|TBL|4214|Footwear|Male|822|2014-05-10
HK|TBL|4214|Footwear|Toddler|21|2014-05-01
HK|TBL|4214|Footwear|Toddler|19|2014-05-02
HK|TBL|4214|Footwear|Toddler|20|2014-05-03
HK|TBL|4214|Footwear|Toddler|20|2014-05-04
HK|TBL|4214|Footwear|Toddler|21|2014-05-05
HK|TBL|4214|Footwear|Toddler|21|2014-05-06
HK|TBL|4214|Footwear|Toddler|21|2014-05-07
HK|TBL|4214|Footwear|Toddler|20|2014-05-08
HK|TBL|4214|Footwear|Toddler|20|2014-05-09
HK|TBL|4214|Footwear|Toddler|19|2014-05-10
HK|TBL|4214|Footwear|Woman|454|2014-05-01
HK|TBL|4214|Footwear|Woman|450|2014-05-02
HK|TBL|4214|Footwear|Woman|446|2014-05-03
HK|TBL|4214|Footwear|Woman|435|2014-05-04
HK|TBL|4214|Footwear|Woman|441|2014-05-05
HK|TBL|4214|Footwear|Woman|437|2014-05-06
HK|TBL|4214|Footwear|Woman|432|2014-05-07
HK|TBL|4214|Footwear|Woman|438|2014-05-08
HK|TBL|4214|Footwear|Woman|446|2014-05-09
HK|TBL|4214|Footwear|Woman|443|2014-05-10
HK|TBL|4214|Footwear|Y|67|2014-05-01
HK|TBL|4214|Footwear|Y|67|2014-05-02
HK|TBL|4214|Footwear|Y|66|2014-05-03
HK|TBL|4214|Footwear|Y|66|2014-05-04
HK|TBL|4214|Footwear|Y|66|2014-05-05
HK|TBL|4214|Footwear|Y|66|2014-05-06
HK|TBL|4214|Footwear|Y|64|2014-05-07
HK|TBL|4214|Footwear|Y|63|2014-05-08
HK|TBL|4214|Footwear|Y|65|2014-05-09
HK|TBL|4214|Footwear|Y|63|2014-05-10
HK|TBL|4214|Footwear||3|2014-05-01
HK|TBL|4214|Footwear||3|2014-05-02
HK|TBL|4214|Footwear||3|2014-05-03
HK|TBL|4214|Footwear||3|2014-05-04
HK|TBL|4214|Footwear||3|2014-05-05
HK|TBL|4214|Footwear||3|2014-05-06
HK|TBL|4214|Footwear||3|2014-05-07
HK|TBL|4214|Footwear||3|2014-05-08
HK|TBL|4214|Footwear||3|2014-05-09
HK|TBL|4214|Footwear||2|2014-05-10
HK|TBL|4214||Male|1043|2014-05-01
HK|TBL|4214||Male|1019|2014-05-02
HK|TBL|4214||Male|1016|2014-05-03
HK|TBL|4214||Male|999|2014-05-04
HK|TBL|4214||Male|1017|2014-05-05
HK|TBL|4214||Male|1004|2014-05-06
HK|TBL|4214||Male|985|2014-05-07
HK|TBL|4214||Male|1015|2014-05-08
HK|TBL|4214||Male|1007|2014-05-09
HK|TBL|4214||Male|991|2014-05-10
HK|TBL|4214||Toddler|22|2014-05-01
HK|TBL|4214||Toddler|22|2014-05-02
HK|TBL|4214||Toddler|22|2014-05-03
HK|TBL|4214||Toddler|22|2014-05-04
HK|TBL|4214||Toddler|22|2014-05-05
HK|TBL|4214||Toddler|22|2014-05-06
HK|TBL|4214||Toddler|22|2014-05-07
HK|TBL|4214||Toddler|22|2014-05-08
HK|TBL|4214||Toddler|22|2014-05-09
HK|TBL|4214||Toddler|22|2014-05-10
HK|TBL|4214||Unisex|-24|2014-05-01
HK|TBL|4214||Unisex|-24|2014-05-02
HK|TBL|4214||Unisex|-24|2014-05-03
HK|TBL|4214||Unisex|-24|2014-05-04
HK|TBL|4214||Unisex|-24|2014-05-05
HK|TBL|4214||Unisex|-24|2014-05-06
HK|TBL|4214||Unisex|-24|2014-05-07
HK|TBL|4214||Unisex|-24|2014-05-08
HK|TBL|4214||Unisex|-24|2014-05-09
HK|TBL|4214||Unisex|-24|2014-05-10
HK|TBL|4214||Woman|142|2014-05-01
HK|TBL|4214||Woman|140|2014-05-02
HK|TBL|4214||Woman|138|2014-05-03
HK|TBL|4214||Woman|138|2014-05-04
HK|TBL|4214||Woman|142|2014-05-05
HK|TBL|4214||Woman|142|2014-05-06
HK|TBL|4214||Woman|141|2014-05-07
HK|TBL|4214||Woman|137|2014-05-08
HK|TBL|4214||Woman|136|2014-05-09
HK|TBL|4214||Woman|133|2014-05-10
HK|TBL|4214||Y|20|2014-05-01
HK|TBL|4214||Y|19|2014-05-02
HK|TBL|4214||Y|19|2014-05-03
HK|TBL|4214||Y|19|2014-05-04
HK|TBL|4214||Y|19|2014-05-05
HK|TBL|4214||Y|19|2014-05-06
HK|TBL|4214||Y|20|2014-05-07
HK|TBL|4214||Y|20|2014-05-08
HK|TBL|4214||Y|20|2014-05-09
HK|TBL|4214||Y|20|2014-05-10
HK|TBL|4214|||41|2014-05-01
HK|TBL|4214|||41|2014-05-02
HK|TBL|4214|||42|2014-05-03
HK|TBL|4214|||42|2014-05-04
HK|TBL|4214|||43|2014-05-05
HK|TBL|4214|||43|2014-05-06
HK|TBL|4214|||43|2014-05-07
HK|TBL|4214|||43|2014-05-08
HK|TBL|4214|||42|2014-05-09
HK|TBL|4214|||42|2014-05-10
HK|TBL|4215|Accessories|Male|345|2014-05-01
HK|TBL|4215|Accessories|Male|339|2014-05-02
HK|TBL|4215|Accessories|Male|337|2014-05-03
HK|TBL|4215|Accessories|Male|336|2014-05-04
HK|TBL|4215|Accessories|Male|334|2014-05-05
HK|TBL|4215|Accessories|Male|342|2014-05-06
HK|TBL|4215|Accessories|Male|340|2014-05-07
HK|TBL|4215|Accessories|Male|352|2014-05-08
HK|TBL|4215|Accessories|Male|357|2014-05-09
HK|TBL|4215|Accessories|Male|358|2014-05-10
HK|TBL|4215|Accessories|Woman|32|2014-05-01
HK|TBL|4215|Accessories|Woman|31|2014-05-02
HK|TBL|4215|Accessories|Woman|30|2014-05-03
HK|TBL|4215|Accessories|Woman|30|2014-05-04
HK|TBL|4215|Accessories|Woman|30|2014-05-05
HK|TBL|4215|Accessories|Woman|31|2014-05-06
HK|TBL|4215|Accessories|Woman|31|2014-05-07
HK|TBL|4215|Accessories|Woman|33|2014-05-08
HK|TBL|4215|Accessories|Woman|32|2014-05-09
HK|TBL|4215|Accessories|Woman|31|2014-05-10
HK|TBL|4215|Apparel|Male|2424|2014-05-01
HK|TBL|4215|Apparel|Male|2406|2014-05-02
HK|TBL|4215|Apparel|Male|2437|2014-05-03
HK|TBL|4215|Apparel|Male|2417|2014-05-04
HK|TBL|4215|Apparel|Male|2325|2014-05-05
HK|TBL|4215|Apparel|Male|2333|2014-05-06
HK|TBL|4215|Apparel|Male|2320|2014-05-07
HK|TBL|4215|Apparel|Male|2363|2014-05-08
HK|TBL|4215|Apparel|Male|2489|2014-05-09
HK|TBL|4215|Apparel|Male|2475|2014-05-10
HK|TBL|4215|Apparel|Woman|622|2014-05-01
HK|TBL|4215|Apparel|Woman|619|2014-05-02
HK|TBL|4215|Apparel|Woman|618|2014-05-03
HK|TBL|4215|Apparel|Woman|616|2014-05-04
HK|TBL|4215|Apparel|Woman|612|2014-05-05
HK|TBL|4215|Apparel|Woman|619|2014-05-06
HK|TBL|4215|Apparel|Woman|617|2014-05-07
HK|TBL|4215|Apparel|Woman|616|2014-05-08
HK|TBL|4215|Apparel|Woman|620|2014-05-09
HK|TBL|4215|Apparel|Woman|624|2014-05-10
HK|TBL|4215|Footwear|Male|695|2014-05-01
HK|TBL|4215|Footwear|Male|689|2014-05-02
HK|TBL|4215|Footwear|Male|689|2014-05-03
HK|TBL|4215|Footwear|Male|683|2014-05-04
HK|TBL|4215|Footwear|Male|677|2014-05-05
HK|TBL|4215|Footwear|Male|685|2014-05-06
HK|TBL|4215|Footwear|Male|686|2014-05-07
HK|TBL|4215|Footwear|Male|697|2014-05-08
HK|TBL|4215|Footwear|Male|695|2014-05-09
HK|TBL|4215|Footwear|Male|684|2014-05-10
HK|TBL|4215|Footwear|Toddler|11|2014-05-01
HK|TBL|4215|Footwear|Toddler|11|2014-05-02
HK|TBL|4215|Footwear|Toddler|12|2014-05-03
HK|TBL|4215|Footwear|Toddler|12|2014-05-04
HK|TBL|4215|Footwear|Toddler|12|2014-05-05
HK|TBL|4215|Footwear|Toddler|11|2014-05-06
HK|TBL|4215|Footwear|Toddler|11|2014-05-07
HK|TBL|4215|Footwear|Toddler|11|2014-05-08
HK|TBL|4215|Footwear|Toddler|11|2014-05-09
HK|TBL|4215|Footwear|Toddler|10|2014-05-10
HK|TBL|4215|Footwear|Woman|381|2014-05-01
HK|TBL|4215|Footwear|Woman|382|2014-05-02
HK|TBL|4215|Footwear|Woman|382|2014-05-03
HK|TBL|4215|Footwear|Woman|375|2014-05-04
HK|TBL|4215|Footwear|Woman|366|2014-05-05
HK|TBL|4215|Footwear|Woman|361|2014-05-06
HK|TBL|4215|Footwear|Woman|359|2014-05-07
HK|TBL|4215|Footwear|Woman|362|2014-05-08
HK|TBL|4215|Footwear|Woman|367|2014-05-09
HK|TBL|4215|Footwear|Woman|366|2014-05-10
HK|TBL|4215|Footwear|Y|52|2014-05-01
HK|TBL|4215|Footwear|Y|53|2014-05-02
HK|TBL|4215|Footwear|Y|50|2014-05-03
HK|TBL|4215|Footwear|Y|48|2014-05-04
HK|TBL|4215|Footwear|Y|48|2014-05-05
HK|TBL|4215|Footwear|Y|48|2014-05-06
HK|TBL|4215|Footwear|Y|48|2014-05-07
HK|TBL|4215|Footwear|Y|50|2014-05-08
HK|TBL|4215|Footwear|Y|51|2014-05-09
HK|TBL|4215|Footwear|Y|51|2014-05-10
HK|TBL|4215|Footwear||4|2014-05-01
HK|TBL|4215|Footwear||4|2014-05-02
HK|TBL|4215|Footwear||4|2014-05-03
HK|TBL|4215|Footwear||4|2014-05-04
HK|TBL|4215|Footwear||3|2014-05-05
HK|TBL|4215|Footwear||3|2014-05-06
HK|TBL|4215|Footwear||3|2014-05-07
HK|TBL|4215|Footwear||3|2014-05-08
HK|TBL|4215|Footwear||3|2014-05-09
HK|TBL|4215|Footwear||3|2014-05-10
HK|TBL|4215||Male|1299|2014-05-01
HK|TBL|4215||Male|1292|2014-05-02
HK|TBL|4215||Male|1312|2014-05-03
HK|TBL|4215||Male|1299|2014-05-04
HK|TBL|4215||Male|1274|2014-05-05
HK|TBL|4215||Male|1263|2014-05-06
HK|TBL|4215||Male|1251|2014-05-07
HK|TBL|4215||Male|1264|2014-05-08
HK|TBL|4215||Male|1272|2014-05-09
HK|TBL|4215||Male|1256|2014-05-10
HK|TBL|4215||Toddler|32|2014-05-01
HK|TBL|4215||Toddler|32|2014-05-02
HK|TBL|4215||Toddler|32|2014-05-03
HK|TBL|4215||Toddler|32|2014-05-04
HK|TBL|4215||Toddler|32|2014-05-05
HK|TBL|4215||Toddler|32|2014-05-06
HK|TBL|4215||Toddler|32|2014-05-07
HK|TBL|4215||Toddler|32|2014-05-08
HK|TBL|4215||Toddler|31|2014-05-09
HK|TBL|4215||Toddler|31|2014-05-10
HK|TBL|4215||Unisex|-10|2014-05-01
HK|TBL|4215||Unisex|-10|2014-05-02
HK|TBL|4215||Unisex|-10|2014-05-03
HK|TBL|4215||Unisex|-10|2014-05-04
HK|TBL|4215||Unisex|-10|2014-05-05
HK|TBL|4215||Unisex|-10|2014-05-06
HK|TBL|4215||Unisex|-10|2014-05-07
HK|TBL|4215||Unisex|-10|2014-05-08
HK|TBL|4215||Unisex|-10|2014-05-09
HK|TBL|4215||Unisex|-10|2014-05-10
HK|TBL|4215||Woman|114|2014-05-01
HK|TBL|4215||Woman|113|2014-05-02
HK|TBL|4215||Woman|114|2014-05-03
HK|TBL|4215||Woman|113|2014-05-04
HK|TBL|4215||Woman|112|2014-05-05
HK|TBL|4215||Woman|111|2014-05-06
HK|TBL|4215||Woman|110|2014-05-07
HK|TBL|4215||Woman|112|2014-05-08
HK|TBL|4215||Woman|115|2014-05-09
HK|TBL|4215||Woman|108|2014-05-10
HK|TBL|4215||Y|26|2014-05-01
HK|TBL|4215||Y|26|2014-05-02
HK|TBL|4215||Y|27|2014-05-03
HK|TBL|4215||Y|27|2014-05-04
HK|TBL|4215||Y|27|2014-05-05
HK|TBL|4215||Y|27|2014-05-06
HK|TBL|4215||Y|25|2014-05-07
HK|TBL|4215||Y|26|2014-05-08
HK|TBL|4215||Y|26|2014-05-09
HK|TBL|4215||Y|27|2014-05-10
HK|TBL|4215|||56|2014-05-01
HK|TBL|4215|||56|2014-05-02
HK|TBL|4215|||55|2014-05-03
HK|TBL|4215|||53|2014-05-04
HK|TBL|4215|||51|2014-05-05
HK|TBL|4215|||53|2014-05-06
HK|TBL|4215|||53|2014-05-07
HK|TBL|4215|||55|2014-05-08
HK|TBL|4215|||56|2014-05-09
HK|TBL|4215|||56|2014-05-10
HK|TBL|4216|Accessories|Male|309|2014-05-01
HK|TBL|4216|Accessories|Male|308|2014-05-02
HK|TBL|4216|Accessories|Male|306|2014-05-03
HK|TBL|4216|Accessories|Male|299|2014-05-04
HK|TBL|4216|Accessories|Male|299|2014-05-05
HK|TBL|4216|Accessories|Male|294|2014-05-06
HK|TBL|4216|Accessories|Male|291|2014-05-07
HK|TBL|4216|Accessories|Male|295|2014-05-08
HK|TBL|4216|Accessories|Male|298|2014-05-09
HK|TBL|4216|Accessories|Male|296|2014-05-10
HK|TBL|4216|Accessories|Woman|29|2014-05-01
HK|TBL|4216|Accessories|Woman|30|2014-05-02
HK|TBL|4216|Accessories|Woman|30|2014-05-03
HK|TBL|4216|Accessories|Woman|29|2014-05-04
HK|TBL|4216|Accessories|Woman|30|2014-05-05
HK|TBL|4216|Accessories|Woman|28|2014-05-06
HK|TBL|4216|Accessories|Woman|28|2014-05-07
HK|TBL|4216|Accessories|Woman|29|2014-05-08
HK|TBL|4216|Accessories|Woman|30|2014-05-09
HK|TBL|4216|Accessories|Woman|30|2014-05-10
HK|TBL|4216|Apparel|Male|2986|2014-05-01
HK|TBL|4216|Apparel|Male|2995|2014-05-02
HK|TBL|4216|Apparel|Male|2975|2014-05-03
HK|TBL|4216|Apparel|Male|2967|2014-05-04
HK|TBL|4216|Apparel|Male|2958|2014-05-05
HK|TBL|4216|Apparel|Male|2949|2014-05-06
HK|TBL|4216|Apparel|Male|2944|2014-05-07
HK|TBL|4216|Apparel|Male|2964|2014-05-08
HK|TBL|4216|Apparel|Male|3070|2014-05-09
HK|TBL|4216|Apparel|Male|3222|2014-05-10
HK|TBL|4216|Apparel|Woman|1136|2014-05-01
HK|TBL|4216|Apparel|Woman|1136|2014-05-02
HK|TBL|4216|Apparel|Woman|1133|2014-05-03
HK|TBL|4216|Apparel|Woman|1131|2014-05-04
HK|TBL|4216|Apparel|Woman|1130|2014-05-05
HK|TBL|4216|Apparel|Woman|1129|2014-05-06
HK|TBL|4216|Apparel|Woman|1116|2014-05-07
HK|TBL|4216|Apparel|Woman|1120|2014-05-08
HK|TBL|4216|Apparel|Woman|1121|2014-05-09
HK|TBL|4216|Apparel|Woman|1146|2014-05-10
HK|TBL|4216|Footwear|Male|855|2014-05-01
HK|TBL|4216|Footwear|Male|857|2014-05-02
HK|TBL|4216|Footwear|Male|857|2014-05-03
HK|TBL|4216|Footwear|Male|848|2014-05-04
HK|TBL|4216|Footwear|Male|855|2014-05-05
HK|TBL|4216|Footwear|Male|855|2014-05-06
HK|TBL|4216|Footwear|Male|852|2014-05-07
HK|TBL|4216|Footwear|Male|863|2014-05-08
HK|TBL|4216|Footwear|Male|866|2014-05-09
HK|TBL|4216|Footwear|Male|866|2014-05-10
HK|TBL|4216|Footwear|Toddler|6|2014-05-01
HK|TBL|4216|Footwear|Toddler|6|2014-05-02
HK|TBL|4216|Footwear|Toddler|7|2014-05-03
HK|TBL|4216|Footwear|Toddler|7|2014-05-04
HK|TBL|4216|Footwear|Toddler|7|2014-05-05
HK|TBL|4216|Footwear|Toddler|7|2014-05-06
HK|TBL|4216|Footwear|Toddler|7|2014-05-07
HK|TBL|4216|Footwear|Toddler|7|2014-05-08
HK|TBL|4216|Footwear|Toddler|7|2014-05-09
HK|TBL|4216|Footwear|Toddler|7|2014-05-10
HK|TBL|4216|Footwear|Woman|203|2014-05-01
HK|TBL|4216|Footwear|Woman|205|2014-05-02
HK|TBL|4216|Footwear|Woman|209|2014-05-03
HK|TBL|4216|Footwear|Woman|203|2014-05-04
HK|TBL|4216|Footwear|Woman|206|2014-05-05
HK|TBL|4216|Footwear|Woman|204|2014-05-06
HK|TBL|4216|Footwear|Woman|202|2014-05-07
HK|TBL|4216|Footwear|Woman|207|2014-05-08
HK|TBL|4216|Footwear|Woman|214|2014-05-09
HK|TBL|4216|Footwear|Woman|211|2014-05-10
HK|TBL|4216|Footwear|Y|2|2014-05-01
HK|TBL|4216|Footwear|Y|2|2014-05-02
HK|TBL|4216|Footwear|Y|2|2014-05-03
HK|TBL|4216|Footwear|Y|2|2014-05-04
HK|TBL|4216|Footwear|Y|2|2014-05-05
HK|TBL|4216|Footwear|Y|2|2014-05-06
HK|TBL|4216|Footwear|Y|2|2014-05-07
HK|TBL|4216|Footwear|Y|2|2014-05-08
HK|TBL|4216|Footwear|Y|2|2014-05-09
HK|TBL|4216|Footwear|Y|2|2014-05-10
HK|TBL|4216||Male|997|2014-05-01
HK|TBL|4216||Male|1003|2014-05-02
HK|TBL|4216||Male|998|2014-05-03
HK|TBL|4216||Male|987|2014-05-04
HK|TBL|4216||Male|986|2014-05-05
HK|TBL|4216||Male|975|2014-05-06
HK|TBL|4216||Male|968|2014-05-07
HK|TBL|4216||Male|983|2014-05-08
HK|TBL|4216||Male|997|2014-05-09
HK|TBL|4216||Male|992|2014-05-10
HK|TBL|4216||Toddler|15|2014-05-01
HK|TBL|4216||Toddler|15|2014-05-02
HK|TBL|4216||Toddler|15|2014-05-03
HK|TBL|4216||Toddler|15|2014-05-04
HK|TBL|4216||Toddler|15|2014-05-05
HK|TBL|4216||Toddler|15|2014-05-06
HK|TBL|4216||Toddler|15|2014-05-07
HK|TBL|4216||Toddler|15|2014-05-08
HK|TBL|4216||Toddler|15|2014-05-09
HK|TBL|4216||Toddler|15|2014-05-10
HK|TBL|4216||Unisex|-15|2014-05-01
HK|TBL|4216||Unisex|-15|2014-05-02
HK|TBL|4216||Unisex|-15|2014-05-03
HK|TBL|4216||Unisex|-15|2014-05-04
HK|TBL|4216||Unisex|-15|2014-05-05
HK|TBL|4216||Unisex|-15|2014-05-06
HK|TBL|4216||Unisex|-15|2014-05-07
HK|TBL|4216||Unisex|-15|2014-05-08
HK|TBL|4216||Unisex|-16|2014-05-09
HK|TBL|4216||Unisex|-17|2014-05-10
HK|TBL|4216||Woman|78|2014-05-01
HK|TBL|4216||Woman|77|2014-05-02
HK|TBL|4216||Woman|76|2014-05-03
HK|TBL|4216||Woman|76|2014-05-04
HK|TBL|4216||Woman|79|2014-05-05
HK|TBL|4216||Woman|79|2014-05-06
HK|TBL|4216||Woman|78|2014-05-07
HK|TBL|4216||Woman|79|2014-05-08
HK|TBL|4216||Woman|78|2014-05-09
HK|TBL|4216||Woman|74|2014-05-10
HK|TBL|4216||Y|8|2014-05-01
HK|TBL|4216||Y|9|2014-05-02
HK|TBL|4216||Y|9|2014-05-03
HK|TBL|4216||Y|9|2014-05-04
HK|TBL|4216||Y|9|2014-05-05
HK|TBL|4216||Y|9|2014-05-06
HK|TBL|4216||Y|9|2014-05-07
HK|TBL|4216||Y|9|2014-05-08
HK|TBL|4216||Y|9|2014-05-09
HK|TBL|4216||Y|9|2014-05-10
HK|TBL|4216|||39|2014-05-01
HK|TBL|4216|||39|2014-05-02
HK|TBL|4216|||39|2014-05-03
HK|TBL|4216|||39|2014-05-04
HK|TBL|4216|||37|2014-05-05
HK|TBL|4216|||37|2014-05-06
HK|TBL|4216|||37|2014-05-07
HK|TBL|4216|||38|2014-05-08
HK|TBL|4216|||40|2014-05-09
HK|TBL|4216|||40|2014-05-10
HK|TBL|4217|Accessories|Male|300|2014-05-01
HK|TBL|4217|Accessories|Male|300|2014-05-02
HK|TBL|4217|Accessories|Male|301|2014-05-03
HK|TBL|4217|Accessories|Male|298|2014-05-04
HK|TBL|4217|Accessories|Male|295|2014-05-05
HK|TBL|4217|Accessories|Male|295|2014-05-06
HK|TBL|4217|Accessories|Male|295|2014-05-07
HK|TBL|4217|Accessories|Male|300|2014-05-08
HK|TBL|4217|Accessories|Male|305|2014-05-09
HK|TBL|4217|Accessories|Male|303|2014-05-10
HK|TBL|4217|Accessories|Woman|34|2014-05-01
HK|TBL|4217|Accessories|Woman|33|2014-05-02
HK|TBL|4217|Accessories|Woman|35|2014-05-03
HK|TBL|4217|Accessories|Woman|35|2014-05-04
HK|TBL|4217|Accessories|Woman|35|2014-05-05
HK|TBL|4217|Accessories|Woman|35|2014-05-06
HK|TBL|4217|Accessories|Woman|35|2014-05-07
HK|TBL|4217|Accessories|Woman|35|2014-05-08
HK|TBL|4217|Accessories|Woman|35|2014-05-09
HK|TBL|4217|Accessories|Woman|33|2014-05-10
HK|TBL|4217|Apparel|Male|2005|2014-05-01
HK|TBL|4217|Apparel|Male|2000|2014-05-02
HK|TBL|4217|Apparel|Male|1973|2014-05-03
HK|TBL|4217|Apparel|Male|1962|2014-05-04
HK|TBL|4217|Apparel|Male|1958|2014-05-05
HK|TBL|4217|Apparel|Male|2003|2014-05-06
HK|TBL|4217|Apparel|Male|1995|2014-05-07
HK|TBL|4217|Apparel|Male|2027|2014-05-08
HK|TBL|4217|Apparel|Male|2151|2014-05-09
HK|TBL|4217|Apparel|Male|2146|2014-05-10
HK|TBL|4217|Apparel|Woman|668|2014-05-01
HK|TBL|4217|Apparel|Woman|662|2014-05-02
HK|TBL|4217|Apparel|Woman|661|2014-05-03
HK|TBL|4217|Apparel|Woman|659|2014-05-04
HK|TBL|4217|Apparel|Woman|659|2014-05-05
HK|TBL|4217|Apparel|Woman|670|2014-05-06
HK|TBL|4217|Apparel|Woman|667|2014-05-07
HK|TBL|4217|Apparel|Woman|676|2014-05-08
HK|TBL|4217|Apparel|Woman|680|2014-05-09
HK|TBL|4217|Apparel|Woman|673|2014-05-10
HK|TBL|4217|Footwear|Male|1221|2014-05-01
HK|TBL|4217|Footwear|Male|1220|2014-05-02
HK|TBL|4217|Footwear|Male|1221|2014-05-03
HK|TBL|4217|Footwear|Male|1126|2014-05-04
HK|TBL|4217|Footwear|Male|1126|2014-05-05
HK|TBL|4217|Footwear|Male|1128|2014-05-06
HK|TBL|4217|Footwear|Male|1126|2014-05-07
HK|TBL|4217|Footwear|Male|1133|2014-05-08
HK|TBL|4217|Footwear|Male|1139|2014-05-09
HK|TBL|4217|Footwear|Male|1132|2014-05-10
HK|TBL|4217|Footwear|Toddler|108|2014-05-01
HK|TBL|4217|Footwear|Toddler|108|2014-05-02
HK|TBL|4217|Footwear|Toddler|107|2014-05-03
HK|TBL|4217|Footwear|Toddler|107|2014-05-04
HK|TBL|4217|Footwear|Toddler|107|2014-05-05
HK|TBL|4217|Footwear|Toddler|107|2014-05-06
HK|TBL|4217|Footwear|Toddler|107|2014-05-07
HK|TBL|4217|Footwear|Toddler|107|2014-05-08
HK|TBL|4217|Footwear|Toddler|107|2014-05-09
HK|TBL|4217|Footwear|Toddler|105|2014-05-10
HK|TBL|4217|Footwear|Woman|631|2014-05-01
HK|TBL|4217|Footwear|Woman|627|2014-05-02
HK|TBL|4217|Footwear|Woman|626|2014-05-03
HK|TBL|4217|Footwear|Woman|612|2014-05-04
HK|TBL|4217|Footwear|Woman|609|2014-05-05
HK|TBL|4217|Footwear|Woman|606|2014-05-06
HK|TBL|4217|Footwear|Woman|598|2014-05-07
HK|TBL|4217|Footwear|Woman|601|2014-05-08
HK|TBL|4217|Footwear|Woman|617|2014-05-09
HK|TBL|4217|Footwear|Woman|614|2014-05-10
HK|TBL|4217|Footwear|Y|104|2014-05-01
HK|TBL|4217|Footwear|Y|103|2014-05-02
HK|TBL|4217|Footwear|Y|103|2014-05-03
HK|TBL|4217|Footwear|Y|102|2014-05-04
HK|TBL|4217|Footwear|Y|102|2014-05-05
HK|TBL|4217|Footwear|Y|99|2014-05-06
HK|TBL|4217|Footwear|Y|99|2014-05-07
HK|TBL|4217|Footwear|Y|101|2014-05-08
HK|TBL|4217|Footwear|Y|106|2014-05-09
HK|TBL|4217|Footwear|Y|105|2014-05-10
HK|TBL|4217|Footwear||0|2014-05-01
HK|TBL|4217|Footwear||0|2014-05-02
HK|TBL|4217|Footwear||0|2014-05-03
HK|TBL|4217|Footwear||0|2014-05-04
HK|TBL|4217|Footwear||0|2014-05-05
HK|TBL|4217|Footwear||0|2014-05-06
HK|TBL|4217|Footwear||0|2014-05-07
HK|TBL|4217|Footwear||0|2014-05-08
HK|TBL|4217|Footwear||0|2014-05-09
HK|TBL|4217|Footwear||0|2014-05-10
HK|TBL|4217||Male|1213|2014-05-01
HK|TBL|4217||Male|1210|2014-05-02
HK|TBL|4217||Male|1216|2014-05-03
HK|TBL|4217||Male|1197|2014-05-04
HK|TBL|4217||Male|1193|2014-05-05
HK|TBL|4217||Male|1204|2014-05-06
HK|TBL|4217||Male|1196|2014-05-07
HK|TBL|4217||Male|1207|2014-05-08
HK|TBL|4217||Male|1219|2014-05-09
HK|TBL|4217||Male|1209|2014-05-10
HK|TBL|4217||Toddler|35|2014-05-01
HK|TBL|4217||Toddler|35|2014-05-02
HK|TBL|4217||Toddler|35|2014-05-03
HK|TBL|4217||Toddler|35|2014-05-04
HK|TBL|4217||Toddler|35|2014-05-05
HK|TBL|4217||Toddler|35|2014-05-06
HK|TBL|4217||Toddler|35|2014-05-07
HK|TBL|4217||Toddler|35|2014-05-08
HK|TBL|4217||Toddler|35|2014-05-09
HK|TBL|4217||Toddler|35|2014-05-10
HK|TBL|4217||Unisex|-16|2014-05-01
HK|TBL|4217||Unisex|-16|2014-05-02
HK|TBL|4217||Unisex|-16|2014-05-03
HK|TBL|4217||Unisex|-16|2014-05-04
HK|TBL|4217||Unisex|-16|2014-05-05
HK|TBL|4217||Unisex|-16|2014-05-06
HK|TBL|4217||Unisex|-16|2014-05-07
HK|TBL|4217||Unisex|-16|2014-05-08
HK|TBL|4217||Unisex|-16|2014-05-09
HK|TBL|4217||Unisex|-16|2014-05-10
HK|TBL|4217||Woman|108|2014-05-01
HK|TBL|4217||Woman|107|2014-05-02
HK|TBL|4217||Woman|106|2014-05-03
HK|TBL|4217||Woman|103|2014-05-04
HK|TBL|4217||Woman|103|2014-05-05
HK|TBL|4217||Woman|104|2014-05-06
HK|TBL|4217||Woman|103|2014-05-07
HK|TBL|4217||Woman|104|2014-05-08
HK|TBL|4217||Woman|103|2014-05-09
HK|TBL|4217||Woman|104|2014-05-10
HK|TBL|4217||Y|33|2014-05-01
HK|TBL|4217||Y|33|2014-05-02
HK|TBL|4217||Y|33|2014-05-03
HK|TBL|4217||Y|32|2014-05-04
HK|TBL|4217||Y|32|2014-05-05
HK|TBL|4217||Y|34|2014-05-06
HK|TBL|4217||Y|33|2014-05-07
HK|TBL|4217||Y|32|2014-05-08
HK|TBL|4217||Y|33|2014-05-09
HK|TBL|4217||Y|33|2014-05-10
HK|TBL|4217|||65|2014-05-01
HK|TBL|4217|||65|2014-05-02
HK|TBL|4217|||66|2014-05-03
HK|TBL|4217|||65|2014-05-04
HK|TBL|4217|||65|2014-05-05
HK|TBL|4217|||67|2014-05-06
HK|TBL|4217|||66|2014-05-07
HK|TBL|4217|||67|2014-05-08
HK|TBL|4217|||68|2014-05-09
HK|TBL|4217|||66|2014-05-10
HK|TBL|4218|Accessories|Male|210|2014-05-01
HK|TBL|4218|Accessories|Male|207|2014-05-02
HK|TBL|4218|Accessories|Male|207|2014-05-03
HK|TBL|4218|Accessories|Male|206|2014-05-04
HK|TBL|4218|Accessories|Male|205|2014-05-05
HK|TBL|4218|Accessories|Male|212|2014-05-06
HK|TBL|4218|Accessories|Male|212|2014-05-07
HK|TBL|4218|Accessories|Male|217|2014-05-08
HK|TBL|4218|Accessories|Male|216|2014-05-09
HK|TBL|4218|Accessories|Male|215|2014-05-10
HK|TBL|4218|Accessories|Woman|12|2014-05-01
HK|TBL|4218|Accessories|Woman|11|2014-05-02
HK|TBL|4218|Accessories|Woman|11|2014-05-03
HK|TBL|4218|Accessories|Woman|11|2014-05-04
HK|TBL|4218|Accessories|Woman|11|2014-05-05
HK|TBL|4218|Accessories|Woman|11|2014-05-06
HK|TBL|4218|Accessories|Woman|11|2014-05-07
HK|TBL|4218|Accessories|Woman|12|2014-05-08
HK|TBL|4218|Accessories|Woman|12|2014-05-09
HK|TBL|4218|Accessories|Woman|12|2014-05-10
HK|TBL|4218|Apparel|Male|3048|2014-05-01
HK|TBL|4218|Apparel|Male|3004|2014-05-02
HK|TBL|4218|Apparel|Male|3082|2014-05-03
HK|TBL|4218|Apparel|Male|3067|2014-05-04
HK|TBL|4218|Apparel|Male|3035|2014-05-05
HK|TBL|4218|Apparel|Male|3088|2014-05-06
HK|TBL|4218|Apparel|Male|3075|2014-05-07
HK|TBL|4218|Apparel|Male|3277|2014-05-08
HK|TBL|4218|Apparel|Male|3248|2014-05-09
HK|TBL|4218|Apparel|Male|3216|2014-05-10
HK|TBL|4218|Apparel|Woman|14|2014-05-01
HK|TBL|4218|Apparel|Woman|15|2014-05-02
HK|TBL|4218|Apparel|Woman|15|2014-05-03
HK|TBL|4218|Apparel|Woman|17|2014-05-04
HK|TBL|4218|Apparel|Woman|13|2014-05-05
HK|TBL|4218|Apparel|Woman|13|2014-05-06
HK|TBL|4218|Apparel|Woman|13|2014-05-07
HK|TBL|4218|Apparel|Woman|13|2014-05-08
HK|TBL|4218|Apparel|Woman|13|2014-05-09
HK|TBL|4218|Apparel|Woman|13|2014-05-10
HK|TBL|4218|Footwear|Male|996|2014-05-01
HK|TBL|4218|Footwear|Male|974|2014-05-02
HK|TBL|4218|Footwear|Male|973|2014-05-03
HK|TBL|4218|Footwear|Male|966|2014-05-04
HK|TBL|4218|Footwear|Male|961|2014-05-05
HK|TBL|4218|Footwear|Male|969|2014-05-06
HK|TBL|4218|Footwear|Male|960|2014-05-07
HK|TBL|4218|Footwear|Male|990|2014-05-08
HK|TBL|4218|Footwear|Male|986|2014-05-09
HK|TBL|4218|Footwear|Male|974|2014-05-10
HK|TBL|4218|Footwear|Woman|608|2014-05-01
HK|TBL|4218|Footwear|Woman|600|2014-05-02
HK|TBL|4218|Footwear|Woman|602|2014-05-03
HK|TBL|4218|Footwear|Woman|600|2014-05-04
HK|TBL|4218|Footwear|Woman|595|2014-05-05
HK|TBL|4218|Footwear|Woman|595|2014-05-06
HK|TBL|4218|Footwear|Woman|590|2014-05-07
HK|TBL|4218|Footwear|Woman|598|2014-05-08
HK|TBL|4218|Footwear|Woman|596|2014-05-09
HK|TBL|4218|Footwear|Woman|589|2014-05-10
HK|TBL|4218||Male|1128|2014-05-01
HK|TBL|4218||Male|1120|2014-05-02
HK|TBL|4218||Male|1132|2014-05-03
HK|TBL|4218||Male|1123|2014-05-04
HK|TBL|4218||Male|1118|2014-05-05
HK|TBL|4218||Male|1127|2014-05-06
HK|TBL|4218||Male|1118|2014-05-07
HK|TBL|4218||Male|1156|2014-05-08
HK|TBL|4218||Male|1147|2014-05-09
HK|TBL|4218||Male|1134|2014-05-10
HK|TBL|4218||Woman|97|2014-05-01
HK|TBL|4218||Woman|93|2014-05-02
HK|TBL|4218||Woman|91|2014-05-03
HK|TBL|4218||Woman|90|2014-05-04
HK|TBL|4218||Woman|90|2014-05-05
HK|TBL|4218||Woman|89|2014-05-06
HK|TBL|4218||Woman|88|2014-05-07
HK|TBL|4218||Woman|91|2014-05-08
HK|TBL|4218||Woman|90|2014-05-09
HK|TBL|4218||Woman|89|2014-05-10
HK|TBL|4218|||23|2014-05-01
HK|TBL|4218|||23|2014-05-02
HK|TBL|4218|||24|2014-05-03
HK|TBL|4218|||23|2014-05-04
HK|TBL|4218|||23|2014-05-05
HK|TBL|4218|||22|2014-05-06
HK|TBL|4218|||22|2014-05-07
HK|TBL|4218|||25|2014-05-08
HK|TBL|4218|||23|2014-05-09
HK|TBL|4218|||22|2014-05-10
